"DESCRIPTION";"TYPE";"NAME";"VALUE";"TEXSYM"
"consumers' discount factor";"PAR";"beta";0.99;"\beta"
"habit formation parameter";"PAR";"gam";0.5;"\gamma"
"relative weight of labour in utility";"PAR";"chi";5.584;"\chi"
"inverse Frisch labour elasticity";"PAR";"epsi";0.1;"\epsilon"
"capital share";"PAR";"alpha";0.33;"\alpha"
"depreciation rate of the capital stock";"PAR";"delta";0.025;"\delta"
"steady state fraction of save interbank assets (interbank friction)";"PAR";"omegabar";0;"\bar{\omega}"
"probability of new investment opportunities to arrive";"PAR";"pi(2)";;"{\pi^i}"
"steady state fraction of divertable asset (general degree of friction)";"PARCALI";"thetabar";;"\bar{\theta}"
"transfer to entering bankers";"PARCALI";"xi";;"\xi"
"Survival  rate  of the bankers";"PAR";"sigma";0.972;"\sigma"
"Inverse elasticity of net investment to the price of capital";"PAR";"eta_I";1.5;"{\eta_I}"
"Steady state proportion of government expenditures";"PAR";"Gshare";0.2;
"steady state government expenditure";"PARCALI";"Gbar";;"{\bar G}"
"autoregressive parameter of log productivity $z_t$";"PAR";"rho_z";0.66;"{\rho_z}"
"autoregressive parameter of log capital quality $\psi_t$";"PAR";"rho_psi";0.66;"{\rho_\psi}"
"autoregressive parameter of $\omega_t$";"PAR";"rho_omega";0.66;"{\rho_\omega}"
"autoregressive parameter of $\theta_t$";"PAR";"rho_theta";0.66;"{\rho_\theta}"
"steady state leverage ratio";"PAR";"LR";4;
"steady state average credit spread";"PAR";"SPREAD";0.0025;
