% Created by tikzDevice version 0.8.1 on 2015-06-29 08:04:35
% !TEX encoding = UTF-8 Unicode
\documentclass[mathserif,x11names,dvipsnames,red]{beamer}
\nonstopmode

\usepackage{tikz}

\usepackage[active,tightpage,psfixbb]{preview}

\PreviewEnvironment{pgfpicture}

\setlength\PreviewBorder{0pt}

\newcommand{\SweaveOpts}[1]{}  % do not interfere with LaTeX
\newcommand{\SweaveInput}[1]{} % because they are not real TeX commands
\newcommand{\Sexpr}[1]{}       % will only be parsed by R


\def\w{$\omega$}

%\usefonttheme{serif}
\usepackage{etex}
\usepackage{appendixnumberbeamer}
\newcommand{\backupbegin}{
   \newcounter{framenumberappendix}
   \setcounter{framenumberappendix}{\value{framenumber}}
}
\newcommand{\backupend}{  \addtocounter{framenumberappendix}{-\value{framenumber}}
   \addtocounter{framenumber}{\value{framenumberappendix}} 
}

\setbeameroption{hide notes} % Only slides
%\setbeameroption{show notes} % show notes 
%\setbeameroption{show only notes} % Only notes

\addtobeamertemplate{navigation symbols}{}{%
    \usebeamerfont{footline}%
    \usebeamercolor[fg]{footline}%
    \hspace{1em}%
    \insertframenumber/\inserttotalframenumber
}

%% ignorenonframetext does not work
% \mode<article>{}
 % \mode<presentation>{\usetheme{default} }
 
 \input{headerFiles/header}
 \input{headerFiles/math-def}
 \newtheorem{stylfact}{Stylized fact}
 \input{headerFiles/tikz-def}
 \input{headerFiles/acronyms}

\renewcommand{\Xi}{\cola{\omega}}
 
\setbeamerfont{myTOC}{series=\bfseries,size=\Large}
\AtBeginSection[]{\frame{\frametitle{Outline}%
                  \usebeamerfont{myTOC}\tableofcontents[current]}}

 % opening
 % \only<article>{\title{The role of the interbank market in a macroeconomic model with financial frictions}}
\title{Financial frictions and the interbank market}
 
 \author{Fabian Greimel}
 \institute{%Institut f\"ur h\"ohere Studien---
   Master's thesis}


\begin{document}

\begin{tikzpicture}[x=1pt,y=1pt]
\definecolor{fillColor}{RGB}{255,255,255}
\path[use as bounding box,fill=fillColor,fill opacity=0.00] (0,0) rectangle (505.89,325.21);
\begin{scope}
\path[clip] (  0.00,  0.00) rectangle (505.89,325.21);
\definecolor{drawColor}{RGB}{255,255,255}
\definecolor{fillColor}{RGB}{255,255,255}

\path[draw=drawColor,line width= 0.6pt,line join=round,line cap=round,fill=fillColor] (  0.00,  0.00) rectangle (505.89,325.21);
\end{scope}
\begin{scope}
\path[clip] ( 76.00,193.94) rectangle (180.04,255.12);
\definecolor{fillColor}{gray}{0.90}

\path[fill=fillColor] ( 76.00,193.94) rectangle (180.04,255.12);
\definecolor{drawColor}{gray}{0.95}

\path[draw=drawColor,line width= 0.3pt,line join=round] ( 76.00,198.89) --
	(180.04,198.89);

\path[draw=drawColor,line width= 0.3pt,line join=round] ( 76.00,210.43) --
	(180.04,210.43);

\path[draw=drawColor,line width= 0.3pt,line join=round] ( 76.00,221.97) --
	(180.04,221.97);

\path[draw=drawColor,line width= 0.3pt,line join=round] ( 76.00,233.50) --
	(180.04,233.50);

\path[draw=drawColor,line width= 0.3pt,line join=round] ( 76.00,245.04) --
	(180.04,245.04);

\path[draw=drawColor,line width= 0.3pt,line join=round] ( 90.19,193.94) --
	( 90.19,255.12);

\path[draw=drawColor,line width= 0.3pt,line join=round] (113.83,193.94) --
	(113.83,255.12);

\path[draw=drawColor,line width= 0.3pt,line join=round] (137.48,193.94) --
	(137.48,255.12);

\path[draw=drawColor,line width= 0.3pt,line join=round] (161.12,193.94) --
	(161.12,255.12);
\definecolor{drawColor}{RGB}{255,255,255}

\path[draw=drawColor,line width= 0.6pt,line join=round] ( 76.00,204.66) --
	(180.04,204.66);

\path[draw=drawColor,line width= 0.6pt,line join=round] ( 76.00,216.20) --
	(180.04,216.20);

\path[draw=drawColor,line width= 0.6pt,line join=round] ( 76.00,227.73) --
	(180.04,227.73);

\path[draw=drawColor,line width= 0.6pt,line join=round] ( 76.00,239.27) --
	(180.04,239.27);

\path[draw=drawColor,line width= 0.6pt,line join=round] ( 76.00,250.81) --
	(180.04,250.81);

\path[draw=drawColor,line width= 0.6pt,line join=round] ( 78.36,193.94) --
	( 78.36,255.12);

\path[draw=drawColor,line width= 0.6pt,line join=round] (102.01,193.94) --
	(102.01,255.12);

\path[draw=drawColor,line width= 0.6pt,line join=round] (125.66,193.94) --
	(125.66,255.12);

\path[draw=drawColor,line width= 0.6pt,line join=round] (149.30,193.94) --
	(149.30,255.12);

\path[draw=drawColor,line width= 0.6pt,line join=round] (172.95,193.94) --
	(172.95,255.12);
\definecolor{drawColor}{RGB}{228,26,28}

\path[draw=drawColor,line width= 0.6pt,line join=round] ( 80.73,206.26) --
	( 83.09,198.88) --
	( 85.46,202.93) --
	( 87.82,211.27) --
	( 90.19,220.41) --
	( 92.55,228.74) --
	( 94.92,235.63) --
	( 97.28,240.93) --
	( 99.65,244.76) --
	(102.01,247.33) --
	(104.37,248.88) --
	(106.74,249.64) --
	(109.10,249.81) --
	(111.47,249.56) --
	(113.83,249.04) --
	(116.20,248.35) --
	(118.56,247.56) --
	(120.93,246.74) --
	(123.29,245.93) --
	(125.66,245.15) --
	(128.02,244.43) --
	(130.38,243.78) --
	(132.75,243.19) --
	(135.11,242.66) --
	(137.48,242.21) --
	(139.84,241.81) --
	(142.21,241.46) --
	(144.57,241.17) --
	(146.94,240.92) --
	(149.30,240.71) --
	(151.66,240.53) --
	(154.03,240.37) --
	(156.39,240.25) --
	(158.76,240.14) --
	(161.12,240.05) --
	(163.49,239.97) --
	(165.85,239.91) --
	(168.22,239.85) --
	(170.58,239.80) --
	(172.95,239.76) --
	(175.31,239.73);
\definecolor{drawColor}{RGB}{55,126,184}

\path[draw=drawColor,line width= 0.6pt,line join=round] ( 80.73,204.29) --
	( 83.09,196.72) --
	( 85.46,201.44) --
	( 87.82,210.80) --
	( 90.19,220.99) --
	( 92.55,230.24) --
	( 94.92,237.82) --
	( 97.28,243.60) --
	( 99.65,247.68) --
	(102.01,250.31) --
	(104.37,251.78) --
	(106.74,252.34) --
	(109.10,252.24) --
	(111.47,251.69) --
	(113.83,250.84) --
	(116.20,249.82) --
	(118.56,248.73) --
	(120.93,247.63) --
	(123.29,246.58) --
	(125.66,245.59) --
	(128.02,244.69) --
	(130.38,243.89) --
	(132.75,243.19) --
	(135.11,242.58) --
	(137.48,242.05) --
	(139.84,241.61) --
	(142.21,241.24) --
	(144.57,240.93) --
	(146.94,240.68) --
	(149.30,240.47) --
	(151.66,240.30) --
	(154.03,240.16) --
	(156.39,240.05) --
	(158.76,239.96) --
	(161.12,239.89) --
	(163.49,239.83) --
	(165.85,239.78) --
	(168.22,239.74) --
	(170.58,239.71) --
	(172.95,239.68) --
	(175.31,239.66);
\end{scope}
\begin{scope}
\path[clip] (227.32,193.94) rectangle (331.36,255.12);
\definecolor{fillColor}{gray}{0.90}

\path[fill=fillColor] (227.32,193.94) rectangle (331.36,255.12);
\definecolor{drawColor}{gray}{0.95}

\path[draw=drawColor,line width= 0.3pt,line join=round] (227.32,206.65) --
	(331.36,206.65);

\path[draw=drawColor,line width= 0.3pt,line join=round] (227.32,226.34) --
	(331.36,226.34);

\path[draw=drawColor,line width= 0.3pt,line join=round] (227.32,246.04) --
	(331.36,246.04);

\path[draw=drawColor,line width= 0.3pt,line join=round] (241.51,193.94) --
	(241.51,255.12);

\path[draw=drawColor,line width= 0.3pt,line join=round] (265.15,193.94) --
	(265.15,255.12);

\path[draw=drawColor,line width= 0.3pt,line join=round] (288.80,193.94) --
	(288.80,255.12);

\path[draw=drawColor,line width= 0.3pt,line join=round] (312.45,193.94) --
	(312.45,255.12);
\definecolor{drawColor}{RGB}{255,255,255}

\path[draw=drawColor,line width= 0.6pt,line join=round] (227.32,196.80) --
	(331.36,196.80);

\path[draw=drawColor,line width= 0.6pt,line join=round] (227.32,216.49) --
	(331.36,216.49);

\path[draw=drawColor,line width= 0.6pt,line join=round] (227.32,236.19) --
	(331.36,236.19);

\path[draw=drawColor,line width= 0.6pt,line join=round] (229.69,193.94) --
	(229.69,255.12);

\path[draw=drawColor,line width= 0.6pt,line join=round] (253.33,193.94) --
	(253.33,255.12);

\path[draw=drawColor,line width= 0.6pt,line join=round] (276.98,193.94) --
	(276.98,255.12);

\path[draw=drawColor,line width= 0.6pt,line join=round] (300.62,193.94) --
	(300.62,255.12);

\path[draw=drawColor,line width= 0.6pt,line join=round] (324.27,193.94) --
	(324.27,255.12);
\definecolor{drawColor}{RGB}{228,26,28}

\path[draw=drawColor,line width= 0.6pt,line join=round] (232.05,205.41) --
	(234.42,197.76) --
	(236.78,201.58) --
	(239.15,210.19) --
	(241.51,219.93) --
	(243.87,228.93) --
	(246.24,236.39) --
	(248.60,242.06) --
	(250.97,246.04) --
	(253.33,248.55) --
	(255.70,249.87) --
	(258.06,250.28) --
	(260.43,250.01) --
	(262.79,249.29) --
	(265.15,248.27) --
	(267.52,247.09) --
	(269.88,245.85) --
	(272.25,244.61) --
	(274.61,243.42) --
	(276.98,242.31) --
	(279.34,241.31) --
	(281.71,240.41) --
	(284.07,239.62) --
	(286.44,238.93) --
	(288.80,238.35) --
	(291.16,237.85) --
	(293.53,237.43) --
	(295.89,237.08) --
	(298.26,236.80) --
	(300.62,236.57) --
	(302.99,236.38) --
	(305.35,236.23) --
	(307.72,236.11) --
	(310.08,236.02) --
	(312.45,235.95) --
	(314.81,235.90) --
	(317.17,235.87) --
	(319.54,235.84) --
	(321.90,235.83) --
	(324.27,235.82) --
	(326.63,235.82);
\definecolor{drawColor}{RGB}{55,126,184}

\path[draw=drawColor,line width= 0.6pt,line join=round] (232.05,204.40) --
	(234.42,196.72) --
	(236.78,201.07) --
	(239.15,210.44) --
	(241.51,220.95) --
	(243.87,230.62) --
	(246.24,238.56) --
	(248.60,244.52) --
	(250.97,248.60) --
	(253.33,251.06) --
	(255.70,252.20) --
	(258.06,252.34) --
	(260.43,251.76) --
	(262.79,250.69) --
	(265.15,249.32) --
	(267.52,247.82) --
	(269.88,246.27) --
	(272.25,244.77) --
	(274.61,243.36) --
	(276.98,242.07) --
	(279.34,240.92) --
	(281.71,239.92) --
	(284.07,239.05) --
	(286.44,238.32) --
	(288.80,237.71) --
	(291.16,237.21) --
	(293.53,236.80) --
	(295.89,236.48) --
	(298.26,236.23) --
	(300.62,236.03) --
	(302.99,235.88) --
	(305.35,235.78) --
	(307.72,235.70) --
	(310.08,235.65) --
	(312.45,235.62) --
	(314.81,235.61) --
	(317.17,235.60) --
	(319.54,235.61) --
	(321.90,235.62) --
	(324.27,235.64) --
	(326.63,235.66);
\end{scope}
\begin{scope}
\path[clip] (389.81,193.94) rectangle (493.85,255.12);
\definecolor{fillColor}{gray}{0.90}

\path[fill=fillColor] (389.81,193.94) rectangle (493.85,255.12);
\definecolor{drawColor}{gray}{0.95}

\path[draw=drawColor,line width= 0.3pt,line join=round] (389.81,199.59) --
	(493.85,199.59);

\path[draw=drawColor,line width= 0.3pt,line join=round] (389.81,214.71) --
	(493.85,214.71);

\path[draw=drawColor,line width= 0.3pt,line join=round] (389.81,229.83) --
	(493.85,229.83);

\path[draw=drawColor,line width= 0.3pt,line join=round] (389.81,244.96) --
	(493.85,244.96);

\path[draw=drawColor,line width= 0.3pt,line join=round] (403.99,193.94) --
	(403.99,255.12);

\path[draw=drawColor,line width= 0.3pt,line join=round] (427.64,193.94) --
	(427.64,255.12);

\path[draw=drawColor,line width= 0.3pt,line join=round] (451.28,193.94) --
	(451.28,255.12);

\path[draw=drawColor,line width= 0.3pt,line join=round] (474.93,193.94) --
	(474.93,255.12);
\definecolor{drawColor}{RGB}{255,255,255}

\path[draw=drawColor,line width= 0.6pt,line join=round] (389.81,207.15) --
	(493.85,207.15);

\path[draw=drawColor,line width= 0.6pt,line join=round] (389.81,222.27) --
	(493.85,222.27);

\path[draw=drawColor,line width= 0.6pt,line join=round] (389.81,237.40) --
	(493.85,237.40);

\path[draw=drawColor,line width= 0.6pt,line join=round] (389.81,252.52) --
	(493.85,252.52);

\path[draw=drawColor,line width= 0.6pt,line join=round] (392.17,193.94) --
	(392.17,255.12);

\path[draw=drawColor,line width= 0.6pt,line join=round] (415.82,193.94) --
	(415.82,255.12);

\path[draw=drawColor,line width= 0.6pt,line join=round] (439.46,193.94) --
	(439.46,255.12);

\path[draw=drawColor,line width= 0.6pt,line join=round] (463.11,193.94) --
	(463.11,255.12);

\path[draw=drawColor,line width= 0.6pt,line join=round] (486.75,193.94) --
	(486.75,255.12);
\definecolor{drawColor}{RGB}{228,26,28}

\path[draw=drawColor,line width= 0.6pt,dash pattern=on 2pt off 2pt ,line join=round] (394.54,243.41) --
	(396.90,236.77) --
	(399.26,231.04) --
	(401.63,226.77) --
	(403.99,224.09) --
	(406.36,222.86) --
	(408.72,222.86) --
	(411.09,223.79) --
	(413.45,225.40) --
	(415.82,227.45) --
	(418.18,229.74) --
	(420.54,232.11) --
	(422.91,234.47) --
	(425.27,236.73) --
	(427.64,238.83) --
	(430.00,240.75) --
	(432.37,242.48) --
	(434.73,244.01) --
	(437.10,245.35) --
	(439.46,246.51) --
	(441.83,247.51) --
	(444.19,248.36) --
	(446.55,249.08) --
	(448.92,249.68) --
	(451.28,250.18) --
	(453.65,250.59) --
	(456.01,250.94) --
	(458.38,251.22) --
	(460.74,251.45) --
	(463.11,251.63) --
	(465.47,251.78) --
	(467.84,251.91) --
	(470.20,252.00) --
	(472.56,252.08) --
	(474.93,252.15) --
	(477.29,252.20) --
	(479.66,252.24) --
	(482.02,252.27) --
	(484.39,252.30) --
	(486.75,252.32) --
	(489.12,252.33);
\definecolor{drawColor}{RGB}{55,126,184}

\path[draw=drawColor,line width= 0.6pt,dash pattern=on 2pt off 2pt ,line join=round] (394.54,196.72) --
	(396.90,202.87) --
	(399.26,205.90) --
	(401.63,207.76) --
	(403.99,209.50) --
	(406.36,211.56) --
	(408.72,214.07) --
	(411.09,216.99) --
	(413.45,220.20) --
	(415.82,223.55) --
	(418.18,226.90) --
	(420.54,230.16) --
	(422.91,233.22) --
	(425.27,236.05) --
	(427.64,238.61) --
	(430.00,240.88) --
	(432.37,242.86) --
	(434.73,244.57) --
	(437.10,246.04) --
	(439.46,247.27) --
	(441.83,248.29) --
	(444.19,249.14) --
	(446.55,249.83) --
	(448.92,250.39) --
	(451.28,250.84) --
	(453.65,251.19) --
	(456.01,251.47) --
	(458.38,251.69) --
	(460.74,251.86) --
	(463.11,251.99) --
	(465.47,252.08) --
	(467.84,252.15) --
	(470.20,252.21) --
	(472.56,252.25) --
	(474.93,252.27) --
	(477.29,252.29) --
	(479.66,252.31) --
	(482.02,252.32) --
	(484.39,252.33) --
	(486.75,252.33) --
	(489.12,252.34);
\end{scope}
\begin{scope}
\path[clip] ( 76.00,114.72) rectangle (180.04,175.89);
\definecolor{fillColor}{gray}{0.90}

\path[fill=fillColor] ( 76.00,114.72) rectangle (180.04,175.89);
\definecolor{drawColor}{gray}{0.95}

\path[draw=drawColor,line width= 0.3pt,line join=round] ( 76.00,118.66) --
	(180.04,118.66);

\path[draw=drawColor,line width= 0.3pt,line join=round] ( 76.00,130.48) --
	(180.04,130.48);

\path[draw=drawColor,line width= 0.3pt,line join=round] ( 76.00,142.29) --
	(180.04,142.29);

\path[draw=drawColor,line width= 0.3pt,line join=round] ( 76.00,154.11) --
	(180.04,154.11);

\path[draw=drawColor,line width= 0.3pt,line join=round] ( 76.00,165.93) --
	(180.04,165.93);

\path[draw=drawColor,line width= 0.3pt,line join=round] ( 90.19,114.72) --
	( 90.19,175.89);

\path[draw=drawColor,line width= 0.3pt,line join=round] (113.83,114.72) --
	(113.83,175.89);

\path[draw=drawColor,line width= 0.3pt,line join=round] (137.48,114.72) --
	(137.48,175.89);

\path[draw=drawColor,line width= 0.3pt,line join=round] (161.12,114.72) --
	(161.12,175.89);
\definecolor{drawColor}{RGB}{255,255,255}

\path[draw=drawColor,line width= 0.6pt,line join=round] ( 76.00,124.57) --
	(180.04,124.57);

\path[draw=drawColor,line width= 0.6pt,line join=round] ( 76.00,136.39) --
	(180.04,136.39);

\path[draw=drawColor,line width= 0.6pt,line join=round] ( 76.00,148.20) --
	(180.04,148.20);

\path[draw=drawColor,line width= 0.6pt,line join=round] ( 76.00,160.02) --
	(180.04,160.02);

\path[draw=drawColor,line width= 0.6pt,line join=round] ( 76.00,171.83) --
	(180.04,171.83);

\path[draw=drawColor,line width= 0.6pt,line join=round] ( 78.36,114.72) --
	( 78.36,175.89);

\path[draw=drawColor,line width= 0.6pt,line join=round] (102.01,114.72) --
	(102.01,175.89);

\path[draw=drawColor,line width= 0.6pt,line join=round] (125.66,114.72) --
	(125.66,175.89);

\path[draw=drawColor,line width= 0.6pt,line join=round] (149.30,114.72) --
	(149.30,175.89);

\path[draw=drawColor,line width= 0.6pt,line join=round] (172.95,114.72) --
	(172.95,175.89);
\definecolor{drawColor}{RGB}{228,26,28}

\path[draw=drawColor,line width= 0.6pt,line join=round] ( 80.73,150.79) --
	( 83.09,139.49) --
	( 85.46,129.62) --
	( 87.82,122.58) --
	( 90.19,118.64) --
	( 92.55,117.50) --
	( 94.92,118.62) --
	( 97.28,121.41) --
	( 99.65,125.33) --
	(102.01,129.91) --
	(104.37,134.76) --
	(106.74,139.62) --
	(109.10,144.27) --
	(111.47,148.60) --
	(113.83,152.50) --
	(116.20,155.96) --
	(118.56,158.96) --
	(120.93,161.51) --
	(123.29,163.64) --
	(125.66,165.38) --
	(128.02,166.78) --
	(130.38,167.88) --
	(132.75,168.71) --
	(135.11,169.31) --
	(137.48,169.73) --
	(139.84,169.98) --
	(142.21,170.10) --
	(144.57,170.12) --
	(146.94,170.05) --
	(149.30,169.91) --
	(151.66,169.72) --
	(154.03,169.49) --
	(156.39,169.23) --
	(158.76,168.94) --
	(161.12,168.65) --
	(163.49,168.35) --
	(165.85,168.04) --
	(168.22,167.74) --
	(170.58,167.43) --
	(172.95,167.14) --
	(175.31,166.85);
\definecolor{drawColor}{RGB}{55,126,184}

\path[draw=drawColor,line width= 0.6pt,line join=round] ( 80.73,150.48) --
	( 83.09,138.88) --
	( 85.46,128.88) --
	( 87.82,121.93) --
	( 90.19,118.31) --
	( 92.55,117.68) --
	( 94.92,119.45) --
	( 97.28,122.96) --
	( 99.65,127.61) --
	(102.01,132.88) --
	(104.37,138.36) --
	(106.74,143.74) --
	(109.10,148.82) --
	(111.47,153.44) --
	(113.83,157.55) --
	(116.20,161.10) --
	(118.56,164.09) --
	(120.93,166.56) --
	(123.29,168.55) --
	(125.66,170.10) --
	(128.02,171.27) --
	(130.38,172.10) --
	(132.75,172.66) --
	(135.11,172.98) --
	(137.48,173.11) --
	(139.84,173.09) --
	(142.21,172.95) --
	(144.57,172.71) --
	(146.94,172.40) --
	(149.30,172.04) --
	(151.66,171.65) --
	(154.03,171.24) --
	(156.39,170.81) --
	(158.76,170.38) --
	(161.12,169.95) --
	(163.49,169.52) --
	(165.85,169.11) --
	(168.22,168.71) --
	(170.58,168.32) --
	(172.95,167.94) --
	(175.31,167.59);
\end{scope}
\begin{scope}
\path[clip] (227.32,114.72) rectangle (331.36,175.89);
\definecolor{fillColor}{gray}{0.90}

\path[fill=fillColor] (227.32,114.72) rectangle (331.36,175.89);
\definecolor{drawColor}{gray}{0.95}

\path[draw=drawColor,line width= 0.3pt,line join=round] (227.32,124.45) --
	(331.36,124.45);

\path[draw=drawColor,line width= 0.3pt,line join=round] (227.32,140.03) --
	(331.36,140.03);

\path[draw=drawColor,line width= 0.3pt,line join=round] (227.32,155.62) --
	(331.36,155.62);

\path[draw=drawColor,line width= 0.3pt,line join=round] (227.32,171.21) --
	(331.36,171.21);

\path[draw=drawColor,line width= 0.3pt,line join=round] (241.51,114.72) --
	(241.51,175.89);

\path[draw=drawColor,line width= 0.3pt,line join=round] (265.15,114.72) --
	(265.15,175.89);

\path[draw=drawColor,line width= 0.3pt,line join=round] (288.80,114.72) --
	(288.80,175.89);

\path[draw=drawColor,line width= 0.3pt,line join=round] (312.45,114.72) --
	(312.45,175.89);
\definecolor{drawColor}{RGB}{255,255,255}

\path[draw=drawColor,line width= 0.6pt,line join=round] (227.32,116.65) --
	(331.36,116.65);

\path[draw=drawColor,line width= 0.6pt,line join=round] (227.32,132.24) --
	(331.36,132.24);

\path[draw=drawColor,line width= 0.6pt,line join=round] (227.32,147.83) --
	(331.36,147.83);

\path[draw=drawColor,line width= 0.6pt,line join=round] (227.32,163.41) --
	(331.36,163.41);

\path[draw=drawColor,line width= 0.6pt,line join=round] (229.69,114.72) --
	(229.69,175.89);

\path[draw=drawColor,line width= 0.6pt,line join=round] (253.33,114.72) --
	(253.33,175.89);

\path[draw=drawColor,line width= 0.6pt,line join=round] (276.98,114.72) --
	(276.98,175.89);

\path[draw=drawColor,line width= 0.6pt,line join=round] (300.62,114.72) --
	(300.62,175.89);

\path[draw=drawColor,line width= 0.6pt,line join=round] (324.27,114.72) --
	(324.27,175.89);
\definecolor{drawColor}{RGB}{228,26,28}

\path[draw=drawColor,line width= 0.6pt,line join=round] (232.05,166.67) --
	(234.42,165.74) --
	(236.78,162.92) --
	(239.15,159.15) --
	(241.51,154.97) --
	(243.87,150.73) --
	(246.24,146.63) --
	(248.60,142.80) --
	(250.97,139.30) --
	(253.33,136.16) --
	(255.70,133.39) --
	(258.06,130.97) --
	(260.43,128.87) --
	(262.79,127.08) --
	(265.15,125.54) --
	(267.52,124.25) --
	(269.88,123.15) --
	(272.25,122.24) --
	(274.61,121.47) --
	(276.98,120.83) --
	(279.34,120.30) --
	(281.71,119.86) --
	(284.07,119.49) --
	(286.44,119.19) --
	(288.80,118.93) --
	(291.16,118.72) --
	(293.53,118.54) --
	(295.89,118.39) --
	(298.26,118.26) --
	(300.62,118.15) --
	(302.99,118.05) --
	(305.35,117.97) --
	(307.72,117.89) --
	(310.08,117.83) --
	(312.45,117.77) --
	(314.81,117.71) --
	(317.17,117.66) --
	(319.54,117.62) --
	(321.90,117.57) --
	(324.27,117.53) --
	(326.63,117.50);
\definecolor{drawColor}{RGB}{55,126,184}

\path[draw=drawColor,line width= 0.6pt,line join=round] (232.05,173.11) --
	(234.42,171.34) --
	(236.78,167.62) --
	(239.15,162.92) --
	(241.51,157.86) --
	(243.87,152.80) --
	(246.24,147.98) --
	(248.60,143.53) --
	(250.97,139.53) --
	(253.33,135.98) --
	(255.70,132.90) --
	(258.06,130.26) --
	(260.43,128.01) --
	(262.79,126.13) --
	(265.15,124.56) --
	(267.52,123.27) --
	(269.88,122.21) --
	(272.25,121.35) --
	(274.61,120.65) --
	(276.98,120.10) --
	(279.34,119.65) --
	(281.71,119.29) --
	(284.07,119.01) --
	(286.44,118.78) --
	(288.80,118.60) --
	(291.16,118.45) --
	(293.53,118.33) --
	(295.89,118.23) --
	(298.26,118.14) --
	(300.62,118.07) --
	(302.99,118.01) --
	(305.35,117.95) --
	(307.72,117.90) --
	(310.08,117.85) --
	(312.45,117.80) --
	(314.81,117.76) --
	(317.17,117.72) --
	(319.54,117.67) --
	(321.90,117.63) --
	(324.27,117.60) --
	(326.63,117.56);
\end{scope}
\begin{scope}
\path[clip] (389.81,114.72) rectangle (493.85,175.89);
\definecolor{fillColor}{gray}{0.90}

\path[fill=fillColor] (389.81,114.72) rectangle (493.85,175.89);
\definecolor{drawColor}{gray}{0.95}

\path[draw=drawColor,line width= 0.3pt,line join=round] (389.81,127.50) --
	(493.85,127.50);

\path[draw=drawColor,line width= 0.3pt,line join=round] (389.81,140.32) --
	(493.85,140.32);

\path[draw=drawColor,line width= 0.3pt,line join=round] (389.81,153.13) --
	(493.85,153.13);

\path[draw=drawColor,line width= 0.3pt,line join=round] (389.81,165.95) --
	(493.85,165.95);

\path[draw=drawColor,line width= 0.3pt,line join=round] (403.99,114.72) --
	(403.99,175.89);

\path[draw=drawColor,line width= 0.3pt,line join=round] (427.64,114.72) --
	(427.64,175.89);

\path[draw=drawColor,line width= 0.3pt,line join=round] (451.28,114.72) --
	(451.28,175.89);

\path[draw=drawColor,line width= 0.3pt,line join=round] (474.93,114.72) --
	(474.93,175.89);
\definecolor{drawColor}{RGB}{255,255,255}

\path[draw=drawColor,line width= 0.6pt,line join=round] (389.81,121.09) --
	(493.85,121.09);

\path[draw=drawColor,line width= 0.6pt,line join=round] (389.81,133.91) --
	(493.85,133.91);

\path[draw=drawColor,line width= 0.6pt,line join=round] (389.81,146.72) --
	(493.85,146.72);

\path[draw=drawColor,line width= 0.6pt,line join=round] (389.81,159.54) --
	(493.85,159.54);

\path[draw=drawColor,line width= 0.6pt,line join=round] (389.81,172.36) --
	(493.85,172.36);

\path[draw=drawColor,line width= 0.6pt,line join=round] (392.17,114.72) --
	(392.17,175.89);

\path[draw=drawColor,line width= 0.6pt,line join=round] (415.82,114.72) --
	(415.82,175.89);

\path[draw=drawColor,line width= 0.6pt,line join=round] (439.46,114.72) --
	(439.46,175.89);

\path[draw=drawColor,line width= 0.6pt,line join=round] (463.11,114.72) --
	(463.11,175.89);

\path[draw=drawColor,line width= 0.6pt,line join=round] (486.75,114.72) --
	(486.75,175.89);
\definecolor{drawColor}{RGB}{228,26,28}

\path[draw=drawColor,line width= 0.6pt,line join=round] (394.54,173.11) --
	(396.90,155.01) --
	(399.26,142.60) --
	(401.63,134.45) --
	(403.99,129.46) --
	(406.36,126.80) --
	(408.72,125.80) --
	(411.09,125.96) --
	(413.45,126.87) --
	(415.82,128.26) --
	(418.18,129.91) --
	(420.54,131.66) --
	(422.91,133.41) --
	(425.27,135.09) --
	(427.64,136.66) --
	(430.00,138.09) --
	(432.37,139.36) --
	(434.73,140.49) --
	(437.10,141.48) --
	(439.46,142.32) --
	(441.83,143.05) --
	(444.19,143.66) --
	(446.55,144.18) --
	(448.92,144.62) --
	(451.28,144.98) --
	(453.65,145.28) --
	(456.01,145.52) --
	(458.38,145.72) --
	(460.74,145.89) --
	(463.11,146.02) --
	(465.47,146.13) --
	(467.84,146.22) --
	(470.20,146.29) --
	(472.56,146.35) --
	(474.93,146.39) --
	(477.29,146.43) --
	(479.66,146.46) --
	(482.02,146.49) --
	(484.39,146.51) --
	(486.75,146.52) --
	(489.12,146.54);
\definecolor{drawColor}{RGB}{55,126,184}

\path[draw=drawColor,line width= 0.6pt,line join=round] (394.54,163.64) --
	(396.90,145.99) --
	(399.26,133.53) --
	(401.63,125.29) --
	(403.99,120.37) --
	(406.36,117.99) --
	(408.72,117.50) --
	(411.09,118.33) --
	(413.45,120.03) --
	(415.82,122.28) --
	(418.18,124.79) --
	(420.54,127.38) --
	(422.91,129.91) --
	(425.27,132.30) --
	(427.64,134.49) --
	(430.00,136.45) --
	(432.37,138.19) --
	(434.73,139.69) --
	(437.10,140.97) --
	(439.46,142.05) --
	(441.83,142.96) --
	(444.19,143.70) --
	(446.55,144.31) --
	(448.92,144.81) --
	(451.28,145.20) --
	(453.65,145.52) --
	(456.01,145.76) --
	(458.38,145.96) --
	(460.74,146.11) --
	(463.11,146.22) --
	(465.47,146.30) --
	(467.84,146.37) --
	(470.20,146.42) --
	(472.56,146.45) --
	(474.93,146.48) --
	(477.29,146.50) --
	(479.66,146.51) --
	(482.02,146.52) --
	(484.39,146.53) --
	(486.75,146.54) --
	(489.12,146.54);
\end{scope}
\begin{scope}
\path[clip] ( 76.00, 35.49) rectangle (180.04, 96.67);
\definecolor{fillColor}{gray}{0.90}

\path[fill=fillColor] ( 76.00, 35.49) rectangle (180.04, 96.67);
\definecolor{drawColor}{gray}{0.95}

\path[draw=drawColor,line width= 0.3pt,line join=round] ( 76.00, 42.42) --
	(180.04, 42.42);

\path[draw=drawColor,line width= 0.3pt,line join=round] ( 76.00, 53.87) --
	(180.04, 53.87);

\path[draw=drawColor,line width= 0.3pt,line join=round] ( 76.00, 65.32) --
	(180.04, 65.32);

\path[draw=drawColor,line width= 0.3pt,line join=round] ( 76.00, 76.77) --
	(180.04, 76.77);

\path[draw=drawColor,line width= 0.3pt,line join=round] ( 76.00, 88.23) --
	(180.04, 88.23);

\path[draw=drawColor,line width= 0.3pt,line join=round] ( 90.19, 35.49) --
	( 90.19, 96.67);

\path[draw=drawColor,line width= 0.3pt,line join=round] (113.83, 35.49) --
	(113.83, 96.67);

\path[draw=drawColor,line width= 0.3pt,line join=round] (137.48, 35.49) --
	(137.48, 96.67);

\path[draw=drawColor,line width= 0.3pt,line join=round] (161.12, 35.49) --
	(161.12, 96.67);
\definecolor{drawColor}{RGB}{255,255,255}

\path[draw=drawColor,line width= 0.6pt,line join=round] ( 76.00, 36.69) --
	(180.04, 36.69);

\path[draw=drawColor,line width= 0.6pt,line join=round] ( 76.00, 48.14) --
	(180.04, 48.14);

\path[draw=drawColor,line width= 0.6pt,line join=round] ( 76.00, 59.59) --
	(180.04, 59.59);

\path[draw=drawColor,line width= 0.6pt,line join=round] ( 76.00, 71.05) --
	(180.04, 71.05);

\path[draw=drawColor,line width= 0.6pt,line join=round] ( 76.00, 82.50) --
	(180.04, 82.50);

\path[draw=drawColor,line width= 0.6pt,line join=round] ( 76.00, 93.95) --
	(180.04, 93.95);

\path[draw=drawColor,line width= 0.6pt,line join=round] ( 78.36, 35.49) --
	( 78.36, 96.67);

\path[draw=drawColor,line width= 0.6pt,line join=round] (102.01, 35.49) --
	(102.01, 96.67);

\path[draw=drawColor,line width= 0.6pt,line join=round] (125.66, 35.49) --
	(125.66, 96.67);

\path[draw=drawColor,line width= 0.6pt,line join=round] (149.30, 35.49) --
	(149.30, 96.67);

\path[draw=drawColor,line width= 0.6pt,line join=round] (172.95, 35.49) --
	(172.95, 96.67);
\definecolor{drawColor}{RGB}{228,26,28}

\path[draw=drawColor,line width= 0.6pt,dash pattern=on 2pt off 2pt ,line join=round] ( 80.73, 38.27) --
	( 83.09, 53.76) --
	( 85.46, 63.76) --
	( 87.82, 70.35) --
	( 90.19, 74.83) --
	( 92.55, 78.01) --
	( 94.92, 80.40) --
	( 97.28, 82.28) --
	( 99.65, 83.84) --
	(102.01, 85.17) --
	(104.37, 86.34) --
	(106.74, 87.37) --
	(109.10, 88.28) --
	(111.47, 89.09) --
	(113.83, 89.80) --
	(116.20, 90.43) --
	(118.56, 90.97) --
	(120.93, 91.45) --
	(123.29, 91.85) --
	(125.66, 92.20) --
	(128.02, 92.49) --
	(130.38, 92.74) --
	(132.75, 92.95) --
	(135.11, 93.13) --
	(137.48, 93.27) --
	(139.84, 93.39) --
	(142.21, 93.49) --
	(144.57, 93.57) --
	(146.94, 93.63) --
	(149.30, 93.69) --
	(151.66, 93.73) --
	(154.03, 93.76) --
	(156.39, 93.79) --
	(158.76, 93.81) --
	(161.12, 93.83) --
	(163.49, 93.85) --
	(165.85, 93.86) --
	(168.22, 93.87) --
	(170.58, 93.88) --
	(172.95, 93.88) --
	(175.31, 93.89);
\definecolor{drawColor}{RGB}{55,126,184}

\path[draw=drawColor,line width= 0.6pt,dash pattern=on 2pt off 2pt ,line join=round] ( 80.73, 54.13) --
	( 83.09, 57.97) --
	( 85.46, 59.73) --
	( 87.82, 60.80) --
	( 90.19, 61.88) --
	( 92.55, 63.29) --
	( 94.92, 65.09) --
	( 97.28, 67.23) --
	( 99.65, 69.61) --
	(102.01, 72.11) --
	(104.37, 74.63) --
	(106.74, 77.08) --
	(109.10, 79.39) --
	(111.47, 81.52) --
	(113.83, 83.45) --
	(116.20, 85.16) --
	(118.56, 86.66) --
	(120.93, 87.95) --
	(123.29, 89.05) --
	(125.66, 89.98) --
	(128.02, 90.76) --
	(130.38, 91.40) --
	(132.75, 91.92) --
	(135.11, 92.34) --
	(137.48, 92.68) --
	(139.84, 92.95) --
	(142.21, 93.16) --
	(144.57, 93.33) --
	(146.94, 93.45) --
	(149.30, 93.55) --
	(151.66, 93.62) --
	(154.03, 93.68) --
	(156.39, 93.72) --
	(158.76, 93.75) --
	(161.12, 93.77) --
	(163.49, 93.78) --
	(165.85, 93.79) --
	(168.22, 93.80) --
	(170.58, 93.81) --
	(172.95, 93.81) --
	(175.31, 93.82);
\end{scope}
\begin{scope}
\path[clip] (227.32, 35.49) rectangle (331.36, 96.67);
\definecolor{fillColor}{gray}{0.90}

\path[fill=fillColor] (227.32, 35.49) rectangle (331.36, 96.67);
\definecolor{drawColor}{gray}{0.95}

\path[draw=drawColor,line width= 0.3pt,line join=round] (227.32, 40.85) --
	(331.36, 40.85);

\path[draw=drawColor,line width= 0.3pt,line join=round] (227.32, 54.77) --
	(331.36, 54.77);

\path[draw=drawColor,line width= 0.3pt,line join=round] (227.32, 68.69) --
	(331.36, 68.69);

\path[draw=drawColor,line width= 0.3pt,line join=round] (227.32, 82.61) --
	(331.36, 82.61);

\path[draw=drawColor,line width= 0.3pt,line join=round] (227.32, 96.53) --
	(331.36, 96.53);

\path[draw=drawColor,line width= 0.3pt,line join=round] (241.51, 35.49) --
	(241.51, 96.67);

\path[draw=drawColor,line width= 0.3pt,line join=round] (265.15, 35.49) --
	(265.15, 96.67);

\path[draw=drawColor,line width= 0.3pt,line join=round] (288.80, 35.49) --
	(288.80, 96.67);

\path[draw=drawColor,line width= 0.3pt,line join=round] (312.45, 35.49) --
	(312.45, 96.67);
\definecolor{drawColor}{RGB}{255,255,255}

\path[draw=drawColor,line width= 0.6pt,line join=round] (227.32, 47.81) --
	(331.36, 47.81);

\path[draw=drawColor,line width= 0.6pt,line join=round] (227.32, 61.73) --
	(331.36, 61.73);

\path[draw=drawColor,line width= 0.6pt,line join=round] (227.32, 75.65) --
	(331.36, 75.65);

\path[draw=drawColor,line width= 0.6pt,line join=round] (227.32, 89.57) --
	(331.36, 89.57);

\path[draw=drawColor,line width= 0.6pt,line join=round] (229.69, 35.49) --
	(229.69, 96.67);

\path[draw=drawColor,line width= 0.6pt,line join=round] (253.33, 35.49) --
	(253.33, 96.67);

\path[draw=drawColor,line width= 0.6pt,line join=round] (276.98, 35.49) --
	(276.98, 96.67);

\path[draw=drawColor,line width= 0.6pt,line join=round] (300.62, 35.49) --
	(300.62, 96.67);

\path[draw=drawColor,line width= 0.6pt,line join=round] (324.27, 35.49) --
	(324.27, 96.67);
\definecolor{drawColor}{RGB}{228,26,28}

\path[draw=drawColor,line width= 0.6pt,line join=round] (232.05, 40.37) --
	(234.42, 65.34) --
	(236.78, 79.59) --
	(239.15, 87.38) --
	(241.51, 91.32) --
	(243.87, 93.02) --
	(246.24, 93.46) --
	(248.60, 93.25) --
	(250.97, 92.74) --
	(253.33, 92.13) --
	(255.70, 91.52) --
	(258.06, 90.98) --
	(260.43, 90.53) --
	(262.79, 90.17) --
	(265.15, 89.89) --
	(267.52, 89.68) --
	(269.88, 89.54) --
	(272.25, 89.44) --
	(274.61, 89.37) --
	(276.98, 89.34) --
	(279.34, 89.33) --
	(281.71, 89.33) --
	(284.07, 89.34) --
	(286.44, 89.35) --
	(288.80, 89.37) --
	(291.16, 89.39) --
	(293.53, 89.42) --
	(295.89, 89.44) --
	(298.26, 89.46) --
	(300.62, 89.47) --
	(302.99, 89.49) --
	(305.35, 89.50) --
	(307.72, 89.51) --
	(310.08, 89.52) --
	(312.45, 89.53) --
	(314.81, 89.54) --
	(317.17, 89.55) --
	(319.54, 89.55) --
	(321.90, 89.56) --
	(324.27, 89.56) --
	(326.63, 89.56);
\definecolor{drawColor}{RGB}{55,126,184}

\path[draw=drawColor,line width= 0.6pt,line join=round] (232.05, 38.27) --
	(234.42, 64.18) --
	(236.78, 79.12) --
	(239.15, 87.36) --
	(241.51, 91.57) --
	(243.87, 93.41) --
	(246.24, 93.89) --
	(248.60, 93.65) --
	(250.97, 93.07) --
	(253.33, 92.38) --
	(255.70, 91.70) --
	(258.06, 91.09) --
	(260.43, 90.58) --
	(262.79, 90.17) --
	(265.15, 89.85) --
	(267.52, 89.62) --
	(269.88, 89.45) --
	(272.25, 89.35) --
	(274.61, 89.28) --
	(276.98, 89.25) --
	(279.34, 89.25) --
	(281.71, 89.26) --
	(284.07, 89.28) --
	(286.44, 89.30) --
	(288.80, 89.33) --
	(291.16, 89.36) --
	(293.53, 89.39) --
	(295.89, 89.42) --
	(298.26, 89.44) --
	(300.62, 89.47) --
	(302.99, 89.49) --
	(305.35, 89.50) --
	(307.72, 89.52) --
	(310.08, 89.53) --
	(312.45, 89.54) --
	(314.81, 89.55) --
	(317.17, 89.55) --
	(319.54, 89.56) --
	(321.90, 89.56) --
	(324.27, 89.57) --
	(326.63, 89.57);
\end{scope}
\begin{scope}
\path[clip] (  0.00,  0.00) rectangle (505.89,325.21);
\definecolor{fillColor}{gray}{0.80}

\path[fill=fillColor] ( 76.00,255.12) rectangle (180.04,269.55);
\definecolor{drawColor}{RGB}{0,0,0}

\node[text=drawColor,anchor=base,inner sep=0pt, outer sep=0pt, scale=  0.96] at (128.02,258.69) {output $ Y $};
\end{scope}
\begin{scope}
\path[clip] (  0.00,  0.00) rectangle (505.89,325.21);
\definecolor{fillColor}{gray}{0.80}

\path[fill=fillColor] (227.32,255.12) rectangle (331.36,269.55);
\definecolor{drawColor}{RGB}{0,0,0}

\node[text=drawColor,anchor=base,inner sep=0pt, outer sep=0pt, scale=  0.96] at (279.34,258.69) {investment $ I $};
\end{scope}
\begin{scope}
\path[clip] (  0.00,  0.00) rectangle (505.89,325.21);
\definecolor{fillColor}{gray}{0.80}

\path[fill=fillColor] (389.81,255.12) rectangle (493.85,269.55);
\definecolor{drawColor}{RGB}{0,0,0}

\node[text=drawColor,anchor=base,inner sep=0pt, outer sep=0pt, scale=  0.96] at (441.83,258.69) {spread $\E_t R_{k,t+1} - R_{t}$};
\end{scope}
\begin{scope}
\path[clip] (  0.00,  0.00) rectangle (505.89,325.21);
\definecolor{fillColor}{gray}{0.80}

\path[fill=fillColor] ( 76.00,175.89) rectangle (180.04,190.33);
\definecolor{drawColor}{RGB}{0,0,0}

\node[text=drawColor,anchor=base,inner sep=0pt, outer sep=0pt, scale=  0.96] at (128.02,179.46) {aggregate loans $ S $};
\end{scope}
\begin{scope}
\path[clip] (  0.00,  0.00) rectangle (505.89,325.21);
\definecolor{fillColor}{gray}{0.80}

\path[fill=fillColor] (227.32,175.89) rectangle (331.36,190.33);
\definecolor{drawColor}{RGB}{0,0,0}

\node[text=drawColor,anchor=base,inner sep=0pt, outer sep=0pt, scale=  0.96] at (279.34,179.46) {aggregate net worth $ N $};
\end{scope}
\begin{scope}
\path[clip] (  0.00,  0.00) rectangle (505.89,325.21);
\definecolor{fillColor}{gray}{0.80}

\path[fill=fillColor] (389.81,175.89) rectangle (493.85,190.33);
\definecolor{drawColor}{RGB}{0,0,0}

\node[text=drawColor,anchor=base,inner sep=0pt, outer sep=0pt, scale=  0.96] at (441.83,179.46) {avg multiplier $\bar{\lambda}_t$};
\end{scope}
\begin{scope}
\path[clip] (  0.00,  0.00) rectangle (505.89,325.21);
\definecolor{fillColor}{gray}{0.80}

\path[fill=fillColor] ( 76.00, 96.67) rectangle (180.04,111.10);
\definecolor{drawColor}{RGB}{0,0,0}

\node[text=drawColor,anchor=base,inner sep=0pt, outer sep=0pt, scale=  0.96] at (128.02,100.24) {interbank spread  $R_{bt} - R_{t}$};
\end{scope}
\begin{scope}
\path[clip] (  0.00,  0.00) rectangle (505.89,325.21);
\definecolor{fillColor}{gray}{0.80}

\path[fill=fillColor] (227.32, 96.67) rectangle (331.36,111.10);
\definecolor{drawColor}{RGB}{0,0,0}

\node[text=drawColor,anchor=base,inner sep=0pt, outer sep=0pt, scale=  0.96] at (279.34,100.24) {asset price $Q^{{i}}_t$};
\end{scope}
\begin{scope}
\path[clip] (  0.00,  0.00) rectangle (505.89,325.21);
\definecolor{drawColor}{gray}{0.50}

\node[text=drawColor,anchor=base east,inner sep=0pt, outer sep=0pt, scale=  0.96] at ( 68.89,201.01) {-0.0003};

\node[text=drawColor,anchor=base east,inner sep=0pt, outer sep=0pt, scale=  0.96] at ( 68.89,212.55) {-0.0002};

\node[text=drawColor,anchor=base east,inner sep=0pt, outer sep=0pt, scale=  0.96] at ( 68.89,224.08) {-0.0001};

\node[text=drawColor,anchor=base east,inner sep=0pt, outer sep=0pt, scale=  0.96] at ( 68.89,235.62) {0.0000};

\node[text=drawColor,anchor=base east,inner sep=0pt, outer sep=0pt, scale=  0.96] at ( 68.89,247.16) {0.0001};
\end{scope}
\begin{scope}
\path[clip] (  0.00,  0.00) rectangle (505.89,325.21);
\definecolor{drawColor}{gray}{0.50}

\path[draw=drawColor,line width= 0.6pt,line join=round] ( 71.73,204.66) --
	( 76.00,204.66);

\path[draw=drawColor,line width= 0.6pt,line join=round] ( 71.73,216.20) --
	( 76.00,216.20);

\path[draw=drawColor,line width= 0.6pt,line join=round] ( 71.73,227.73) --
	( 76.00,227.73);

\path[draw=drawColor,line width= 0.6pt,line join=round] ( 71.73,239.27) --
	( 76.00,239.27);

\path[draw=drawColor,line width= 0.6pt,line join=round] ( 71.73,250.81) --
	( 76.00,250.81);
\end{scope}
\begin{scope}
\path[clip] (  0.00,  0.00) rectangle (505.89,325.21);
\definecolor{drawColor}{gray}{0.50}

\node[text=drawColor,anchor=base east,inner sep=0pt, outer sep=0pt, scale=  0.96] at (220.21,193.15) {-0.002};

\node[text=drawColor,anchor=base east,inner sep=0pt, outer sep=0pt, scale=  0.96] at (220.21,212.85) {-0.001};

\node[text=drawColor,anchor=base east,inner sep=0pt, outer sep=0pt, scale=  0.96] at (220.21,232.54) {0.000};
\end{scope}
\begin{scope}
\path[clip] (  0.00,  0.00) rectangle (505.89,325.21);
\definecolor{drawColor}{gray}{0.50}

\path[draw=drawColor,line width= 0.6pt,line join=round] (223.05,196.80) --
	(227.32,196.80);

\path[draw=drawColor,line width= 0.6pt,line join=round] (223.05,216.49) --
	(227.32,216.49);

\path[draw=drawColor,line width= 0.6pt,line join=round] (223.05,236.19) --
	(227.32,236.19);
\end{scope}
\begin{scope}
\path[clip] (  0.00,  0.00) rectangle (505.89,325.21);
\definecolor{drawColor}{gray}{0.50}

\node[text=drawColor,anchor=base east,inner sep=0pt, outer sep=0pt, scale=  0.96] at (382.69,203.50) {-0.000075};

\node[text=drawColor,anchor=base east,inner sep=0pt, outer sep=0pt, scale=  0.96] at (382.69,218.62) {-0.000050};

\node[text=drawColor,anchor=base east,inner sep=0pt, outer sep=0pt, scale=  0.96] at (382.69,233.75) {-0.000025};

\node[text=drawColor,anchor=base east,inner sep=0pt, outer sep=0pt, scale=  0.96] at (382.69,248.87) {0.000000};
\end{scope}
\begin{scope}
\path[clip] (  0.00,  0.00) rectangle (505.89,325.21);
\definecolor{drawColor}{gray}{0.50}

\path[draw=drawColor,line width= 0.6pt,line join=round] (385.54,207.15) --
	(389.81,207.15);

\path[draw=drawColor,line width= 0.6pt,line join=round] (385.54,222.27) --
	(389.81,222.27);

\path[draw=drawColor,line width= 0.6pt,line join=round] (385.54,237.40) --
	(389.81,237.40);

\path[draw=drawColor,line width= 0.6pt,line join=round] (385.54,252.52) --
	(389.81,252.52);
\end{scope}
\begin{scope}
\path[clip] (  0.00,  0.00) rectangle (505.89,325.21);
\definecolor{drawColor}{gray}{0.50}

\node[text=drawColor,anchor=base east,inner sep=0pt, outer sep=0pt, scale=  0.96] at ( 68.89,120.92) {-0.00015};

\node[text=drawColor,anchor=base east,inner sep=0pt, outer sep=0pt, scale=  0.96] at ( 68.89,132.74) {-0.00010};

\node[text=drawColor,anchor=base east,inner sep=0pt, outer sep=0pt, scale=  0.96] at ( 68.89,144.55) {-0.00005};

\node[text=drawColor,anchor=base east,inner sep=0pt, outer sep=0pt, scale=  0.96] at ( 68.89,156.37) {0.00000};

\node[text=drawColor,anchor=base east,inner sep=0pt, outer sep=0pt, scale=  0.96] at ( 68.89,168.18) {0.00005};
\end{scope}
\begin{scope}
\path[clip] (  0.00,  0.00) rectangle (505.89,325.21);
\definecolor{drawColor}{gray}{0.50}

\path[draw=drawColor,line width= 0.6pt,line join=round] ( 71.73,124.57) --
	( 76.00,124.57);

\path[draw=drawColor,line width= 0.6pt,line join=round] ( 71.73,136.39) --
	( 76.00,136.39);

\path[draw=drawColor,line width= 0.6pt,line join=round] ( 71.73,148.20) --
	( 76.00,148.20);

\path[draw=drawColor,line width= 0.6pt,line join=round] ( 71.73,160.02) --
	( 76.00,160.02);

\path[draw=drawColor,line width= 0.6pt,line join=round] ( 71.73,171.83) --
	( 76.00,171.83);
\end{scope}
\begin{scope}
\path[clip] (  0.00,  0.00) rectangle (505.89,325.21);
\definecolor{drawColor}{gray}{0.50}

\node[text=drawColor,anchor=base east,inner sep=0pt, outer sep=0pt, scale=  0.96] at (220.21,113.00) {0.000};

\node[text=drawColor,anchor=base east,inner sep=0pt, outer sep=0pt, scale=  0.96] at (220.21,128.59) {0.001};

\node[text=drawColor,anchor=base east,inner sep=0pt, outer sep=0pt, scale=  0.96] at (220.21,144.18) {0.002};

\node[text=drawColor,anchor=base east,inner sep=0pt, outer sep=0pt, scale=  0.96] at (220.21,159.76) {0.003};
\end{scope}
\begin{scope}
\path[clip] (  0.00,  0.00) rectangle (505.89,325.21);
\definecolor{drawColor}{gray}{0.50}

\path[draw=drawColor,line width= 0.6pt,line join=round] (223.05,116.65) --
	(227.32,116.65);

\path[draw=drawColor,line width= 0.6pt,line join=round] (223.05,132.24) --
	(227.32,132.24);

\path[draw=drawColor,line width= 0.6pt,line join=round] (223.05,147.83) --
	(227.32,147.83);

\path[draw=drawColor,line width= 0.6pt,line join=round] (223.05,163.41) --
	(227.32,163.41);
\end{scope}
\begin{scope}
\path[clip] (  0.00,  0.00) rectangle (505.89,325.21);
\definecolor{drawColor}{gray}{0.50}

\node[text=drawColor,anchor=base east,inner sep=0pt, outer sep=0pt, scale=  0.96] at (382.69,117.44) {-0.02};

\node[text=drawColor,anchor=base east,inner sep=0pt, outer sep=0pt, scale=  0.96] at (382.69,130.26) {-0.01};

\node[text=drawColor,anchor=base east,inner sep=0pt, outer sep=0pt, scale=  0.96] at (382.69,143.08) {0.00};

\node[text=drawColor,anchor=base east,inner sep=0pt, outer sep=0pt, scale=  0.96] at (382.69,155.89) {0.01};

\node[text=drawColor,anchor=base east,inner sep=0pt, outer sep=0pt, scale=  0.96] at (382.69,168.71) {0.02};
\end{scope}
\begin{scope}
\path[clip] (  0.00,  0.00) rectangle (505.89,325.21);
\definecolor{drawColor}{gray}{0.50}

\path[draw=drawColor,line width= 0.6pt,line join=round] (385.54,121.09) --
	(389.81,121.09);

\path[draw=drawColor,line width= 0.6pt,line join=round] (385.54,133.91) --
	(389.81,133.91);

\path[draw=drawColor,line width= 0.6pt,line join=round] (385.54,146.72) --
	(389.81,146.72);

\path[draw=drawColor,line width= 0.6pt,line join=round] (385.54,159.54) --
	(389.81,159.54);

\path[draw=drawColor,line width= 0.6pt,line join=round] (385.54,172.36) --
	(389.81,172.36);
\end{scope}
\begin{scope}
\path[clip] (  0.00,  0.00) rectangle (505.89,325.21);
\definecolor{drawColor}{gray}{0.50}

\node[text=drawColor,anchor=base east,inner sep=0pt, outer sep=0pt, scale=  0.96] at ( 68.89, 33.04) {-0.000125};

\node[text=drawColor,anchor=base east,inner sep=0pt, outer sep=0pt, scale=  0.96] at ( 68.89, 44.49) {-0.000100};

\node[text=drawColor,anchor=base east,inner sep=0pt, outer sep=0pt, scale=  0.96] at ( 68.89, 55.95) {-0.000075};

\node[text=drawColor,anchor=base east,inner sep=0pt, outer sep=0pt, scale=  0.96] at ( 68.89, 67.40) {-0.000050};

\node[text=drawColor,anchor=base east,inner sep=0pt, outer sep=0pt, scale=  0.96] at ( 68.89, 78.85) {-0.000025};

\node[text=drawColor,anchor=base east,inner sep=0pt, outer sep=0pt, scale=  0.96] at ( 68.89, 90.30) {0.000000};
\end{scope}
\begin{scope}
\path[clip] (  0.00,  0.00) rectangle (505.89,325.21);
\definecolor{drawColor}{gray}{0.50}

\path[draw=drawColor,line width= 0.6pt,line join=round] ( 71.73, 36.69) --
	( 76.00, 36.69);

\path[draw=drawColor,line width= 0.6pt,line join=round] ( 71.73, 48.14) --
	( 76.00, 48.14);

\path[draw=drawColor,line width= 0.6pt,line join=round] ( 71.73, 59.59) --
	( 76.00, 59.59);

\path[draw=drawColor,line width= 0.6pt,line join=round] ( 71.73, 71.05) --
	( 76.00, 71.05);

\path[draw=drawColor,line width= 0.6pt,line join=round] ( 71.73, 82.50) --
	( 76.00, 82.50);

\path[draw=drawColor,line width= 0.6pt,line join=round] ( 71.73, 93.95) --
	( 76.00, 93.95);
\end{scope}
\begin{scope}
\path[clip] (  0.00,  0.00) rectangle (505.89,325.21);
\definecolor{drawColor}{gray}{0.50}

\node[text=drawColor,anchor=base east,inner sep=0pt, outer sep=0pt, scale=  0.96] at (220.21, 44.16) {-0.0015};

\node[text=drawColor,anchor=base east,inner sep=0pt, outer sep=0pt, scale=  0.96] at (220.21, 58.08) {-0.0010};

\node[text=drawColor,anchor=base east,inner sep=0pt, outer sep=0pt, scale=  0.96] at (220.21, 72.00) {-0.0005};

\node[text=drawColor,anchor=base east,inner sep=0pt, outer sep=0pt, scale=  0.96] at (220.21, 85.92) {0.0000};
\end{scope}
\begin{scope}
\path[clip] (  0.00,  0.00) rectangle (505.89,325.21);
\definecolor{drawColor}{gray}{0.50}

\path[draw=drawColor,line width= 0.6pt,line join=round] (223.05, 47.81) --
	(227.32, 47.81);

\path[draw=drawColor,line width= 0.6pt,line join=round] (223.05, 61.73) --
	(227.32, 61.73);

\path[draw=drawColor,line width= 0.6pt,line join=round] (223.05, 75.65) --
	(227.32, 75.65);

\path[draw=drawColor,line width= 0.6pt,line join=round] (223.05, 89.57) --
	(227.32, 89.57);
\end{scope}
\begin{scope}
\path[clip] (  0.00,  0.00) rectangle (505.89,325.21);
\definecolor{drawColor}{gray}{0.50}

\path[draw=drawColor,line width= 0.6pt,line join=round] ( 78.36, 31.22) --
	( 78.36, 35.49);

\path[draw=drawColor,line width= 0.6pt,line join=round] (102.01, 31.22) --
	(102.01, 35.49);

\path[draw=drawColor,line width= 0.6pt,line join=round] (125.66, 31.22) --
	(125.66, 35.49);

\path[draw=drawColor,line width= 0.6pt,line join=round] (149.30, 31.22) --
	(149.30, 35.49);

\path[draw=drawColor,line width= 0.6pt,line join=round] (172.95, 31.22) --
	(172.95, 35.49);
\end{scope}
\begin{scope}
\path[clip] (  0.00,  0.00) rectangle (505.89,325.21);
\definecolor{drawColor}{gray}{0.50}

\node[text=drawColor,anchor=base,inner sep=0pt, outer sep=0pt, scale=  0.96] at ( 78.36, 21.08) {0};

\node[text=drawColor,anchor=base,inner sep=0pt, outer sep=0pt, scale=  0.96] at (102.01, 21.08) {10};

\node[text=drawColor,anchor=base,inner sep=0pt, outer sep=0pt, scale=  0.96] at (125.66, 21.08) {20};

\node[text=drawColor,anchor=base,inner sep=0pt, outer sep=0pt, scale=  0.96] at (149.30, 21.08) {30};

\node[text=drawColor,anchor=base,inner sep=0pt, outer sep=0pt, scale=  0.96] at (172.95, 21.08) {40};
\end{scope}
\begin{scope}
\path[clip] (  0.00,  0.00) rectangle (505.89,325.21);
\definecolor{drawColor}{gray}{0.50}

\path[draw=drawColor,line width= 0.6pt,line join=round] (229.69, 31.22) --
	(229.69, 35.49);

\path[draw=drawColor,line width= 0.6pt,line join=round] (253.33, 31.22) --
	(253.33, 35.49);

\path[draw=drawColor,line width= 0.6pt,line join=round] (276.98, 31.22) --
	(276.98, 35.49);

\path[draw=drawColor,line width= 0.6pt,line join=round] (300.62, 31.22) --
	(300.62, 35.49);

\path[draw=drawColor,line width= 0.6pt,line join=round] (324.27, 31.22) --
	(324.27, 35.49);
\end{scope}
\begin{scope}
\path[clip] (  0.00,  0.00) rectangle (505.89,325.21);
\definecolor{drawColor}{gray}{0.50}

\node[text=drawColor,anchor=base,inner sep=0pt, outer sep=0pt, scale=  0.96] at (229.69, 21.08) {0};

\node[text=drawColor,anchor=base,inner sep=0pt, outer sep=0pt, scale=  0.96] at (253.33, 21.08) {10};

\node[text=drawColor,anchor=base,inner sep=0pt, outer sep=0pt, scale=  0.96] at (276.98, 21.08) {20};

\node[text=drawColor,anchor=base,inner sep=0pt, outer sep=0pt, scale=  0.96] at (300.62, 21.08) {30};

\node[text=drawColor,anchor=base,inner sep=0pt, outer sep=0pt, scale=  0.96] at (324.27, 21.08) {40};
\end{scope}
\begin{scope}
\path[clip] (  0.00,  0.00) rectangle (505.89,325.21);
\definecolor{drawColor}{RGB}{0,0,0}

\node[text=drawColor,anchor=base,inner sep=0pt, outer sep=0pt, scale=  1.20] at (284.92,  9.03) {quarters};
\end{scope}
\begin{scope}
\path[clip] (  0.00,  0.00) rectangle (505.89,325.21);
\definecolor{drawColor}{RGB}{0,0,0}

\node[text=drawColor,rotate= 90.00,anchor=base,inner sep=0pt, outer sep=0pt, scale=  1.20] at ( 18.16,145.30) {deviations from steady state};
\end{scope}
\begin{scope}
\path[clip] (  0.00,  0.00) rectangle (505.89,325.21);
\definecolor{fillColor}{RGB}{255,255,255}

\path[fill=fillColor] (119.18,278.42) rectangle (243.29,304.30);
\end{scope}
\begin{scope}
\path[clip] (  0.00,  0.00) rectangle (505.89,325.21);
\definecolor{drawColor}{RGB}{255,255,255}
\definecolor{fillColor}{gray}{0.95}

\path[draw=drawColor,line width= 0.6pt,line join=round,line cap=round,fill=fillColor] (127.79,282.69) rectangle (145.13,300.03);
\end{scope}
\begin{scope}
\path[clip] (  0.00,  0.00) rectangle (505.89,325.21);
\definecolor{drawColor}{RGB}{0,0,0}

\path[draw=drawColor,line width= 0.6pt,line join=round] (129.52,291.36) -- (143.40,291.36);
\end{scope}
\begin{scope}
\path[clip] (  0.00,  0.00) rectangle (505.89,325.21);
\definecolor{drawColor}{RGB}{255,255,255}
\definecolor{fillColor}{gray}{0.95}

\path[draw=drawColor,line width= 0.6pt,line join=round,line cap=round,fill=fillColor] (181.57,282.69) rectangle (198.91,300.03);
\end{scope}
\begin{scope}
\path[clip] (  0.00,  0.00) rectangle (505.89,325.21);
\definecolor{drawColor}{RGB}{0,0,0}

\path[draw=drawColor,line width= 0.6pt,dash pattern=on 2pt off 2pt ,line join=round] (183.30,291.36) -- (197.18,291.36);
\end{scope}
\begin{scope}
\path[clip] (  0.00,  0.00) rectangle (505.89,325.21);
\definecolor{drawColor}{RGB}{0,0,0}

\node[text=drawColor,anchor=base west,inner sep=0pt, outer sep=0pt, scale=  0.96] at (147.30,287.71) {relative};
\end{scope}
\begin{scope}
\path[clip] (  0.00,  0.00) rectangle (505.89,325.21);
\definecolor{drawColor}{RGB}{0,0,0}

\node[text=drawColor,anchor=base west,inner sep=0pt, outer sep=0pt, scale=  0.96] at (201.08,287.71) {absolute};
\end{scope}
\begin{scope}
\path[clip] (  0.00,  0.00) rectangle (505.89,325.21);
\definecolor{fillColor}{RGB}{255,255,255}

\path[fill=fillColor] (249.31,278.42) rectangle (450.66,304.30);
\end{scope}
\begin{scope}
\path[clip] (  0.00,  0.00) rectangle (505.89,325.21);
\definecolor{drawColor}{RGB}{0,0,0}

\node[text=drawColor,anchor=base west,inner sep=0pt, outer sep=0pt, scale=  0.96] at (253.58,287.71) {\bfseries interbank friction $\Xi$};
\end{scope}
\begin{scope}
\path[clip] (  0.00,  0.00) rectangle (505.89,325.21);
\definecolor{drawColor}{RGB}{255,255,255}
\definecolor{fillColor}{gray}{0.95}

\path[draw=drawColor,line width= 0.6pt,line join=round,line cap=round,fill=fillColor] (366.13,282.69) rectangle (383.48,300.03);
\end{scope}
\begin{scope}
\path[clip] (  0.00,  0.00) rectangle (505.89,325.21);
\definecolor{drawColor}{RGB}{228,26,28}

\path[draw=drawColor,line width= 0.6pt,line join=round] (367.87,291.36) -- (381.74,291.36);
\end{scope}
\begin{scope}
\path[clip] (  0.00,  0.00) rectangle (505.89,325.21);
\definecolor{drawColor}{RGB}{255,255,255}
\definecolor{fillColor}{gray}{0.95}

\path[draw=drawColor,line width= 0.6pt,line join=round,line cap=round,fill=fillColor] (401.77,282.69) rectangle (419.11,300.03);
\end{scope}
\begin{scope}
\path[clip] (  0.00,  0.00) rectangle (505.89,325.21);
\definecolor{drawColor}{RGB}{55,126,184}

\path[draw=drawColor,line width= 0.6pt,line join=round] (403.50,291.36) -- (417.38,291.36);
\end{scope}
\begin{scope}
\path[clip] (  0.00,  0.00) rectangle (505.89,325.21);
\definecolor{drawColor}{RGB}{0,0,0}

\node[text=drawColor,anchor=base west,inner sep=0pt, outer sep=0pt, scale=  0.96] at (385.65,287.71) {0.4};
\end{scope}
\begin{scope}
\path[clip] (  0.00,  0.00) rectangle (505.89,325.21);
\definecolor{drawColor}{RGB}{0,0,0}

\node[text=drawColor,anchor=base west,inner sep=0pt, outer sep=0pt, scale=  0.96] at (421.28,287.71) {0.998};
\end{scope}
\end{tikzpicture}

\end{document}
