% Created by tikzDevice version 0.8.1 on 2015-06-17 08:41:38
% !TEX encoding = UTF-8 Unicode
 \documentclass[11pt,a4paper,x11names,dvipsnames]{article}
\nonstopmode

\usepackage{tikz}

\usepackage[active,tightpage,psfixbb]{preview}

\PreviewEnvironment{pgfpicture}

\setlength\PreviewBorder{0pt}

\newcommand{\SweaveOpts}[1]{}  % do not interfere with LaTeX
\newcommand{\SweaveInput}[1]{} % because they are not real TeX commands
\newcommand{\Sexpr}[1]{}       % will only be parsed by R


 %\usepackage{beamerarticle}
\def\w{$\omega$}
 
\usepackage{geometry}
 \geometry{
 left=40mm,
 right=25mm,
 top=25mm,
 bottom=30mm,
 }

\usepackage{titlesec}
\newcommand{\sectionbreak}{\clearpage}

 \input{headerFiles/header}
 \input{headerFiles/math-def}
% \include{headerFiles/tikz-def}
 \input{headerFiles/acronyms}

 \usepackage{tikz}
%\usepackage[left]{showlabels}

\usepackage{array, booktabs}
\usepackage{colortbl}
\usepackage{ctable}
\usepackage{caption}

%%% Titlepage, affidavit
\usepackage{graphicx}
\usepackage{titling} %\thetitle, \theauthor and \thedate 
\usepackage{lastpage} %\LastPage
\newcommand{\studID}{1050810}
\newcommand{\thesupervisor}{Michael Reiter}

%opening

\title{Financial frictions and the interbank market}
  % \title{The minor role of the interbank market in a
  %   macroeconomic model with financial frictions} 

\author{Fabian Greimel}



\begin{document}

\begin{tikzpicture}[x=1pt,y=1pt]
\definecolor{fillColor}{RGB}{255,255,255}
\path[use as bounding box,fill=fillColor,fill opacity=0.00] (0,0) rectangle (505.89,361.35);
\begin{scope}
\path[clip] (  0.00,  0.00) rectangle (505.89,361.35);
\definecolor{drawColor}{RGB}{255,255,255}
\definecolor{fillColor}{RGB}{255,255,255}

\path[draw=drawColor,line width= 0.6pt,line join=round,line cap=round,fill=fillColor] (  0.00,  0.00) rectangle (505.89,361.35);
\end{scope}
\begin{scope}
\path[clip] ( 59.57,216.53) rectangle (183.56,288.85);
\definecolor{fillColor}{gray}{0.90}

\path[fill=fillColor] ( 59.57,216.53) rectangle (183.56,288.85);
\definecolor{drawColor}{gray}{0.95}

\path[draw=drawColor,line width= 0.3pt,line join=round] ( 59.57,224.81) --
	(183.56,224.81);

\path[draw=drawColor,line width= 0.3pt,line join=round] ( 59.57,240.25) --
	(183.56,240.25);

\path[draw=drawColor,line width= 0.3pt,line join=round] ( 59.57,255.69) --
	(183.56,255.69);

\path[draw=drawColor,line width= 0.3pt,line join=round] ( 59.57,271.14) --
	(183.56,271.14);

\path[draw=drawColor,line width= 0.3pt,line join=round] ( 59.57,286.58) --
	(183.56,286.58);

\path[draw=drawColor,line width= 0.3pt,line join=round] ( 76.47,216.53) --
	( 76.47,288.85);

\path[draw=drawColor,line width= 0.3pt,line join=round] (104.66,216.53) --
	(104.66,288.85);

\path[draw=drawColor,line width= 0.3pt,line join=round] (132.84,216.53) --
	(132.84,288.85);

\path[draw=drawColor,line width= 0.3pt,line join=round] (161.02,216.53) --
	(161.02,288.85);
\definecolor{drawColor}{RGB}{255,255,255}

\path[draw=drawColor,line width= 0.6pt,line join=round] ( 59.57,217.09) --
	(183.56,217.09);

\path[draw=drawColor,line width= 0.6pt,line join=round] ( 59.57,232.53) --
	(183.56,232.53);

\path[draw=drawColor,line width= 0.6pt,line join=round] ( 59.57,247.97) --
	(183.56,247.97);

\path[draw=drawColor,line width= 0.6pt,line join=round] ( 59.57,263.41) --
	(183.56,263.41);

\path[draw=drawColor,line width= 0.6pt,line join=round] ( 59.57,278.86) --
	(183.56,278.86);

\path[draw=drawColor,line width= 0.6pt,line join=round] ( 62.38,216.53) --
	( 62.38,288.85);

\path[draw=drawColor,line width= 0.6pt,line join=round] ( 90.56,216.53) --
	( 90.56,288.85);

\path[draw=drawColor,line width= 0.6pt,line join=round] (118.75,216.53) --
	(118.75,288.85);

\path[draw=drawColor,line width= 0.6pt,line join=round] (146.93,216.53) --
	(146.93,288.85);

\path[draw=drawColor,line width= 0.6pt,line join=round] (175.11,216.53) --
	(175.11,288.85);
\definecolor{drawColor}{RGB}{228,26,28}

\path[draw=drawColor,line width= 0.6pt,line join=round] ( 65.20,219.81) --
	( 68.02,249.61) --
	( 70.84,267.09) --
	( 73.66,276.99) --
	( 76.47,282.26) --
	( 79.29,284.73) --
	( 82.11,285.56) --
	( 84.93,285.47) --
	( 87.75,284.91) --
	( 90.56,284.13) --
	( 93.38,283.30) --
	( 96.20,282.50) --
	( 99.02,281.77) --
	(101.84,281.14) --
	(104.66,280.60) --
	(107.47,280.15) --
	(110.29,279.79) --
	(113.11,279.49) --
	(115.93,279.26) --
	(118.75,279.07) --
	(121.56,278.93) --
	(124.38,278.82) --
	(127.20,278.74) --
	(130.02,278.68) --
	(132.84,278.64) --
	(135.66,278.61) --
	(138.47,278.59) --
	(141.29,278.58) --
	(144.11,278.57) --
	(146.93,278.57) --
	(149.75,278.58) --
	(152.56,278.58) --
	(155.38,278.59) --
	(158.20,278.60) --
	(161.02,278.60) --
	(163.84,278.61) --
	(166.65,278.62) --
	(169.47,278.63) --
	(172.29,278.64) --
	(175.11,278.65) --
	(177.93,278.66);
\definecolor{drawColor}{RGB}{55,126,184}

\path[draw=drawColor,line width= 0.6pt,line join=round] ( 65.20,222.83) --
	( 68.02,251.67) --
	( 70.84,268.35) --
	( 73.66,277.60) --
	( 76.47,282.35) --
	( 79.29,284.43) --
	( 82.11,284.98) --
	( 84.93,284.70) --
	( 87.75,284.01) --
	( 90.56,283.18) --
	( 93.38,282.33) --
	( 96.20,281.55) --
	( 99.02,280.88) --
	(101.84,280.31) --
	(104.66,279.84) --
	(107.47,279.48) --
	(110.29,279.20) --
	(113.11,278.98) --
	(115.93,278.83) --
	(118.75,278.71) --
	(121.56,278.64) --
	(124.38,278.59) --
	(127.20,278.56) --
	(130.02,278.55) --
	(132.84,278.55) --
	(135.66,278.56) --
	(138.47,278.57) --
	(141.29,278.58) --
	(144.11,278.60) --
	(146.93,278.61) --
	(149.75,278.63) --
	(152.56,278.65) --
	(155.38,278.66) --
	(158.20,278.67) --
	(161.02,278.69) --
	(163.84,278.70) --
	(166.65,278.71) --
	(169.47,278.72) --
	(172.29,278.73) --
	(175.11,278.74) --
	(177.93,278.74);
\definecolor{drawColor}{RGB}{77,175,74}

\path[draw=drawColor,line width= 0.6pt,line join=round] ( 65.20,220.71) --
	( 68.02,251.95) --
	( 70.84,269.51) --
	( 73.66,278.83) --
	( 76.47,283.26) --
	( 79.29,284.87) --
	( 82.11,284.95) --
	( 84.93,284.25) --
	( 87.75,283.25) --
	( 90.56,282.19) --
	( 93.38,281.21) --
	( 96.20,280.38) --
	( 99.02,279.70) --
	(101.84,279.19) --
	(104.66,278.81) --
	(107.47,278.54) --
	(110.29,278.38) --
	(113.11,278.28) --
	(115.93,278.24) --
	(118.75,278.24) --
	(121.56,278.27) --
	(124.38,278.31) --
	(127.20,278.36) --
	(130.02,278.42) --
	(132.84,278.48) --
	(135.66,278.53) --
	(138.47,278.58) --
	(141.29,278.63) --
	(144.11,278.67) --
	(146.93,278.71) --
	(149.75,278.74) --
	(152.56,278.76) --
	(155.38,278.79) --
	(158.20,278.80) --
	(161.02,278.82) --
	(163.84,278.83) --
	(166.65,278.84) --
	(169.47,278.85) --
	(172.29,278.85) --
	(175.11,278.86) --
	(177.93,278.86);
\end{scope}
\begin{scope}
\path[clip] (214.10,216.53) rectangle (338.10,288.85);
\definecolor{fillColor}{gray}{0.90}

\path[fill=fillColor] (214.10,216.53) rectangle (338.10,288.85);
\definecolor{drawColor}{gray}{0.95}

\path[draw=drawColor,line width= 0.3pt,line join=round] (214.10,234.55) --
	(338.10,234.55);

\path[draw=drawColor,line width= 0.3pt,line join=round] (214.10,258.66) --
	(338.10,258.66);

\path[draw=drawColor,line width= 0.3pt,line join=round] (214.10,282.76) --
	(338.10,282.76);

\path[draw=drawColor,line width= 0.3pt,line join=round] (231.01,216.53) --
	(231.01,288.85);

\path[draw=drawColor,line width= 0.3pt,line join=round] (259.19,216.53) --
	(259.19,288.85);

\path[draw=drawColor,line width= 0.3pt,line join=round] (287.38,216.53) --
	(287.38,288.85);

\path[draw=drawColor,line width= 0.3pt,line join=round] (315.56,216.53) --
	(315.56,288.85);
\definecolor{drawColor}{RGB}{255,255,255}

\path[draw=drawColor,line width= 0.6pt,line join=round] (214.10,222.50) --
	(338.10,222.50);

\path[draw=drawColor,line width= 0.6pt,line join=round] (214.10,246.60) --
	(338.10,246.60);

\path[draw=drawColor,line width= 0.6pt,line join=round] (214.10,270.71) --
	(338.10,270.71);

\path[draw=drawColor,line width= 0.6pt,line join=round] (216.92,216.53) --
	(216.92,288.85);

\path[draw=drawColor,line width= 0.6pt,line join=round] (245.10,216.53) --
	(245.10,288.85);

\path[draw=drawColor,line width= 0.6pt,line join=round] (273.28,216.53) --
	(273.28,288.85);

\path[draw=drawColor,line width= 0.6pt,line join=round] (301.47,216.53) --
	(301.47,288.85);

\path[draw=drawColor,line width= 0.6pt,line join=round] (329.65,216.53) --
	(329.65,288.85);
\definecolor{drawColor}{RGB}{228,26,28}

\path[draw=drawColor,line width= 0.6pt,dash pattern=on 2pt off 2pt ,line join=round] (219.74,280.38) --
	(222.56,258.82) --
	(225.38,244.60) --
	(228.19,235.29) --
	(231.01,229.26) --
	(233.83,225.42) --
	(236.65,223.05) --
	(239.47,221.64) --
	(242.29,220.85) --
	(245.10,220.48) --
	(247.92,220.36) --
	(250.74,220.39) --
	(253.56,220.52) --
	(256.38,220.69) --
	(259.19,220.88) --
	(262.01,221.07) --
	(264.83,221.25) --
	(267.65,221.42) --
	(270.47,221.57) --
	(273.28,221.71) --
	(276.10,221.83) --
	(278.92,221.93) --
	(281.74,222.01) --
	(284.56,222.09) --
	(287.38,222.15) --
	(290.19,222.20) --
	(293.01,222.25) --
	(295.83,222.28) --
	(298.65,222.31) --
	(301.47,222.34) --
	(304.28,222.36) --
	(307.10,222.38) --
	(309.92,222.39) --
	(312.74,222.41) --
	(315.56,222.42) --
	(318.37,222.42) --
	(321.19,222.43) --
	(324.01,222.44) --
	(326.83,222.44) --
	(329.65,222.45) --
	(332.47,222.45);
\definecolor{drawColor}{RGB}{55,126,184}

\path[draw=drawColor,line width= 0.6pt,dash pattern=on 2pt off 2pt ,line join=round] (219.74,279.62) --
	(222.56,258.33) --
	(225.38,244.26) --
	(228.19,235.02) --
	(231.01,229.03) --
	(233.83,225.22) --
	(236.65,222.86) --
	(239.47,221.47) --
	(242.29,220.70) --
	(245.10,220.35) --
	(247.92,220.25) --
	(250.74,220.30) --
	(253.56,220.45) --
	(256.38,220.64) --
	(259.19,220.85) --
	(262.01,221.06) --
	(264.83,221.25) --
	(267.65,221.43) --
	(270.47,221.59) --
	(273.28,221.73) --
	(276.10,221.86) --
	(278.92,221.96) --
	(281.74,222.05) --
	(284.56,222.12) --
	(287.38,222.18) --
	(290.19,222.23) --
	(293.01,222.27) --
	(295.83,222.31) --
	(298.65,222.34) --
	(301.47,222.36) --
	(304.28,222.38) --
	(307.10,222.39) --
	(309.92,222.40) --
	(312.74,222.41) --
	(315.56,222.42) --
	(318.37,222.43) --
	(321.19,222.43) --
	(324.01,222.44) --
	(326.83,222.44) --
	(329.65,222.45) --
	(332.47,222.45);
\definecolor{drawColor}{RGB}{77,175,74}

\path[draw=drawColor,line width= 0.6pt,dash pattern=on 2pt off 2pt ,line join=round] (219.74,285.56) --
	(222.56,261.64) --
	(225.38,245.88) --
	(228.19,235.60) --
	(231.01,228.99) --
	(233.83,224.84) --
	(236.65,222.32) --
	(239.47,220.87) --
	(242.29,220.13) --
	(245.10,219.84) --
	(247.92,219.81) --
	(250.74,219.96) --
	(253.56,220.18) --
	(256.38,220.45) --
	(259.19,220.72) --
	(262.01,220.98) --
	(264.83,221.21) --
	(267.65,221.43) --
	(270.47,221.61) --
	(273.28,221.77) --
	(276.10,221.90) --
	(278.92,222.01) --
	(281.74,222.10) --
	(284.56,222.17) --
	(287.38,222.23) --
	(290.19,222.28) --
	(293.01,222.31) --
	(295.83,222.34) --
	(298.65,222.36) --
	(301.47,222.38) --
	(304.28,222.39) --
	(307.10,222.40) --
	(309.92,222.41) --
	(312.74,222.42) --
	(315.56,222.42) --
	(318.37,222.43) --
	(321.19,222.43) --
	(324.01,222.43) --
	(326.83,222.44) --
	(329.65,222.44) --
	(332.47,222.44);
\end{scope}
\begin{scope}
\path[clip] (368.64,216.53) rectangle (492.64,288.85);
\definecolor{fillColor}{gray}{0.90}

\path[fill=fillColor] (368.64,216.53) rectangle (492.64,288.85);
\definecolor{drawColor}{gray}{0.95}

\path[draw=drawColor,line width= 0.3pt,line join=round] (368.64,224.46) --
	(492.64,224.46);

\path[draw=drawColor,line width= 0.3pt,line join=round] (368.64,238.73) --
	(492.64,238.73);

\path[draw=drawColor,line width= 0.3pt,line join=round] (368.64,252.99) --
	(492.64,252.99);

\path[draw=drawColor,line width= 0.3pt,line join=round] (368.64,267.25) --
	(492.64,267.25);

\path[draw=drawColor,line width= 0.3pt,line join=round] (368.64,281.52) --
	(492.64,281.52);

\path[draw=drawColor,line width= 0.3pt,line join=round] (385.55,216.53) --
	(385.55,288.85);

\path[draw=drawColor,line width= 0.3pt,line join=round] (413.73,216.53) --
	(413.73,288.85);

\path[draw=drawColor,line width= 0.3pt,line join=round] (441.91,216.53) --
	(441.91,288.85);

\path[draw=drawColor,line width= 0.3pt,line join=round] (470.10,216.53) --
	(470.10,288.85);
\definecolor{drawColor}{RGB}{255,255,255}

\path[draw=drawColor,line width= 0.6pt,line join=round] (368.64,217.33) --
	(492.64,217.33);

\path[draw=drawColor,line width= 0.6pt,line join=round] (368.64,231.59) --
	(492.64,231.59);

\path[draw=drawColor,line width= 0.6pt,line join=round] (368.64,245.86) --
	(492.64,245.86);

\path[draw=drawColor,line width= 0.6pt,line join=round] (368.64,260.12) --
	(492.64,260.12);

\path[draw=drawColor,line width= 0.6pt,line join=round] (368.64,274.39) --
	(492.64,274.39);

\path[draw=drawColor,line width= 0.6pt,line join=round] (368.64,288.65) --
	(492.64,288.65);

\path[draw=drawColor,line width= 0.6pt,line join=round] (371.46,216.53) --
	(371.46,288.85);

\path[draw=drawColor,line width= 0.6pt,line join=round] (399.64,216.53) --
	(399.64,288.85);

\path[draw=drawColor,line width= 0.6pt,line join=round] (427.82,216.53) --
	(427.82,288.85);

\path[draw=drawColor,line width= 0.6pt,line join=round] (456.00,216.53) --
	(456.00,288.85);

\path[draw=drawColor,line width= 0.6pt,line join=round] (484.19,216.53) --
	(484.19,288.85);
\definecolor{drawColor}{RGB}{228,26,28}

\path[draw=drawColor,line width= 0.6pt,line join=round] (374.28,283.84) --
	(377.10,258.27) --
	(379.92,242.02) --
	(382.73,231.98) --
	(385.55,226.04) --
	(388.37,222.80) --
	(391.19,221.29) --
	(394.01,220.87) --
	(396.82,221.12) --
	(399.64,221.75) --
	(402.46,222.58) --
	(405.28,223.48) --
	(408.10,224.38) --
	(410.91,225.24) --
	(413.73,226.03) --
	(416.55,226.75) --
	(419.37,227.39) --
	(422.19,227.94) --
	(425.01,228.43) --
	(427.82,228.84) --
	(430.64,229.20) --
	(433.46,229.50) --
	(436.28,229.76) --
	(439.10,229.98) --
	(441.91,230.17) --
	(444.73,230.33) --
	(447.55,230.46) --
	(450.37,230.57) --
	(453.19,230.67) --
	(456.00,230.75) --
	(458.82,230.82) --
	(461.64,230.88) --
	(464.46,230.94) --
	(467.28,230.98) --
	(470.10,231.02) --
	(472.91,231.06) --
	(475.73,231.09) --
	(478.55,231.12) --
	(481.37,231.15) --
	(484.19,231.17) --
	(487.00,231.19);
\definecolor{drawColor}{RGB}{55,126,184}

\path[draw=drawColor,line width= 0.6pt,line join=round] (374.28,282.16) --
	(377.10,257.24) --
	(379.92,241.38) --
	(382.73,231.56) --
	(385.55,225.77) --
	(388.37,222.62) --
	(391.19,221.17) --
	(394.01,220.81) --
	(396.82,221.11) --
	(399.64,221.78) --
	(402.46,222.64) --
	(405.28,223.57) --
	(408.10,224.50) --
	(410.91,225.38) --
	(413.73,226.19) --
	(416.55,226.92) --
	(419.37,227.55) --
	(422.19,228.11) --
	(425.01,228.59) --
	(427.82,228.99) --
	(430.64,229.34) --
	(433.46,229.63) --
	(436.28,229.88) --
	(439.10,230.08) --
	(441.91,230.25) --
	(444.73,230.40) --
	(447.55,230.52) --
	(450.37,230.62) --
	(453.19,230.70) --
	(456.00,230.78) --
	(458.82,230.84) --
	(461.64,230.89) --
	(464.46,230.93) --
	(467.28,230.97) --
	(470.10,231.01) --
	(472.91,231.04) --
	(475.73,231.07) --
	(478.55,231.09) --
	(481.37,231.12) --
	(484.19,231.14) --
	(487.00,231.16);
\definecolor{drawColor}{RGB}{77,175,74}

\path[draw=drawColor,line width= 0.6pt,line join=round] (374.28,285.56) --
	(377.10,258.38) --
	(379.92,241.18) --
	(382.73,230.65) --
	(385.55,224.55) --
	(388.37,221.34) --
	(391.19,220.00) --
	(394.01,219.81) --
	(396.82,220.33) --
	(399.64,221.22) --
	(402.46,222.28) --
	(405.28,223.40) --
	(408.10,224.48) --
	(410.91,225.48) --
	(413.73,226.38) --
	(416.55,227.17) --
	(419.37,227.85) --
	(422.19,228.43) --
	(425.01,228.91) --
	(427.82,229.32) --
	(430.64,229.65) --
	(433.46,229.92) --
	(436.28,230.14) --
	(439.10,230.32) --
	(441.91,230.47) --
	(444.73,230.59) --
	(447.55,230.68) --
	(450.37,230.76) --
	(453.19,230.82) --
	(456.00,230.87) --
	(458.82,230.92) --
	(461.64,230.95) --
	(464.46,230.98) --
	(467.28,231.01) --
	(470.10,231.04) --
	(472.91,231.06) --
	(475.73,231.08) --
	(478.55,231.10) --
	(481.37,231.12) --
	(484.19,231.14) --
	(487.00,231.16);
\end{scope}
\begin{scope}
\path[clip] ( 59.57,126.16) rectangle (183.56,198.48);
\definecolor{fillColor}{gray}{0.90}

\path[fill=fillColor] ( 59.57,126.16) rectangle (183.56,198.48);
\definecolor{drawColor}{gray}{0.95}

\path[draw=drawColor,line width= 0.3pt,line join=round] ( 59.57,134.65) --
	(183.56,134.65);

\path[draw=drawColor,line width= 0.3pt,line join=round] ( 59.57,147.42) --
	(183.56,147.42);

\path[draw=drawColor,line width= 0.3pt,line join=round] ( 59.57,160.19) --
	(183.56,160.19);

\path[draw=drawColor,line width= 0.3pt,line join=round] ( 59.57,172.96) --
	(183.56,172.96);

\path[draw=drawColor,line width= 0.3pt,line join=round] ( 59.57,185.73) --
	(183.56,185.73);

\path[draw=drawColor,line width= 0.3pt,line join=round] ( 76.47,126.16) --
	( 76.47,198.48);

\path[draw=drawColor,line width= 0.3pt,line join=round] (104.66,126.16) --
	(104.66,198.48);

\path[draw=drawColor,line width= 0.3pt,line join=round] (132.84,126.16) --
	(132.84,198.48);

\path[draw=drawColor,line width= 0.3pt,line join=round] (161.02,126.16) --
	(161.02,198.48);
\definecolor{drawColor}{RGB}{255,255,255}

\path[draw=drawColor,line width= 0.6pt,line join=round] ( 59.57,128.27) --
	(183.56,128.27);

\path[draw=drawColor,line width= 0.6pt,line join=round] ( 59.57,141.04) --
	(183.56,141.04);

\path[draw=drawColor,line width= 0.6pt,line join=round] ( 59.57,153.80) --
	(183.56,153.80);

\path[draw=drawColor,line width= 0.6pt,line join=round] ( 59.57,166.57) --
	(183.56,166.57);

\path[draw=drawColor,line width= 0.6pt,line join=round] ( 59.57,179.34) --
	(183.56,179.34);

\path[draw=drawColor,line width= 0.6pt,line join=round] ( 59.57,192.11) --
	(183.56,192.11);

\path[draw=drawColor,line width= 0.6pt,line join=round] ( 62.38,126.16) --
	( 62.38,198.48);

\path[draw=drawColor,line width= 0.6pt,line join=round] ( 90.56,126.16) --
	( 90.56,198.48);

\path[draw=drawColor,line width= 0.6pt,line join=round] (118.75,126.16) --
	(118.75,198.48);

\path[draw=drawColor,line width= 0.6pt,line join=round] (146.93,126.16) --
	(146.93,198.48);

\path[draw=drawColor,line width= 0.6pt,line join=round] (175.11,126.16) --
	(175.11,198.48);
\definecolor{drawColor}{RGB}{228,26,28}

\path[draw=drawColor,line width= 0.6pt,line join=round] ( 65.20,130.81) --
	( 68.02,152.00) --
	( 70.84,166.59) --
	( 73.66,176.56) --
	( 76.47,183.30) --
	( 79.29,187.78) --
	( 82.11,190.69) --
	( 84.93,192.51) --
	( 87.75,193.58) --
	( 90.56,194.15) --
	( 93.38,194.38) --
	( 96.20,194.40) --
	( 99.02,194.28) --
	(101.84,194.09) --
	(104.66,193.86) --
	(107.47,193.62) --
	(110.29,193.38) --
	(113.11,193.15) --
	(115.93,192.95) --
	(118.75,192.77) --
	(121.56,192.61) --
	(124.38,192.47) --
	(127.20,192.35) --
	(130.02,192.25) --
	(132.84,192.17) --
	(135.66,192.11) --
	(138.47,192.05) --
	(141.29,192.01) --
	(144.11,191.98) --
	(146.93,191.95) --
	(149.75,191.93) --
	(152.56,191.92) --
	(155.38,191.91) --
	(158.20,191.90) --
	(161.02,191.90) --
	(163.84,191.90) --
	(166.65,191.90) --
	(169.47,191.90) --
	(172.29,191.91) --
	(175.11,191.91) --
	(177.93,191.92);
\definecolor{drawColor}{RGB}{55,126,184}

\path[draw=drawColor,line width= 0.6pt,line join=round] ( 65.20,132.76) --
	( 68.02,153.06) --
	( 70.84,167.17) --
	( 73.66,176.90) --
	( 76.47,183.54) --
	( 79.29,187.99) --
	( 82.11,190.89) --
	( 84.93,192.72) --
	( 87.75,193.80) --
	( 90.56,194.36) --
	( 93.38,194.58) --
	( 96.20,194.58) --
	( 99.02,194.44) --
	(101.84,194.22) --
	(104.66,193.96) --
	(107.47,193.69) --
	(110.29,193.42) --
	(113.11,193.17) --
	(115.93,192.95) --
	(118.75,192.75) --
	(121.56,192.57) --
	(124.38,192.42) --
	(127.20,192.30) --
	(130.02,192.20) --
	(132.84,192.11) --
	(135.66,192.04) --
	(138.47,191.99) --
	(141.29,191.95) --
	(144.11,191.91) --
	(146.93,191.89) --
	(149.75,191.88) --
	(152.56,191.87) --
	(155.38,191.86) --
	(158.20,191.86) --
	(161.02,191.86) --
	(163.84,191.86) --
	(166.65,191.87) --
	(169.47,191.87) --
	(172.29,191.88) --
	(175.11,191.89) --
	(177.93,191.89);
\definecolor{drawColor}{RGB}{77,175,74}

\path[draw=drawColor,line width= 0.6pt,line join=round] ( 65.20,129.45) --
	( 68.02,151.04) --
	( 70.84,166.13) --
	( 73.66,176.57) --
	( 76.47,183.70) --
	( 79.29,188.46) --
	( 82.11,191.55) --
	( 84.93,193.45) --
	( 87.75,194.53) --
	( 90.56,195.05) --
	( 93.38,195.19) --
	( 96.20,195.10) --
	( 99.02,194.86) --
	(101.84,194.54) --
	(104.66,194.19) --
	(107.47,193.83) --
	(110.29,193.49) --
	(113.11,193.19) --
	(115.93,192.91) --
	(118.75,192.68) --
	(121.56,192.47) --
	(124.38,192.31) --
	(127.20,192.17) --
	(130.02,192.06) --
	(132.84,191.97) --
	(135.66,191.91) --
	(138.47,191.86) --
	(141.29,191.82) --
	(144.11,191.80) --
	(146.93,191.78) --
	(149.75,191.78) --
	(152.56,191.77) --
	(155.38,191.78) --
	(158.20,191.78) --
	(161.02,191.79) --
	(163.84,191.80) --
	(166.65,191.81) --
	(169.47,191.82) --
	(172.29,191.84) --
	(175.11,191.85) --
	(177.93,191.86);
\end{scope}
\begin{scope}
\path[clip] (214.10,126.16) rectangle (338.10,198.48);
\definecolor{fillColor}{gray}{0.90}

\path[fill=fillColor] (214.10,126.16) rectangle (338.10,198.48);
\definecolor{drawColor}{gray}{0.95}

\path[draw=drawColor,line width= 0.3pt,line join=round] (214.10,136.02) --
	(338.10,136.02);

\path[draw=drawColor,line width= 0.3pt,line join=round] (214.10,149.17) --
	(338.10,149.17);

\path[draw=drawColor,line width= 0.3pt,line join=round] (214.10,162.32) --
	(338.10,162.32);

\path[draw=drawColor,line width= 0.3pt,line join=round] (214.10,175.47) --
	(338.10,175.47);

\path[draw=drawColor,line width= 0.3pt,line join=round] (214.10,188.62) --
	(338.10,188.62);

\path[draw=drawColor,line width= 0.3pt,line join=round] (231.01,126.16) --
	(231.01,198.48);

\path[draw=drawColor,line width= 0.3pt,line join=round] (259.19,126.16) --
	(259.19,198.48);

\path[draw=drawColor,line width= 0.3pt,line join=round] (287.38,126.16) --
	(287.38,198.48);

\path[draw=drawColor,line width= 0.3pt,line join=round] (315.56,126.16) --
	(315.56,198.48);
\definecolor{drawColor}{RGB}{255,255,255}

\path[draw=drawColor,line width= 0.6pt,line join=round] (214.10,129.45) --
	(338.10,129.45);

\path[draw=drawColor,line width= 0.6pt,line join=round] (214.10,142.60) --
	(338.10,142.60);

\path[draw=drawColor,line width= 0.6pt,line join=round] (214.10,155.75) --
	(338.10,155.75);

\path[draw=drawColor,line width= 0.6pt,line join=round] (214.10,168.90) --
	(338.10,168.90);

\path[draw=drawColor,line width= 0.6pt,line join=round] (214.10,182.04) --
	(338.10,182.04);

\path[draw=drawColor,line width= 0.6pt,line join=round] (214.10,195.19) --
	(338.10,195.19);

\path[draw=drawColor,line width= 0.6pt,line join=round] (216.92,126.16) --
	(216.92,198.48);

\path[draw=drawColor,line width= 0.6pt,line join=round] (245.10,126.16) --
	(245.10,198.48);

\path[draw=drawColor,line width= 0.6pt,line join=round] (273.28,126.16) --
	(273.28,198.48);

\path[draw=drawColor,line width= 0.6pt,line join=round] (301.47,126.16) --
	(301.47,198.48);

\path[draw=drawColor,line width= 0.6pt,line join=round] (329.65,126.16) --
	(329.65,198.48);
\definecolor{drawColor}{RGB}{228,26,28}

\path[draw=drawColor,line width= 0.6pt,dash pattern=on 2pt off 2pt ,line join=round] (219.74,195.19) --
	(222.56,172.84) --
	(225.38,158.09) --
	(228.19,148.35) --
	(231.01,141.92) --
	(233.83,137.68) --
	(236.65,134.88) --
	(239.47,133.04) --
	(242.29,131.82) --
	(245.10,131.01) --
	(247.92,130.48) --
	(250.74,130.13) --
	(253.56,129.90) --
	(256.38,129.75) --
	(259.19,129.65) --
	(262.01,129.58) --
	(264.83,129.53) --
	(267.65,129.51) --
	(270.47,129.49) --
	(273.28,129.47) --
	(276.10,129.47) --
	(278.92,129.46) --
	(281.74,129.46) --
	(284.56,129.45) --
	(287.38,129.45) --
	(290.19,129.45) --
	(293.01,129.45) --
	(295.83,129.45) --
	(298.65,129.45) --
	(301.47,129.45) --
	(304.28,129.45) --
	(307.10,129.45) --
	(309.92,129.45) --
	(312.74,129.45) --
	(315.56,129.45) --
	(318.37,129.45) --
	(321.19,129.45) --
	(324.01,129.45) --
	(326.83,129.45) --
	(329.65,129.45) --
	(332.47,129.45);
\definecolor{drawColor}{RGB}{55,126,184}

\path[draw=drawColor,line width= 0.6pt,dash pattern=on 2pt off 2pt ,line join=round] (219.74,195.19) --
	(222.56,172.84) --
	(225.38,158.09) --
	(228.19,148.35) --
	(231.01,141.92) --
	(233.83,137.68) --
	(236.65,134.88) --
	(239.47,133.04) --
	(242.29,131.82) --
	(245.10,131.01) --
	(247.92,130.48) --
	(250.74,130.13) --
	(253.56,129.90) --
	(256.38,129.75) --
	(259.19,129.65) --
	(262.01,129.58) --
	(264.83,129.53) --
	(267.65,129.51) --
	(270.47,129.49) --
	(273.28,129.47) --
	(276.10,129.47) --
	(278.92,129.46) --
	(281.74,129.46) --
	(284.56,129.45) --
	(287.38,129.45) --
	(290.19,129.45) --
	(293.01,129.45) --
	(295.83,129.45) --
	(298.65,129.45) --
	(301.47,129.45) --
	(304.28,129.45) --
	(307.10,129.45) --
	(309.92,129.45) --
	(312.74,129.45) --
	(315.56,129.45) --
	(318.37,129.45) --
	(321.19,129.45) --
	(324.01,129.45) --
	(326.83,129.45) --
	(329.65,129.45) --
	(332.47,129.45);
\definecolor{drawColor}{RGB}{77,175,74}

\path[draw=drawColor,line width= 0.6pt,dash pattern=on 2pt off 2pt ,line join=round] (219.74,195.19) --
	(222.56,172.84) --
	(225.38,158.09) --
	(228.19,148.35) --
	(231.01,141.92) --
	(233.83,137.68) --
	(236.65,134.88) --
	(239.47,133.04) --
	(242.29,131.82) --
	(245.10,131.01) --
	(247.92,130.48) --
	(250.74,130.13) --
	(253.56,129.90) --
	(256.38,129.75) --
	(259.19,129.65) --
	(262.01,129.58) --
	(264.83,129.53) --
	(267.65,129.51) --
	(270.47,129.49) --
	(273.28,129.47) --
	(276.10,129.47) --
	(278.92,129.46) --
	(281.74,129.46) --
	(284.56,129.45) --
	(287.38,129.45) --
	(290.19,129.45) --
	(293.01,129.45) --
	(295.83,129.45) --
	(298.65,129.45) --
	(301.47,129.45) --
	(304.28,129.45) --
	(307.10,129.45) --
	(309.92,129.45) --
	(312.74,129.45) --
	(315.56,129.45) --
	(318.37,129.45) --
	(321.19,129.45) --
	(324.01,129.45) --
	(326.83,129.45) --
	(329.65,129.45) --
	(332.47,129.45);
\end{scope}
\begin{scope}
\path[clip] (368.64,126.16) rectangle (492.64,198.48);
\definecolor{fillColor}{gray}{0.90}

\path[fill=fillColor] (368.64,126.16) rectangle (492.64,198.48);
\definecolor{drawColor}{gray}{0.95}

\path[draw=drawColor,line width= 0.3pt,line join=round] (368.64,144.21) --
	(492.64,144.21);

\path[draw=drawColor,line width= 0.3pt,line join=round] (368.64,168.36) --
	(492.64,168.36);

\path[draw=drawColor,line width= 0.3pt,line join=round] (368.64,192.52) --
	(492.64,192.52);

\path[draw=drawColor,line width= 0.3pt,line join=round] (385.55,126.16) --
	(385.55,198.48);

\path[draw=drawColor,line width= 0.3pt,line join=round] (413.73,126.16) --
	(413.73,198.48);

\path[draw=drawColor,line width= 0.3pt,line join=round] (441.91,126.16) --
	(441.91,198.48);

\path[draw=drawColor,line width= 0.3pt,line join=round] (470.10,126.16) --
	(470.10,198.48);
\definecolor{drawColor}{RGB}{255,255,255}

\path[draw=drawColor,line width= 0.6pt,line join=round] (368.64,132.13) --
	(492.64,132.13);

\path[draw=drawColor,line width= 0.6pt,line join=round] (368.64,156.29) --
	(492.64,156.29);

\path[draw=drawColor,line width= 0.6pt,line join=round] (368.64,180.44) --
	(492.64,180.44);

\path[draw=drawColor,line width= 0.6pt,line join=round] (371.46,126.16) --
	(371.46,198.48);

\path[draw=drawColor,line width= 0.6pt,line join=round] (399.64,126.16) --
	(399.64,198.48);

\path[draw=drawColor,line width= 0.6pt,line join=round] (427.82,126.16) --
	(427.82,198.48);

\path[draw=drawColor,line width= 0.6pt,line join=round] (456.00,126.16) --
	(456.00,198.48);

\path[draw=drawColor,line width= 0.6pt,line join=round] (484.19,126.16) --
	(484.19,198.48);
\definecolor{drawColor}{RGB}{228,26,28}

\path[draw=drawColor,line width= 0.6pt,dash pattern=on 2pt off 2pt ,line join=round] (374.28,132.13) --
	(377.10,132.13) --
	(379.92,132.13) --
	(382.73,132.13) --
	(385.55,132.13) --
	(388.37,132.13) --
	(391.19,132.13) --
	(394.01,132.13) --
	(396.82,132.13) --
	(399.64,132.13) --
	(402.46,132.13) --
	(405.28,132.13) --
	(408.10,132.13) --
	(410.91,132.13) --
	(413.73,132.13) --
	(416.55,132.13) --
	(419.37,132.13) --
	(422.19,132.13) --
	(425.01,132.13) --
	(427.82,132.13) --
	(430.64,132.13) --
	(433.46,132.13) --
	(436.28,132.13) --
	(439.10,132.13) --
	(441.91,132.13) --
	(444.73,132.13) --
	(447.55,132.13) --
	(450.37,132.13) --
	(453.19,132.13) --
	(456.00,132.13) --
	(458.82,132.13) --
	(461.64,132.13) --
	(464.46,132.13) --
	(467.28,132.13) --
	(470.10,132.13) --
	(472.91,132.13) --
	(475.73,132.13) --
	(478.55,132.13) --
	(481.37,132.13) --
	(484.19,132.13) --
	(487.00,132.13);
\definecolor{drawColor}{RGB}{55,126,184}

\path[draw=drawColor,line width= 0.6pt,dash pattern=on 2pt off 2pt ,line join=round] (374.28,160.68) --
	(377.10,149.98) --
	(379.92,142.93) --
	(382.73,138.32) --
	(385.55,135.35) --
	(388.37,133.47) --
	(391.19,132.31) --
	(394.01,131.62) --
	(396.82,131.25) --
	(399.64,131.08) --
	(402.46,131.04) --
	(405.28,131.07) --
	(408.10,131.14) --
	(410.91,131.23) --
	(413.73,131.33) --
	(416.55,131.44) --
	(419.37,131.53) --
	(422.19,131.62) --
	(425.01,131.69) --
	(427.82,131.76) --
	(430.64,131.82) --
	(433.46,131.87) --
	(436.28,131.91) --
	(439.10,131.95) --
	(441.91,131.97) --
	(444.73,132.00) --
	(447.55,132.02) --
	(450.37,132.03) --
	(453.19,132.05) --
	(456.00,132.06) --
	(458.82,132.07) --
	(461.64,132.08) --
	(464.46,132.08) --
	(467.28,132.09) --
	(470.10,132.09) --
	(472.91,132.09) --
	(475.73,132.10) --
	(478.55,132.10) --
	(481.37,132.10) --
	(484.19,132.10) --
	(487.00,132.10);
\definecolor{drawColor}{RGB}{77,175,74}

\path[draw=drawColor,line width= 0.6pt,dash pattern=on 2pt off 2pt ,line join=round] (374.28,195.19) --
	(377.10,171.27) --
	(379.92,155.52) --
	(382.73,145.23) --
	(385.55,138.62) --
	(388.37,134.47) --
	(391.19,131.95) --
	(394.01,130.51) --
	(396.82,129.77) --
	(399.64,129.47) --
	(402.46,129.45) --
	(405.28,129.59) --
	(408.10,129.82) --
	(410.91,130.08) --
	(413.73,130.35) --
	(416.55,130.61) --
	(419.37,130.85) --
	(422.19,131.06) --
	(425.01,131.24) --
	(427.82,131.40) --
	(430.64,131.53) --
	(433.46,131.64) --
	(436.28,131.73) --
	(439.10,131.80) --
	(441.91,131.86) --
	(444.73,131.91) --
	(447.55,131.95) --
	(450.37,131.97) --
	(453.19,132.00) --
	(456.00,132.01) --
	(458.82,132.03) --
	(461.64,132.04) --
	(464.46,132.05) --
	(467.28,132.05) --
	(470.10,132.06) --
	(472.91,132.06) --
	(475.73,132.06) --
	(478.55,132.07) --
	(481.37,132.07) --
	(484.19,132.07) --
	(487.00,132.07);
\end{scope}
\begin{scope}
\path[clip] ( 59.57, 35.80) rectangle (183.56,108.11);
\definecolor{fillColor}{gray}{0.90}

\path[fill=fillColor] ( 59.57, 35.80) rectangle (183.56,108.11);
\definecolor{drawColor}{gray}{0.95}

\path[draw=drawColor,line width= 0.3pt,line join=round] ( 59.57, 43.25) --
	(183.56, 43.25);

\path[draw=drawColor,line width= 0.3pt,line join=round] ( 59.57, 59.07) --
	(183.56, 59.07);

\path[draw=drawColor,line width= 0.3pt,line join=round] ( 59.57, 74.88) --
	(183.56, 74.88);

\path[draw=drawColor,line width= 0.3pt,line join=round] ( 59.57, 90.69) --
	(183.56, 90.69);

\path[draw=drawColor,line width= 0.3pt,line join=round] ( 59.57,106.51) --
	(183.56,106.51);

\path[draw=drawColor,line width= 0.3pt,line join=round] ( 76.47, 35.80) --
	( 76.47,108.11);

\path[draw=drawColor,line width= 0.3pt,line join=round] (104.66, 35.80) --
	(104.66,108.11);

\path[draw=drawColor,line width= 0.3pt,line join=round] (132.84, 35.80) --
	(132.84,108.11);

\path[draw=drawColor,line width= 0.3pt,line join=round] (161.02, 35.80) --
	(161.02,108.11);
\definecolor{drawColor}{RGB}{255,255,255}

\path[draw=drawColor,line width= 0.6pt,line join=round] ( 59.57, 51.16) --
	(183.56, 51.16);

\path[draw=drawColor,line width= 0.6pt,line join=round] ( 59.57, 66.97) --
	(183.56, 66.97);

\path[draw=drawColor,line width= 0.6pt,line join=round] ( 59.57, 82.79) --
	(183.56, 82.79);

\path[draw=drawColor,line width= 0.6pt,line join=round] ( 59.57, 98.60) --
	(183.56, 98.60);

\path[draw=drawColor,line width= 0.6pt,line join=round] ( 62.38, 35.80) --
	( 62.38,108.11);

\path[draw=drawColor,line width= 0.6pt,line join=round] ( 90.56, 35.80) --
	( 90.56,108.11);

\path[draw=drawColor,line width= 0.6pt,line join=round] (118.75, 35.80) --
	(118.75,108.11);

\path[draw=drawColor,line width= 0.6pt,line join=round] (146.93, 35.80) --
	(146.93,108.11);

\path[draw=drawColor,line width= 0.6pt,line join=round] (175.11, 35.80) --
	(175.11,108.11);
\definecolor{drawColor}{RGB}{228,26,28}

\path[draw=drawColor,line width= 0.6pt,line join=round] ( 65.20, 49.76) --
	( 68.02, 76.33) --
	( 70.84, 90.96) --
	( 73.66, 98.55) --
	( 76.47,102.06) --
	( 79.29,103.29) --
	( 82.11,103.30) --
	( 84.93,102.74) --
	( 87.75,101.95) --
	( 90.56,101.14) --
	( 93.38,100.41) --
	( 96.20, 99.79) --
	( 99.02, 99.30) --
	(101.84, 98.92) --
	(104.66, 98.64) --
	(107.47, 98.45) --
	(110.29, 98.33) --
	(113.11, 98.25) --
	(115.93, 98.22) --
	(118.75, 98.21) --
	(121.56, 98.21) --
	(124.38, 98.24) --
	(127.20, 98.26) --
	(130.02, 98.30) --
	(132.84, 98.33) --
	(135.66, 98.36) --
	(138.47, 98.40) --
	(141.29, 98.42) --
	(144.11, 98.45) --
	(146.93, 98.47) --
	(149.75, 98.49) --
	(152.56, 98.51) --
	(155.38, 98.53) --
	(158.20, 98.54) --
	(161.02, 98.55) --
	(163.84, 98.56) --
	(166.65, 98.57) --
	(169.47, 98.58) --
	(172.29, 98.58) --
	(175.11, 98.59) --
	(177.93, 98.59);
\definecolor{drawColor}{RGB}{55,126,184}

\path[draw=drawColor,line width= 0.6pt,line join=round] ( 65.20, 47.27) --
	( 68.02, 74.79) --
	( 70.84, 90.18) --
	( 73.66, 98.30) --
	( 76.47,102.15) --
	( 79.29,103.57) --
	( 82.11,103.67) --
	( 84.93,103.12) --
	( 87.75,102.30) --
	( 90.56,101.44) --
	( 93.38,100.64) --
	( 96.20, 99.95) --
	( 99.02, 99.40) --
	(101.84, 98.97) --
	(104.66, 98.66) --
	(107.47, 98.43) --
	(110.29, 98.29) --
	(113.11, 98.20) --
	(115.93, 98.15) --
	(118.75, 98.14) --
	(121.56, 98.15) --
	(124.38, 98.18) --
	(127.20, 98.21) --
	(130.02, 98.25) --
	(132.84, 98.29) --
	(135.66, 98.33) --
	(138.47, 98.37) --
	(141.29, 98.40) --
	(144.11, 98.43) --
	(146.93, 98.46) --
	(149.75, 98.49) --
	(152.56, 98.51) --
	(155.38, 98.52) --
	(158.20, 98.54) --
	(161.02, 98.55) --
	(163.84, 98.56) --
	(166.65, 98.57) --
	(169.47, 98.58) --
	(172.29, 98.58) --
	(175.11, 98.59) --
	(177.93, 98.59);
\definecolor{drawColor}{RGB}{77,175,74}

\path[draw=drawColor,line width= 0.6pt,line join=round] ( 65.20, 39.08) --
	( 68.02, 71.07) --
	( 70.84, 89.04) --
	( 73.66, 98.58) --
	( 76.47,103.11) --
	( 79.29,104.75) --
	( 82.11,104.83) --
	( 84.93,104.12) --
	( 87.75,103.09) --
	( 90.56,102.00) --
	( 93.38,101.00) --
	( 96.20,100.15) --
	( 99.02, 99.46) --
	(101.84, 98.93) --
	(104.66, 98.54) --
	(107.47, 98.28) --
	(110.29, 98.10) --
	(113.11, 98.01) --
	(115.93, 97.97) --
	(118.75, 97.97) --
	(121.56, 97.99) --
	(124.38, 98.04) --
	(127.20, 98.09) --
	(130.02, 98.15) --
	(132.84, 98.21) --
	(135.66, 98.27) --
	(138.47, 98.32) --
	(141.29, 98.37) --
	(144.11, 98.41) --
	(146.93, 98.45) --
	(149.75, 98.48) --
	(152.56, 98.50) --
	(155.38, 98.53) --
	(158.20, 98.55) --
	(161.02, 98.56) --
	(163.84, 98.57) --
	(166.65, 98.58) --
	(169.47, 98.59) --
	(172.29, 98.59) --
	(175.11, 98.60) --
	(177.93, 98.60);
\end{scope}
\begin{scope}
\path[clip] (214.10, 35.80) rectangle (338.10,108.11);
\definecolor{fillColor}{gray}{0.90}

\path[fill=fillColor] (214.10, 35.80) rectangle (338.10,108.11);
\definecolor{drawColor}{gray}{0.95}

\path[draw=drawColor,line width= 0.3pt,line join=round] (214.10, 45.28) --
	(338.10, 45.28);

\path[draw=drawColor,line width= 0.3pt,line join=round] (214.10, 58.36) --
	(338.10, 58.36);

\path[draw=drawColor,line width= 0.3pt,line join=round] (214.10, 71.44) --
	(338.10, 71.44);

\path[draw=drawColor,line width= 0.3pt,line join=round] (214.10, 84.52) --
	(338.10, 84.52);

\path[draw=drawColor,line width= 0.3pt,line join=round] (214.10, 97.60) --
	(338.10, 97.60);

\path[draw=drawColor,line width= 0.3pt,line join=round] (231.01, 35.80) --
	(231.01,108.11);

\path[draw=drawColor,line width= 0.3pt,line join=round] (259.19, 35.80) --
	(259.19,108.11);

\path[draw=drawColor,line width= 0.3pt,line join=round] (287.38, 35.80) --
	(287.38,108.11);

\path[draw=drawColor,line width= 0.3pt,line join=round] (315.56, 35.80) --
	(315.56,108.11);
\definecolor{drawColor}{RGB}{255,255,255}

\path[draw=drawColor,line width= 0.6pt,line join=round] (214.10, 38.73) --
	(338.10, 38.73);

\path[draw=drawColor,line width= 0.6pt,line join=round] (214.10, 51.82) --
	(338.10, 51.82);

\path[draw=drawColor,line width= 0.6pt,line join=round] (214.10, 64.90) --
	(338.10, 64.90);

\path[draw=drawColor,line width= 0.6pt,line join=round] (214.10, 77.98) --
	(338.10, 77.98);

\path[draw=drawColor,line width= 0.6pt,line join=round] (214.10, 91.06) --
	(338.10, 91.06);

\path[draw=drawColor,line width= 0.6pt,line join=round] (214.10,104.14) --
	(338.10,104.14);

\path[draw=drawColor,line width= 0.6pt,line join=round] (216.92, 35.80) --
	(216.92,108.11);

\path[draw=drawColor,line width= 0.6pt,line join=round] (245.10, 35.80) --
	(245.10,108.11);

\path[draw=drawColor,line width= 0.6pt,line join=round] (273.28, 35.80) --
	(273.28,108.11);

\path[draw=drawColor,line width= 0.6pt,line join=round] (301.47, 35.80) --
	(301.47,108.11);

\path[draw=drawColor,line width= 0.6pt,line join=round] (329.65, 35.80) --
	(329.65,108.11);
\definecolor{drawColor}{RGB}{228,26,28}

\path[draw=drawColor,line width= 0.6pt,line join=round] (219.74,101.71) --
	(222.56, 74.85) --
	(225.38, 58.62) --
	(228.19, 49.18) --
	(231.01, 44.04) --
	(233.83, 41.57) --
	(236.65, 40.71) --
	(239.47, 40.80) --
	(242.29, 41.41) --
	(245.10, 42.27) --
	(247.92, 43.23) --
	(250.74, 44.17) --
	(253.56, 45.07) --
	(256.38, 45.88) --
	(259.19, 46.60) --
	(262.01, 47.23) --
	(264.83, 47.78) --
	(267.65, 48.24) --
	(270.47, 48.64) --
	(273.28, 48.98) --
	(276.10, 49.27) --
	(278.92, 49.52) --
	(281.74, 49.73) --
	(284.56, 49.91) --
	(287.38, 50.06) --
	(290.19, 50.19) --
	(293.01, 50.31) --
	(295.83, 50.41) --
	(298.65, 50.50) --
	(301.47, 50.58) --
	(304.28, 50.65) --
	(307.10, 50.71) --
	(309.92, 50.77) --
	(312.74, 50.82) --
	(315.56, 50.87) --
	(318.37, 50.92) --
	(321.19, 50.96) --
	(324.01, 51.00) --
	(326.83, 51.04) --
	(329.65, 51.07) --
	(332.47, 51.10);
\definecolor{drawColor}{RGB}{55,126,184}

\path[draw=drawColor,line width= 0.6pt,line join=round] (219.74,100.74) --
	(222.56, 74.21) --
	(225.38, 58.13) --
	(228.19, 48.77) --
	(231.01, 43.67) --
	(233.83, 41.25) --
	(236.65, 40.44) --
	(239.47, 40.59) --
	(242.29, 41.25) --
	(245.10, 42.17) --
	(247.92, 43.18) --
	(250.74, 44.18) --
	(253.56, 45.11) --
	(256.38, 45.95) --
	(259.19, 46.70) --
	(262.01, 47.34) --
	(264.83, 47.89) --
	(267.65, 48.36) --
	(270.47, 48.76) --
	(273.28, 49.09) --
	(276.10, 49.37) --
	(278.92, 49.60) --
	(281.74, 49.80) --
	(284.56, 49.97) --
	(287.38, 50.11) --
	(290.19, 50.23) --
	(293.01, 50.33) --
	(295.83, 50.42) --
	(298.65, 50.50) --
	(301.47, 50.57) --
	(304.28, 50.64) --
	(307.10, 50.69) --
	(309.92, 50.75) --
	(312.74, 50.80) --
	(315.56, 50.84) --
	(318.37, 50.88) --
	(321.19, 50.92) --
	(324.01, 50.96) --
	(326.83, 51.00) --
	(329.65, 51.03) --
	(332.47, 51.07);
\definecolor{drawColor}{RGB}{77,175,74}

\path[draw=drawColor,line width= 0.6pt,line join=round] (219.74,104.83) --
	(222.56, 75.51) --
	(225.38, 57.83) --
	(228.19, 47.65) --
	(231.01, 42.22) --
	(233.83, 39.75) --
	(236.65, 39.08) --
	(239.47, 39.45) --
	(242.29, 40.37) --
	(245.10, 41.54) --
	(247.92, 42.77) --
	(250.74, 43.95) --
	(253.56, 45.04) --
	(256.38, 46.00) --
	(259.19, 46.83) --
	(262.01, 47.53) --
	(264.83, 48.12) --
	(267.65, 48.61) --
	(270.47, 49.00) --
	(273.28, 49.33) --
	(276.10, 49.59) --
	(278.92, 49.80) --
	(281.74, 49.98) --
	(284.56, 50.12) --
	(287.38, 50.24) --
	(290.19, 50.33) --
	(293.01, 50.42) --
	(295.83, 50.49) --
	(298.65, 50.55) --
	(301.47, 50.61) --
	(304.28, 50.66) --
	(307.10, 50.70) --
	(309.92, 50.75) --
	(312.74, 50.79) --
	(315.56, 50.83) --
	(318.37, 50.87) --
	(321.19, 50.91) --
	(324.01, 50.94) --
	(326.83, 50.98) --
	(329.65, 51.01) --
	(332.47, 51.04);
\end{scope}
\begin{scope}
\path[clip] (368.64, 35.80) rectangle (492.64,108.11);
\definecolor{fillColor}{gray}{0.90}

\path[fill=fillColor] (368.64, 35.80) rectangle (492.64,108.11);
\definecolor{drawColor}{gray}{0.95}

\path[draw=drawColor,line width= 0.3pt,line join=round] (368.64, 50.07) --
	(492.64, 50.07);

\path[draw=drawColor,line width= 0.3pt,line join=round] (368.64, 65.81) --
	(492.64, 65.81);

\path[draw=drawColor,line width= 0.3pt,line join=round] (368.64, 81.55) --
	(492.64, 81.55);

\path[draw=drawColor,line width= 0.3pt,line join=round] (368.64, 97.28) --
	(492.64, 97.28);

\path[draw=drawColor,line width= 0.3pt,line join=round] (385.55, 35.80) --
	(385.55,108.11);

\path[draw=drawColor,line width= 0.3pt,line join=round] (413.73, 35.80) --
	(413.73,108.11);

\path[draw=drawColor,line width= 0.3pt,line join=round] (441.91, 35.80) --
	(441.91,108.11);

\path[draw=drawColor,line width= 0.3pt,line join=round] (470.10, 35.80) --
	(470.10,108.11);
\definecolor{drawColor}{RGB}{255,255,255}

\path[draw=drawColor,line width= 0.6pt,line join=round] (368.64, 42.20) --
	(492.64, 42.20);

\path[draw=drawColor,line width= 0.6pt,line join=round] (368.64, 57.94) --
	(492.64, 57.94);

\path[draw=drawColor,line width= 0.6pt,line join=round] (368.64, 73.68) --
	(492.64, 73.68);

\path[draw=drawColor,line width= 0.6pt,line join=round] (368.64, 89.42) --
	(492.64, 89.42);

\path[draw=drawColor,line width= 0.6pt,line join=round] (368.64,105.15) --
	(492.64,105.15);

\path[draw=drawColor,line width= 0.6pt,line join=round] (371.46, 35.80) --
	(371.46,108.11);

\path[draw=drawColor,line width= 0.6pt,line join=round] (399.64, 35.80) --
	(399.64,108.11);

\path[draw=drawColor,line width= 0.6pt,line join=round] (427.82, 35.80) --
	(427.82,108.11);

\path[draw=drawColor,line width= 0.6pt,line join=round] (456.00, 35.80) --
	(456.00,108.11);

\path[draw=drawColor,line width= 0.6pt,line join=round] (484.19, 35.80) --
	(484.19,108.11);
\definecolor{drawColor}{RGB}{228,26,28}

\path[draw=drawColor,line width= 0.6pt,line join=round] (374.28,103.06) --
	(377.10, 75.76) --
	(379.92, 59.32) --
	(382.73, 49.67) --
	(385.55, 44.18) --
	(388.37, 41.23) --
	(391.19, 39.78) --
	(394.01, 39.20) --
	(396.82, 39.08) --
	(399.64, 39.21) --
	(402.46, 39.44) --
	(405.28, 39.71) --
	(408.10, 39.96) --
	(410.91, 40.18) --
	(413.73, 40.37) --
	(416.55, 40.52) --
	(419.37, 40.65) --
	(422.19, 40.75) --
	(425.01, 40.83) --
	(427.82, 40.90) --
	(430.64, 40.96) --
	(433.46, 41.00) --
	(436.28, 41.04) --
	(439.10, 41.08) --
	(441.91, 41.11) --
	(444.73, 41.15) --
	(447.55, 41.18) --
	(450.37, 41.21) --
	(453.19, 41.24) --
	(456.00, 41.27) --
	(458.82, 41.30) --
	(461.64, 41.33) --
	(464.46, 41.36) --
	(467.28, 41.39) --
	(470.10, 41.42) --
	(472.91, 41.45) --
	(475.73, 41.48) --
	(478.55, 41.51) --
	(481.37, 41.54) --
	(484.19, 41.56) --
	(487.00, 41.59);
\definecolor{drawColor}{RGB}{55,126,184}

\path[draw=drawColor,line width= 0.6pt,line join=round] (374.28,100.42) --
	(377.10, 74.08) --
	(379.92, 58.28) --
	(382.73, 49.06) --
	(385.55, 43.87) --
	(388.37, 41.13) --
	(391.19, 39.83) --
	(394.01, 39.35) --
	(396.82, 39.30) --
	(399.64, 39.47) --
	(402.46, 39.72) --
	(405.28, 39.99) --
	(408.10, 40.23) --
	(410.91, 40.43) --
	(413.73, 40.60) --
	(416.55, 40.73) --
	(419.37, 40.82) --
	(422.19, 40.89) --
	(425.01, 40.95) --
	(427.82, 40.99) --
	(430.64, 41.02) --
	(433.46, 41.04) --
	(436.28, 41.06) --
	(439.10, 41.08) --
	(441.91, 41.11) --
	(444.73, 41.13) --
	(447.55, 41.15) --
	(450.37, 41.17) --
	(453.19, 41.20) --
	(456.00, 41.23) --
	(458.82, 41.25) --
	(461.64, 41.28) --
	(464.46, 41.31) --
	(467.28, 41.34) --
	(470.10, 41.37) --
	(472.91, 41.40) --
	(475.73, 41.43) --
	(478.55, 41.46) --
	(481.37, 41.49) --
	(484.19, 41.52) --
	(487.00, 41.54);
\definecolor{drawColor}{RGB}{77,175,74}

\path[draw=drawColor,line width= 0.6pt,line join=round] (374.28,104.83) --
	(377.10, 75.97) --
	(379.92, 58.83) --
	(382.73, 48.96) --
	(385.55, 43.54) --
	(388.37, 40.78) --
	(391.19, 39.57) --
	(394.01, 39.20) --
	(396.82, 39.28) --
	(399.64, 39.54) --
	(402.46, 39.87) --
	(405.28, 40.17) --
	(408.10, 40.43) --
	(410.91, 40.63) --
	(413.73, 40.78) --
	(416.55, 40.88) --
	(419.37, 40.94) --
	(422.19, 40.98) --
	(425.01, 41.00) --
	(427.82, 41.00) --
	(430.64, 41.00) --
	(433.46, 41.00) --
	(436.28, 40.99) --
	(439.10, 41.00) --
	(441.91, 41.00) --
	(444.73, 41.01) --
	(447.55, 41.02) --
	(450.37, 41.04) --
	(453.19, 41.07) --
	(456.00, 41.09) --
	(458.82, 41.12) --
	(461.64, 41.15) --
	(464.46, 41.18) --
	(467.28, 41.22) --
	(470.10, 41.25) --
	(472.91, 41.29) --
	(475.73, 41.32) --
	(478.55, 41.36) --
	(481.37, 41.39) --
	(484.19, 41.43) --
	(487.00, 41.46);
\end{scope}
\begin{scope}
\path[clip] (  0.00,  0.00) rectangle (505.89,361.35);
\definecolor{fillColor}{gray}{0.80}

\path[fill=fillColor] ( 59.57,288.85) rectangle (183.56,303.28);
\definecolor{drawColor}{RGB}{0,0,0}

\node[text=drawColor,anchor=base,inner sep=0pt, outer sep=0pt, scale=  0.87] at (121.56,292.77) {asset price $Q^{{h}}_t$};
\end{scope}
\begin{scope}
\path[clip] (  0.00,  0.00) rectangle (505.89,361.35);
\definecolor{fillColor}{gray}{0.80}

\path[fill=fillColor] (214.10,288.85) rectangle (338.10,303.28);
\definecolor{drawColor}{RGB}{0,0,0}

\node[text=drawColor,anchor=base,inner sep=0pt, outer sep=0pt, scale=  0.87] at (276.10,292.77) {spread $\E_t R_{k,t+1} - R_{t}$};
\end{scope}
\begin{scope}
\path[clip] (  0.00,  0.00) rectangle (505.89,361.35);
\definecolor{fillColor}{gray}{0.80}

\path[fill=fillColor] (368.64,288.85) rectangle (492.64,303.28);
\definecolor{drawColor}{RGB}{0,0,0}

\node[text=drawColor,anchor=base,inner sep=0pt, outer sep=0pt, scale=  0.87] at (430.64,292.77) {marg.\ value of net worth $\Omega^{{h}}_t$};
\end{scope}
\begin{scope}
\path[clip] (  0.00,  0.00) rectangle (505.89,361.35);
\definecolor{fillColor}{gray}{0.80}

\path[fill=fillColor] ( 59.57,198.48) rectangle (183.56,212.91);
\definecolor{drawColor}{RGB}{0,0,0}

\node[text=drawColor,anchor=base,inner sep=0pt, outer sep=0pt, scale=  0.87] at (121.56,202.41) {multiplier of ICC $\lambda^{{h}}_t$};
\end{scope}
\begin{scope}
\path[clip] (  0.00,  0.00) rectangle (505.89,361.35);
\definecolor{fillColor}{gray}{0.80}

\path[fill=fillColor] (214.10,198.48) rectangle (338.10,212.91);
\definecolor{drawColor}{RGB}{0,0,0}

\node[text=drawColor,anchor=base,inner sep=0pt, outer sep=0pt, scale=  0.87] at (276.10,202.41) {friction $\theta$};
\end{scope}
\begin{scope}
\path[clip] (  0.00,  0.00) rectangle (505.89,361.35);
\definecolor{fillColor}{gray}{0.80}

\path[fill=fillColor] (368.64,198.48) rectangle (492.64,212.91);
\definecolor{drawColor}{RGB}{0,0,0}

\node[text=drawColor,anchor=base,inner sep=0pt, outer sep=0pt, scale=  0.87] at (430.64,202.41) {interbank spread  $R_{bt} - R_{t}$};
\end{scope}
\begin{scope}
\path[clip] (  0.00,  0.00) rectangle (505.89,361.35);
\definecolor{fillColor}{gray}{0.80}

\path[fill=fillColor] ( 59.57,108.11) rectangle (183.56,122.55);
\definecolor{drawColor}{RGB}{0,0,0}

\node[text=drawColor,anchor=base,inner sep=0pt, outer sep=0pt, scale=  0.87] at (121.56,112.04) {asset price $Q^{{i}}_t$};
\end{scope}
\begin{scope}
\path[clip] (  0.00,  0.00) rectangle (505.89,361.35);
\definecolor{fillColor}{gray}{0.80}

\path[fill=fillColor] (214.10,108.11) rectangle (338.10,122.55);
\definecolor{drawColor}{RGB}{0,0,0}

\node[text=drawColor,anchor=base,inner sep=0pt, outer sep=0pt, scale=  0.87] at (276.10,112.04) {marg.\ value of net worth $\Omega^{{i}}_t$};
\end{scope}
\begin{scope}
\path[clip] (  0.00,  0.00) rectangle (505.89,361.35);
\definecolor{fillColor}{gray}{0.80}

\path[fill=fillColor] (368.64,108.11) rectangle (492.64,122.55);
\definecolor{drawColor}{RGB}{0,0,0}

\node[text=drawColor,anchor=base,inner sep=0pt, outer sep=0pt, scale=  0.87] at (430.64,112.04) {multiplier of ICC $\lambda^{{i}}_t$};
\end{scope}
\begin{scope}
\path[clip] (  0.00,  0.00) rectangle (505.89,361.35);
\definecolor{drawColor}{gray}{0.50}

\node[text=drawColor,anchor=base east,inner sep=0pt, outer sep=0pt, scale=  0.87] at ( 52.45,213.80) {-0.100};

\node[text=drawColor,anchor=base east,inner sep=0pt, outer sep=0pt, scale=  0.87] at ( 52.45,229.24) {-0.075};

\node[text=drawColor,anchor=base east,inner sep=0pt, outer sep=0pt, scale=  0.87] at ( 52.45,244.68) {-0.050};

\node[text=drawColor,anchor=base east,inner sep=0pt, outer sep=0pt, scale=  0.87] at ( 52.45,260.12) {-0.025};

\node[text=drawColor,anchor=base east,inner sep=0pt, outer sep=0pt, scale=  0.87] at ( 52.45,275.57) {0.000};
\end{scope}
\begin{scope}
\path[clip] (  0.00,  0.00) rectangle (505.89,361.35);
\definecolor{drawColor}{gray}{0.50}

\path[draw=drawColor,line width= 0.6pt,line join=round] ( 55.30,217.09) --
	( 59.57,217.09);

\path[draw=drawColor,line width= 0.6pt,line join=round] ( 55.30,232.53) --
	( 59.57,232.53);

\path[draw=drawColor,line width= 0.6pt,line join=round] ( 55.30,247.97) --
	( 59.57,247.97);

\path[draw=drawColor,line width= 0.6pt,line join=round] ( 55.30,263.41) --
	( 59.57,263.41);

\path[draw=drawColor,line width= 0.6pt,line join=round] ( 55.30,278.86) --
	( 59.57,278.86);
\end{scope}
\begin{scope}
\path[clip] (  0.00,  0.00) rectangle (505.89,361.35);
\definecolor{drawColor}{gray}{0.50}

\node[text=drawColor,anchor=base east,inner sep=0pt, outer sep=0pt, scale=  0.87] at (206.99,219.21) {0.00};

\node[text=drawColor,anchor=base east,inner sep=0pt, outer sep=0pt, scale=  0.87] at (206.99,243.31) {0.02};

\node[text=drawColor,anchor=base east,inner sep=0pt, outer sep=0pt, scale=  0.87] at (206.99,267.42) {0.04};
\end{scope}
\begin{scope}
\path[clip] (  0.00,  0.00) rectangle (505.89,361.35);
\definecolor{drawColor}{gray}{0.50}

\path[draw=drawColor,line width= 0.6pt,line join=round] (209.84,222.50) --
	(214.10,222.50);

\path[draw=drawColor,line width= 0.6pt,line join=round] (209.84,246.60) --
	(214.10,246.60);

\path[draw=drawColor,line width= 0.6pt,line join=round] (209.84,270.71) --
	(214.10,270.71);
\end{scope}
\begin{scope}
\path[clip] (  0.00,  0.00) rectangle (505.89,361.35);
\definecolor{drawColor}{gray}{0.50}

\node[text=drawColor,anchor=base east,inner sep=0pt, outer sep=0pt, scale=  0.87] at (361.53,214.04) {-0.1};

\node[text=drawColor,anchor=base east,inner sep=0pt, outer sep=0pt, scale=  0.87] at (361.53,228.30) {0.0};

\node[text=drawColor,anchor=base east,inner sep=0pt, outer sep=0pt, scale=  0.87] at (361.53,242.57) {0.1};

\node[text=drawColor,anchor=base east,inner sep=0pt, outer sep=0pt, scale=  0.87] at (361.53,256.83) {0.2};

\node[text=drawColor,anchor=base east,inner sep=0pt, outer sep=0pt, scale=  0.87] at (361.53,271.09) {0.3};

\node[text=drawColor,anchor=base east,inner sep=0pt, outer sep=0pt, scale=  0.87] at (361.53,285.36) {0.4};
\end{scope}
\begin{scope}
\path[clip] (  0.00,  0.00) rectangle (505.89,361.35);
\definecolor{drawColor}{gray}{0.50}

\path[draw=drawColor,line width= 0.6pt,line join=round] (364.37,217.33) --
	(368.64,217.33);

\path[draw=drawColor,line width= 0.6pt,line join=round] (364.37,231.59) --
	(368.64,231.59);

\path[draw=drawColor,line width= 0.6pt,line join=round] (364.37,245.86) --
	(368.64,245.86);

\path[draw=drawColor,line width= 0.6pt,line join=round] (364.37,260.12) --
	(368.64,260.12);

\path[draw=drawColor,line width= 0.6pt,line join=round] (364.37,274.39) --
	(368.64,274.39);

\path[draw=drawColor,line width= 0.6pt,line join=round] (364.37,288.65) --
	(368.64,288.65);
\end{scope}
\begin{scope}
\path[clip] (  0.00,  0.00) rectangle (505.89,361.35);
\definecolor{drawColor}{gray}{0.50}

\node[text=drawColor,anchor=base east,inner sep=0pt, outer sep=0pt, scale=  0.87] at ( 52.45,124.98) {-2.5};

\node[text=drawColor,anchor=base east,inner sep=0pt, outer sep=0pt, scale=  0.87] at ( 52.45,137.74) {-2.0};

\node[text=drawColor,anchor=base east,inner sep=0pt, outer sep=0pt, scale=  0.87] at ( 52.45,150.51) {-1.5};

\node[text=drawColor,anchor=base east,inner sep=0pt, outer sep=0pt, scale=  0.87] at ( 52.45,163.28) {-1.0};

\node[text=drawColor,anchor=base east,inner sep=0pt, outer sep=0pt, scale=  0.87] at ( 52.45,176.05) {-0.5};

\node[text=drawColor,anchor=base east,inner sep=0pt, outer sep=0pt, scale=  0.87] at ( 52.45,188.82) {0.0};
\end{scope}
\begin{scope}
\path[clip] (  0.00,  0.00) rectangle (505.89,361.35);
\definecolor{drawColor}{gray}{0.50}

\path[draw=drawColor,line width= 0.6pt,line join=round] ( 55.30,128.27) --
	( 59.57,128.27);

\path[draw=drawColor,line width= 0.6pt,line join=round] ( 55.30,141.04) --
	( 59.57,141.04);

\path[draw=drawColor,line width= 0.6pt,line join=round] ( 55.30,153.80) --
	( 59.57,153.80);

\path[draw=drawColor,line width= 0.6pt,line join=round] ( 55.30,166.57) --
	( 59.57,166.57);

\path[draw=drawColor,line width= 0.6pt,line join=round] ( 55.30,179.34) --
	( 59.57,179.34);

\path[draw=drawColor,line width= 0.6pt,line join=round] ( 55.30,192.11) --
	( 59.57,192.11);
\end{scope}
\begin{scope}
\path[clip] (  0.00,  0.00) rectangle (505.89,361.35);
\definecolor{drawColor}{gray}{0.50}

\node[text=drawColor,anchor=base east,inner sep=0pt, outer sep=0pt, scale=  0.87] at (206.99,126.16) {0.00};

\node[text=drawColor,anchor=base east,inner sep=0pt, outer sep=0pt, scale=  0.87] at (206.99,139.31) {0.01};

\node[text=drawColor,anchor=base east,inner sep=0pt, outer sep=0pt, scale=  0.87] at (206.99,152.46) {0.02};

\node[text=drawColor,anchor=base east,inner sep=0pt, outer sep=0pt, scale=  0.87] at (206.99,165.60) {0.03};

\node[text=drawColor,anchor=base east,inner sep=0pt, outer sep=0pt, scale=  0.87] at (206.99,178.75) {0.04};

\node[text=drawColor,anchor=base east,inner sep=0pt, outer sep=0pt, scale=  0.87] at (206.99,191.90) {0.05};
\end{scope}
\begin{scope}
\path[clip] (  0.00,  0.00) rectangle (505.89,361.35);
\definecolor{drawColor}{gray}{0.50}

\path[draw=drawColor,line width= 0.6pt,line join=round] (209.84,129.45) --
	(214.10,129.45);

\path[draw=drawColor,line width= 0.6pt,line join=round] (209.84,142.60) --
	(214.10,142.60);

\path[draw=drawColor,line width= 0.6pt,line join=round] (209.84,155.75) --
	(214.10,155.75);

\path[draw=drawColor,line width= 0.6pt,line join=round] (209.84,168.90) --
	(214.10,168.90);

\path[draw=drawColor,line width= 0.6pt,line join=round] (209.84,182.04) --
	(214.10,182.04);

\path[draw=drawColor,line width= 0.6pt,line join=round] (209.84,195.19) --
	(214.10,195.19);
\end{scope}
\begin{scope}
\path[clip] (  0.00,  0.00) rectangle (505.89,361.35);
\definecolor{drawColor}{gray}{0.50}

\node[text=drawColor,anchor=base east,inner sep=0pt, outer sep=0pt, scale=  0.87] at (361.53,128.84) {0.00};

\node[text=drawColor,anchor=base east,inner sep=0pt, outer sep=0pt, scale=  0.87] at (361.53,153.00) {0.02};

\node[text=drawColor,anchor=base east,inner sep=0pt, outer sep=0pt, scale=  0.87] at (361.53,177.15) {0.04};
\end{scope}
\begin{scope}
\path[clip] (  0.00,  0.00) rectangle (505.89,361.35);
\definecolor{drawColor}{gray}{0.50}

\path[draw=drawColor,line width= 0.6pt,line join=round] (364.37,132.13) --
	(368.64,132.13);

\path[draw=drawColor,line width= 0.6pt,line join=round] (364.37,156.29) --
	(368.64,156.29);

\path[draw=drawColor,line width= 0.6pt,line join=round] (364.37,180.44) --
	(368.64,180.44);
\end{scope}
\begin{scope}
\path[clip] (  0.00,  0.00) rectangle (505.89,361.35);
\definecolor{drawColor}{gray}{0.50}

\node[text=drawColor,anchor=base east,inner sep=0pt, outer sep=0pt, scale=  0.87] at ( 52.45, 47.87) {-0.075};

\node[text=drawColor,anchor=base east,inner sep=0pt, outer sep=0pt, scale=  0.87] at ( 52.45, 63.68) {-0.050};

\node[text=drawColor,anchor=base east,inner sep=0pt, outer sep=0pt, scale=  0.87] at ( 52.45, 79.50) {-0.025};

\node[text=drawColor,anchor=base east,inner sep=0pt, outer sep=0pt, scale=  0.87] at ( 52.45, 95.31) {0.000};
\end{scope}
\begin{scope}
\path[clip] (  0.00,  0.00) rectangle (505.89,361.35);
\definecolor{drawColor}{gray}{0.50}

\path[draw=drawColor,line width= 0.6pt,line join=round] ( 55.30, 51.16) --
	( 59.57, 51.16);

\path[draw=drawColor,line width= 0.6pt,line join=round] ( 55.30, 66.97) --
	( 59.57, 66.97);

\path[draw=drawColor,line width= 0.6pt,line join=round] ( 55.30, 82.79) --
	( 59.57, 82.79);

\path[draw=drawColor,line width= 0.6pt,line join=round] ( 55.30, 98.60) --
	( 59.57, 98.60);
\end{scope}
\begin{scope}
\path[clip] (  0.00,  0.00) rectangle (505.89,361.35);
\definecolor{drawColor}{gray}{0.50}

\node[text=drawColor,anchor=base east,inner sep=0pt, outer sep=0pt, scale=  0.87] at (206.99, 35.44) {-0.1};

\node[text=drawColor,anchor=base east,inner sep=0pt, outer sep=0pt, scale=  0.87] at (206.99, 48.53) {0.0};

\node[text=drawColor,anchor=base east,inner sep=0pt, outer sep=0pt, scale=  0.87] at (206.99, 61.61) {0.1};

\node[text=drawColor,anchor=base east,inner sep=0pt, outer sep=0pt, scale=  0.87] at (206.99, 74.69) {0.2};

\node[text=drawColor,anchor=base east,inner sep=0pt, outer sep=0pt, scale=  0.87] at (206.99, 87.77) {0.3};

\node[text=drawColor,anchor=base east,inner sep=0pt, outer sep=0pt, scale=  0.87] at (206.99,100.85) {0.4};
\end{scope}
\begin{scope}
\path[clip] (  0.00,  0.00) rectangle (505.89,361.35);
\definecolor{drawColor}{gray}{0.50}

\path[draw=drawColor,line width= 0.6pt,line join=round] (209.84, 38.73) --
	(214.10, 38.73);

\path[draw=drawColor,line width= 0.6pt,line join=round] (209.84, 51.82) --
	(214.10, 51.82);

\path[draw=drawColor,line width= 0.6pt,line join=round] (209.84, 64.90) --
	(214.10, 64.90);

\path[draw=drawColor,line width= 0.6pt,line join=round] (209.84, 77.98) --
	(214.10, 77.98);

\path[draw=drawColor,line width= 0.6pt,line join=round] (209.84, 91.06) --
	(214.10, 91.06);

\path[draw=drawColor,line width= 0.6pt,line join=round] (209.84,104.14) --
	(214.10,104.14);
\end{scope}
\begin{scope}
\path[clip] (  0.00,  0.00) rectangle (505.89,361.35);
\definecolor{drawColor}{gray}{0.50}

\node[text=drawColor,anchor=base east,inner sep=0pt, outer sep=0pt, scale=  0.87] at (361.53, 38.91) {0.00};

\node[text=drawColor,anchor=base east,inner sep=0pt, outer sep=0pt, scale=  0.87] at (361.53, 54.65) {0.25};

\node[text=drawColor,anchor=base east,inner sep=0pt, outer sep=0pt, scale=  0.87] at (361.53, 70.39) {0.50};

\node[text=drawColor,anchor=base east,inner sep=0pt, outer sep=0pt, scale=  0.87] at (361.53, 86.13) {0.75};

\node[text=drawColor,anchor=base east,inner sep=0pt, outer sep=0pt, scale=  0.87] at (361.53,101.86) {1.00};
\end{scope}
\begin{scope}
\path[clip] (  0.00,  0.00) rectangle (505.89,361.35);
\definecolor{drawColor}{gray}{0.50}

\path[draw=drawColor,line width= 0.6pt,line join=round] (364.37, 42.20) --
	(368.64, 42.20);

\path[draw=drawColor,line width= 0.6pt,line join=round] (364.37, 57.94) --
	(368.64, 57.94);

\path[draw=drawColor,line width= 0.6pt,line join=round] (364.37, 73.68) --
	(368.64, 73.68);

\path[draw=drawColor,line width= 0.6pt,line join=round] (364.37, 89.42) --
	(368.64, 89.42);

\path[draw=drawColor,line width= 0.6pt,line join=round] (364.37,105.15) --
	(368.64,105.15);
\end{scope}
\begin{scope}
\path[clip] (  0.00,  0.00) rectangle (505.89,361.35);
\definecolor{drawColor}{gray}{0.50}

\path[draw=drawColor,line width= 0.6pt,line join=round] ( 62.38, 31.53) --
	( 62.38, 35.80);

\path[draw=drawColor,line width= 0.6pt,line join=round] ( 90.56, 31.53) --
	( 90.56, 35.80);

\path[draw=drawColor,line width= 0.6pt,line join=round] (118.75, 31.53) --
	(118.75, 35.80);

\path[draw=drawColor,line width= 0.6pt,line join=round] (146.93, 31.53) --
	(146.93, 35.80);

\path[draw=drawColor,line width= 0.6pt,line join=round] (175.11, 31.53) --
	(175.11, 35.80);
\end{scope}
\begin{scope}
\path[clip] (  0.00,  0.00) rectangle (505.89,361.35);
\definecolor{drawColor}{gray}{0.50}

\node[text=drawColor,anchor=base,inner sep=0pt, outer sep=0pt, scale=  0.87] at ( 62.38, 22.10) {0};

\node[text=drawColor,anchor=base,inner sep=0pt, outer sep=0pt, scale=  0.87] at ( 90.56, 22.10) {10};

\node[text=drawColor,anchor=base,inner sep=0pt, outer sep=0pt, scale=  0.87] at (118.75, 22.10) {20};

\node[text=drawColor,anchor=base,inner sep=0pt, outer sep=0pt, scale=  0.87] at (146.93, 22.10) {30};

\node[text=drawColor,anchor=base,inner sep=0pt, outer sep=0pt, scale=  0.87] at (175.11, 22.10) {40};
\end{scope}
\begin{scope}
\path[clip] (  0.00,  0.00) rectangle (505.89,361.35);
\definecolor{drawColor}{gray}{0.50}

\path[draw=drawColor,line width= 0.6pt,line join=round] (216.92, 31.53) --
	(216.92, 35.80);

\path[draw=drawColor,line width= 0.6pt,line join=round] (245.10, 31.53) --
	(245.10, 35.80);

\path[draw=drawColor,line width= 0.6pt,line join=round] (273.28, 31.53) --
	(273.28, 35.80);

\path[draw=drawColor,line width= 0.6pt,line join=round] (301.47, 31.53) --
	(301.47, 35.80);

\path[draw=drawColor,line width= 0.6pt,line join=round] (329.65, 31.53) --
	(329.65, 35.80);
\end{scope}
\begin{scope}
\path[clip] (  0.00,  0.00) rectangle (505.89,361.35);
\definecolor{drawColor}{gray}{0.50}

\node[text=drawColor,anchor=base,inner sep=0pt, outer sep=0pt, scale=  0.87] at (216.92, 22.10) {0};

\node[text=drawColor,anchor=base,inner sep=0pt, outer sep=0pt, scale=  0.87] at (245.10, 22.10) {10};

\node[text=drawColor,anchor=base,inner sep=0pt, outer sep=0pt, scale=  0.87] at (273.28, 22.10) {20};

\node[text=drawColor,anchor=base,inner sep=0pt, outer sep=0pt, scale=  0.87] at (301.47, 22.10) {30};

\node[text=drawColor,anchor=base,inner sep=0pt, outer sep=0pt, scale=  0.87] at (329.65, 22.10) {40};
\end{scope}
\begin{scope}
\path[clip] (  0.00,  0.00) rectangle (505.89,361.35);
\definecolor{drawColor}{gray}{0.50}

\path[draw=drawColor,line width= 0.6pt,line join=round] (371.46, 31.53) --
	(371.46, 35.80);

\path[draw=drawColor,line width= 0.6pt,line join=round] (399.64, 31.53) --
	(399.64, 35.80);

\path[draw=drawColor,line width= 0.6pt,line join=round] (427.82, 31.53) --
	(427.82, 35.80);

\path[draw=drawColor,line width= 0.6pt,line join=round] (456.00, 31.53) --
	(456.00, 35.80);

\path[draw=drawColor,line width= 0.6pt,line join=round] (484.19, 31.53) --
	(484.19, 35.80);
\end{scope}
\begin{scope}
\path[clip] (  0.00,  0.00) rectangle (505.89,361.35);
\definecolor{drawColor}{gray}{0.50}

\node[text=drawColor,anchor=base,inner sep=0pt, outer sep=0pt, scale=  0.87] at (371.46, 22.10) {0};

\node[text=drawColor,anchor=base,inner sep=0pt, outer sep=0pt, scale=  0.87] at (399.64, 22.10) {10};

\node[text=drawColor,anchor=base,inner sep=0pt, outer sep=0pt, scale=  0.87] at (427.82, 22.10) {20};

\node[text=drawColor,anchor=base,inner sep=0pt, outer sep=0pt, scale=  0.87] at (456.00, 22.10) {30};

\node[text=drawColor,anchor=base,inner sep=0pt, outer sep=0pt, scale=  0.87] at (484.19, 22.10) {40};
\end{scope}
\begin{scope}
\path[clip] (  0.00,  0.00) rectangle (505.89,361.35);
\definecolor{drawColor}{RGB}{0,0,0}

\node[text=drawColor,anchor=base,inner sep=0pt, outer sep=0pt, scale=  1.09] at (276.10,  9.94) {quarters};
\end{scope}
\begin{scope}
\path[clip] (  0.00,  0.00) rectangle (505.89,361.35);
\definecolor{drawColor}{RGB}{0,0,0}

\node[text=drawColor,rotate= 90.00,anchor=base,inner sep=0pt, outer sep=0pt, scale=  1.09] at ( 18.16,162.32) {deviations from steady state};
\end{scope}
\begin{scope}
\path[clip] (  0.00,  0.00) rectangle (505.89,361.35);
\definecolor{fillColor}{RGB}{255,255,255}

\path[fill=fillColor] (102.85,312.75) rectangle (318.62,338.63);
\end{scope}
\begin{scope}
\path[clip] (  0.00,  0.00) rectangle (505.89,361.35);
\definecolor{drawColor}{RGB}{0,0,0}

\node[text=drawColor,anchor=base west,inner sep=0pt, outer sep=0pt, scale=  0.87] at (107.12,322.39) {\bfseries interbank friction \w};
\end{scope}
\begin{scope}
\path[clip] (  0.00,  0.00) rectangle (505.89,361.35);
\definecolor{drawColor}{RGB}{255,255,255}
\definecolor{fillColor}{gray}{0.95}

\path[draw=drawColor,line width= 0.6pt,line join=round,line cap=round,fill=fillColor] (206.83,317.02) rectangle (224.18,334.36);
\end{scope}
\begin{scope}
\path[clip] (  0.00,  0.00) rectangle (505.89,361.35);
\definecolor{drawColor}{RGB}{228,26,28}

\path[draw=drawColor,line width= 0.6pt,line join=round] (208.57,325.69) -- (222.44,325.69);
\end{scope}
\begin{scope}
\path[clip] (  0.00,  0.00) rectangle (505.89,361.35);
\definecolor{drawColor}{RGB}{255,255,255}
\definecolor{fillColor}{gray}{0.95}

\path[draw=drawColor,line width= 0.6pt,line join=round,line cap=round,fill=fillColor] (234.09,317.02) rectangle (251.44,334.36);
\end{scope}
\begin{scope}
\path[clip] (  0.00,  0.00) rectangle (505.89,361.35);
\definecolor{drawColor}{RGB}{55,126,184}

\path[draw=drawColor,line width= 0.6pt,line join=round] (235.83,325.69) -- (249.70,325.69);
\end{scope}
\begin{scope}
\path[clip] (  0.00,  0.00) rectangle (505.89,361.35);
\definecolor{drawColor}{RGB}{255,255,255}
\definecolor{fillColor}{gray}{0.95}

\path[draw=drawColor,line width= 0.6pt,line join=round,line cap=round,fill=fillColor] (269.73,317.02) rectangle (287.07,334.36);
\end{scope}
\begin{scope}
\path[clip] (  0.00,  0.00) rectangle (505.89,361.35);
\definecolor{drawColor}{RGB}{77,175,74}

\path[draw=drawColor,line width= 0.6pt,line join=round] (271.46,325.69) -- (285.34,325.69);
\end{scope}
\begin{scope}
\path[clip] (  0.00,  0.00) rectangle (505.89,361.35);
\definecolor{drawColor}{RGB}{0,0,0}

\node[text=drawColor,anchor=base west,inner sep=0pt, outer sep=0pt, scale=  0.87] at (226.35,322.40) {0};
\end{scope}
\begin{scope}
\path[clip] (  0.00,  0.00) rectangle (505.89,361.35);
\definecolor{drawColor}{RGB}{0,0,0}

\node[text=drawColor,anchor=base west,inner sep=0pt, outer sep=0pt, scale=  0.87] at (253.61,322.40) {0.5};
\end{scope}
\begin{scope}
\path[clip] (  0.00,  0.00) rectangle (505.89,361.35);
\definecolor{drawColor}{RGB}{0,0,0}

\node[text=drawColor,anchor=base west,inner sep=0pt, outer sep=0pt, scale=  0.87] at (289.24,322.40) {0.998};
\end{scope}
\begin{scope}
\path[clip] (  0.00,  0.00) rectangle (505.89,361.35);
\definecolor{fillColor}{RGB}{255,255,255}

\path[fill=fillColor] (325.25,312.75) rectangle (449.35,338.63);
\end{scope}
\begin{scope}
\path[clip] (  0.00,  0.00) rectangle (505.89,361.35);
\definecolor{drawColor}{RGB}{255,255,255}
\definecolor{fillColor}{gray}{0.95}

\path[draw=drawColor,line width= 0.6pt,line join=round,line cap=round,fill=fillColor] (333.85,317.02) rectangle (351.20,334.36);
\end{scope}
\begin{scope}
\path[clip] (  0.00,  0.00) rectangle (505.89,361.35);
\definecolor{drawColor}{RGB}{0,0,0}

\path[draw=drawColor,line width= 0.6pt,line join=round] (335.59,325.69) -- (349.46,325.69);
\end{scope}
\begin{scope}
\path[clip] (  0.00,  0.00) rectangle (505.89,361.35);
\definecolor{drawColor}{RGB}{255,255,255}
\definecolor{fillColor}{gray}{0.95}

\path[draw=drawColor,line width= 0.6pt,line join=round,line cap=round,fill=fillColor] (387.63,317.02) rectangle (404.98,334.36);
\end{scope}
\begin{scope}
\path[clip] (  0.00,  0.00) rectangle (505.89,361.35);
\definecolor{drawColor}{RGB}{0,0,0}

\path[draw=drawColor,line width= 0.6pt,dash pattern=on 2pt off 2pt ,line join=round] (389.37,325.69) -- (403.24,325.69);
\end{scope}
\begin{scope}
\path[clip] (  0.00,  0.00) rectangle (505.89,361.35);
\definecolor{drawColor}{RGB}{0,0,0}

\node[text=drawColor,anchor=base west,inner sep=0pt, outer sep=0pt, scale=  0.87] at (353.36,322.40) {relative};
\end{scope}
\begin{scope}
\path[clip] (  0.00,  0.00) rectangle (505.89,361.35);
\definecolor{drawColor}{RGB}{0,0,0}

\node[text=drawColor,anchor=base west,inner sep=0pt, outer sep=0pt, scale=  0.87] at (407.14,322.40) {absolute};
\end{scope}
\end{tikzpicture}

\end{document}
