% Created by tikzDevice version 0.8.1 on 2015-06-29 08:04:27
% !TEX encoding = UTF-8 Unicode
\documentclass[mathserif,x11names,dvipsnames,red]{beamer}
\nonstopmode

\usepackage{tikz}

\usepackage[active,tightpage,psfixbb]{preview}

\PreviewEnvironment{pgfpicture}

\setlength\PreviewBorder{0pt}

\newcommand{\SweaveOpts}[1]{}  % do not interfere with LaTeX
\newcommand{\SweaveInput}[1]{} % because they are not real TeX commands
\newcommand{\Sexpr}[1]{}       % will only be parsed by R


\def\w{$\omega$}

%\usefonttheme{serif}
\usepackage{etex}
\usepackage{appendixnumberbeamer}
\newcommand{\backupbegin}{
   \newcounter{framenumberappendix}
   \setcounter{framenumberappendix}{\value{framenumber}}
}
\newcommand{\backupend}{  \addtocounter{framenumberappendix}{-\value{framenumber}}
   \addtocounter{framenumber}{\value{framenumberappendix}} 
}

\setbeameroption{hide notes} % Only slides
%\setbeameroption{show notes} % show notes 
%\setbeameroption{show only notes} % Only notes

\addtobeamertemplate{navigation symbols}{}{%
    \usebeamerfont{footline}%
    \usebeamercolor[fg]{footline}%
    \hspace{1em}%
    \insertframenumber/\inserttotalframenumber
}

%% ignorenonframetext does not work
% \mode<article>{}
 % \mode<presentation>{\usetheme{default} }
 
 \input{headerFiles/header}
 \input{headerFiles/math-def}
 \newtheorem{stylfact}{Stylized fact}
 \input{headerFiles/tikz-def}
 \input{headerFiles/acronyms}

\renewcommand{\Xi}{\cola{\omega}}
 
\setbeamerfont{myTOC}{series=\bfseries,size=\Large}
\AtBeginSection[]{\frame{\frametitle{Outline}%
                  \usebeamerfont{myTOC}\tableofcontents[current]}}

 % opening
 % \only<article>{\title{The role of the interbank market in a macroeconomic model with financial frictions}}
\title{Financial frictions and the interbank market}
 
 \author{Fabian Greimel}
 \institute{%Institut f\"ur h\"ohere Studien---
   Master's thesis}


\begin{document}

\begin{tikzpicture}[x=1pt,y=1pt]
\definecolor{fillColor}{RGB}{255,255,255}
\path[use as bounding box,fill=fillColor,fill opacity=0.00] (0,0) rectangle (505.89,325.21);
\begin{scope}
\path[clip] (  0.00,  0.00) rectangle (505.89,325.21);
\definecolor{drawColor}{RGB}{255,255,255}
\definecolor{fillColor}{RGB}{255,255,255}

\path[draw=drawColor,line width= 0.6pt,line join=round,line cap=round,fill=fillColor] (  0.00,  0.00) rectangle (505.89,325.21);
\end{scope}
\begin{scope}
\path[clip] ( 59.26,193.94) rectangle (180.13,255.12);
\definecolor{fillColor}{gray}{0.90}

\path[fill=fillColor] ( 59.26,193.94) rectangle (180.13,255.12);
\definecolor{drawColor}{gray}{0.95}

\path[draw=drawColor,line width= 0.3pt,line join=round] ( 59.26,197.40) --
	(180.13,197.40);

\path[draw=drawColor,line width= 0.3pt,line join=round] ( 59.26,218.62) --
	(180.13,218.62);

\path[draw=drawColor,line width= 0.3pt,line join=round] ( 59.26,239.85) --
	(180.13,239.85);

\path[draw=drawColor,line width= 0.3pt,line join=round] ( 75.74,193.94) --
	( 75.74,255.12);

\path[draw=drawColor,line width= 0.3pt,line join=round] (103.21,193.94) --
	(103.21,255.12);

\path[draw=drawColor,line width= 0.3pt,line join=round] (130.68,193.94) --
	(130.68,255.12);

\path[draw=drawColor,line width= 0.3pt,line join=round] (158.16,193.94) --
	(158.16,255.12);
\definecolor{drawColor}{RGB}{255,255,255}

\path[draw=drawColor,line width= 0.6pt,line join=round] ( 59.26,208.01) --
	(180.13,208.01);

\path[draw=drawColor,line width= 0.6pt,line join=round] ( 59.26,229.24) --
	(180.13,229.24);

\path[draw=drawColor,line width= 0.6pt,line join=round] ( 59.26,250.46) --
	(180.13,250.46);

\path[draw=drawColor,line width= 0.6pt,line join=round] ( 62.00,193.94) --
	( 62.00,255.12);

\path[draw=drawColor,line width= 0.6pt,line join=round] ( 89.48,193.94) --
	( 89.48,255.12);

\path[draw=drawColor,line width= 0.6pt,line join=round] (116.95,193.94) --
	(116.95,255.12);

\path[draw=drawColor,line width= 0.6pt,line join=round] (144.42,193.94) --
	(144.42,255.12);

\path[draw=drawColor,line width= 0.6pt,line join=round] (171.89,193.94) --
	(171.89,255.12);
\definecolor{drawColor}{RGB}{228,26,28}

\path[draw=drawColor,line width= 0.6pt,line join=round] ( 64.75,205.72) --
	( 67.50,202.85) --
	( 70.25,208.51) --
	( 72.99,216.82) --
	( 75.74,225.04) --
	( 78.49,232.00) --
	( 81.24,237.36) --
	( 83.98,241.15) --
	( 86.73,243.56) --
	( 89.48,244.87) --
	( 92.22,245.32) --
	( 94.97,245.15) --
	( 97.72,244.54) --
	(100.47,243.65) --
	(103.21,242.60) --
	(105.96,241.48) --
	(108.71,240.34) --
	(111.45,239.24) --
	(114.20,238.20) --
	(116.95,237.24) --
	(119.70,236.36) --
	(122.44,235.57) --
	(125.19,234.86) --
	(127.94,234.24) --
	(130.68,233.69) --
	(133.43,233.22) --
	(136.18,232.80) --
	(138.93,232.44) --
	(141.67,232.12) --
	(144.42,231.85) --
	(147.17,231.62) --
	(149.91,231.41) --
	(152.66,231.23) --
	(155.41,231.08) --
	(158.16,230.94) --
	(160.90,230.82) --
	(163.65,230.71) --
	(166.40,230.62) --
	(169.14,230.53) --
	(171.89,230.46) --
	(174.64,230.39);
\definecolor{drawColor}{RGB}{55,126,184}

\path[draw=drawColor,line width= 0.6pt,line join=round] ( 64.75,204.64) --
	( 67.50,201.46) --
	( 70.25,207.27) --
	( 72.99,215.98) --
	( 75.74,224.67) --
	( 78.49,232.10) --
	( 81.24,237.87) --
	( 83.98,241.98) --
	( 86.73,244.63) --
	( 89.48,246.07) --
	( 92.22,246.58) --
	( 94.97,246.40) --
	( 97.72,245.73) --
	(100.47,244.76) --
	(103.21,243.60) --
	(105.96,242.35) --
	(108.71,241.09) --
	(111.45,239.86) --
	(114.20,238.71) --
	(116.95,237.64) --
	(119.70,236.67) --
	(122.44,235.80) --
	(125.19,235.02) --
	(127.94,234.34) --
	(130.68,233.75) --
	(133.43,233.24) --
	(136.18,232.79) --
	(138.93,232.41) --
	(141.67,232.08) --
	(144.42,231.80) --
	(147.17,231.56) --
	(149.91,231.35) --
	(152.66,231.17) --
	(155.41,231.01) --
	(158.16,230.88) --
	(160.90,230.76) --
	(163.65,230.66) --
	(166.40,230.57) --
	(169.14,230.49) --
	(171.89,230.42) --
	(174.64,230.35);
\definecolor{drawColor}{RGB}{77,175,74}

\path[draw=drawColor,line width= 0.6pt,line join=round] ( 64.75,200.02) --
	( 67.50,196.72) --
	( 70.25,204.32) --
	( 72.99,215.38) --
	( 75.74,226.31) --
	( 78.49,235.58) --
	( 81.24,242.67) --
	( 83.98,247.59) --
	( 86.73,250.61) --
	( 89.48,252.07) --
	( 92.22,252.34) --
	( 94.97,251.73) --
	( 97.72,250.52) --
	(100.47,248.95) --
	(103.21,247.17) --
	(105.96,245.33) --
	(108.71,243.52) --
	(111.45,241.79) --
	(114.20,240.20) --
	(116.95,238.75) --
	(119.70,237.46) --
	(122.44,236.33) --
	(125.19,235.35) --
	(127.94,234.51) --
	(130.68,233.79) --
	(133.43,233.19) --
	(136.18,232.68) --
	(138.93,232.26) --
	(141.67,231.90) --
	(144.42,231.61) --
	(147.17,231.37) --
	(149.91,231.17) --
	(152.66,231.00) --
	(155.41,230.86) --
	(158.16,230.74) --
	(160.90,230.64) --
	(163.65,230.56) --
	(166.40,230.48) --
	(169.14,230.42) --
	(171.89,230.36) --
	(174.64,230.31);
\end{scope}
\begin{scope}
\path[clip] (221.84,193.94) rectangle (342.71,255.12);
\definecolor{fillColor}{gray}{0.90}

\path[fill=fillColor] (221.84,193.94) rectangle (342.71,255.12);
\definecolor{drawColor}{gray}{0.95}

\path[draw=drawColor,line width= 0.3pt,line join=round] (221.84,204.92) --
	(342.71,204.92);

\path[draw=drawColor,line width= 0.3pt,line join=round] (221.84,219.93) --
	(342.71,219.93);

\path[draw=drawColor,line width= 0.3pt,line join=round] (221.84,234.93) --
	(342.71,234.93);

\path[draw=drawColor,line width= 0.3pt,line join=round] (221.84,249.94) --
	(342.71,249.94);

\path[draw=drawColor,line width= 0.3pt,line join=round] (238.32,193.94) --
	(238.32,255.12);

\path[draw=drawColor,line width= 0.3pt,line join=round] (265.79,193.94) --
	(265.79,255.12);

\path[draw=drawColor,line width= 0.3pt,line join=round] (293.26,193.94) --
	(293.26,255.12);

\path[draw=drawColor,line width= 0.3pt,line join=round] (320.73,193.94) --
	(320.73,255.12);
\definecolor{drawColor}{RGB}{255,255,255}

\path[draw=drawColor,line width= 0.6pt,line join=round] (221.84,197.42) --
	(342.71,197.42);

\path[draw=drawColor,line width= 0.6pt,line join=round] (221.84,212.43) --
	(342.71,212.43);

\path[draw=drawColor,line width= 0.6pt,line join=round] (221.84,227.43) --
	(342.71,227.43);

\path[draw=drawColor,line width= 0.6pt,line join=round] (221.84,242.44) --
	(342.71,242.44);

\path[draw=drawColor,line width= 0.6pt,line join=round] (224.58,193.94) --
	(224.58,255.12);

\path[draw=drawColor,line width= 0.6pt,line join=round] (252.05,193.94) --
	(252.05,255.12);

\path[draw=drawColor,line width= 0.6pt,line join=round] (279.53,193.94) --
	(279.53,255.12);

\path[draw=drawColor,line width= 0.6pt,line join=round] (307.00,193.94) --
	(307.00,255.12);

\path[draw=drawColor,line width= 0.6pt,line join=round] (334.47,193.94) --
	(334.47,255.12);
\definecolor{drawColor}{RGB}{228,26,28}

\path[draw=drawColor,line width= 0.6pt,line join=round] (227.33,204.93) --
	(230.08,201.70) --
	(232.82,207.34) --
	(235.57,216.09) --
	(238.32,224.94) --
	(241.07,232.49) --
	(243.81,238.26) --
	(246.56,242.20) --
	(249.31,244.52) --
	(252.05,245.54) --
	(254.80,245.54) --
	(257.55,244.83) --
	(260.30,243.63) --
	(263.04,242.14) --
	(265.79,240.51) --
	(268.54,238.84) --
	(271.28,237.22) --
	(274.03,235.69) --
	(276.78,234.28) --
	(279.53,233.01) --
	(282.27,231.88) --
	(285.02,230.90) --
	(287.77,230.05) --
	(290.51,229.33) --
	(293.26,228.72) --
	(296.01,228.21) --
	(298.76,227.79) --
	(301.50,227.44) --
	(304.25,227.17) --
	(307.00,226.95) --
	(309.74,226.78) --
	(312.49,226.65) --
	(315.24,226.55) --
	(317.99,226.48) --
	(320.73,226.43) --
	(323.48,226.40) --
	(326.23,226.39) --
	(328.97,226.38) --
	(331.72,226.39) --
	(334.47,226.40) --
	(337.22,226.42);
\definecolor{drawColor}{RGB}{55,126,184}

\path[draw=drawColor,line width= 0.6pt,line join=round] (227.33,204.00) --
	(230.08,200.48) --
	(232.82,206.24) --
	(235.57,215.35) --
	(238.32,224.67) --
	(241.07,232.69) --
	(243.81,238.86) --
	(246.56,243.12) --
	(249.31,245.66) --
	(252.05,246.78) --
	(254.80,246.82) --
	(257.55,246.07) --
	(260.30,244.78) --
	(263.04,243.17) --
	(265.79,241.39) --
	(268.54,239.57) --
	(271.28,237.80) --
	(274.03,236.12) --
	(276.78,234.58) --
	(279.53,233.19) --
	(282.27,231.97) --
	(285.02,230.90) --
	(287.77,229.98) --
	(290.51,229.20) --
	(293.26,228.55) --
	(296.01,228.02) --
	(298.76,227.58) --
	(301.50,227.22) --
	(304.25,226.94) --
	(307.00,226.73) --
	(309.74,226.56) --
	(312.49,226.44) --
	(315.24,226.35) --
	(317.99,226.29) --
	(320.73,226.26) --
	(323.48,226.24) --
	(326.23,226.24) --
	(328.97,226.25) --
	(331.72,226.27) --
	(334.47,226.29) --
	(337.22,226.32);
\definecolor{drawColor}{RGB}{77,175,74}

\path[draw=drawColor,line width= 0.6pt,line join=round] (227.33,200.33) --
	(230.08,196.72) --
	(232.82,204.07) --
	(235.57,215.32) --
	(238.32,226.68) --
	(241.07,236.37) --
	(243.81,243.69) --
	(246.56,248.60) --
	(249.31,251.35) --
	(252.05,252.34) --
	(254.80,251.98) --
	(257.55,250.65) --
	(260.30,248.70) --
	(263.04,246.38) --
	(265.79,243.90) --
	(268.54,241.43) --
	(271.28,239.05) --
	(274.03,236.85) --
	(276.78,234.87) --
	(279.53,233.11) --
	(282.27,231.59) --
	(285.02,230.30) --
	(287.77,229.22) --
	(290.51,228.33) --
	(293.26,227.61) --
	(296.01,227.04) --
	(298.76,226.60) --
	(301.50,226.26) --
	(304.25,226.01) --
	(307.00,225.84) --
	(309.74,225.72) --
	(312.49,225.66) --
	(315.24,225.63) --
	(317.99,225.63) --
	(320.73,225.65) --
	(323.48,225.68) --
	(326.23,225.73) --
	(328.97,225.79) --
	(331.72,225.85) --
	(334.47,225.91) --
	(337.22,225.97);
\end{scope}
\begin{scope}
\path[clip] (372.97,193.94) rectangle (493.84,255.12);
\definecolor{fillColor}{gray}{0.90}

\path[fill=fillColor] (372.97,193.94) rectangle (493.85,255.12);
\definecolor{drawColor}{gray}{0.95}

\path[draw=drawColor,line width= 0.3pt,line join=round] (372.97,209.19) --
	(493.84,209.19);

\path[draw=drawColor,line width= 0.3pt,line join=round] (372.97,229.58) --
	(493.84,229.58);

\path[draw=drawColor,line width= 0.3pt,line join=round] (372.97,249.97) --
	(493.84,249.97);

\path[draw=drawColor,line width= 0.3pt,line join=round] (389.45,193.94) --
	(389.45,255.12);

\path[draw=drawColor,line width= 0.3pt,line join=round] (416.92,193.94) --
	(416.92,255.12);

\path[draw=drawColor,line width= 0.3pt,line join=round] (444.40,193.94) --
	(444.40,255.12);

\path[draw=drawColor,line width= 0.3pt,line join=round] (471.87,193.94) --
	(471.87,255.12);
\definecolor{drawColor}{RGB}{255,255,255}

\path[draw=drawColor,line width= 0.6pt,line join=round] (372.97,198.99) --
	(493.84,198.99);

\path[draw=drawColor,line width= 0.6pt,line join=round] (372.97,219.38) --
	(493.84,219.38);

\path[draw=drawColor,line width= 0.6pt,line join=round] (372.97,239.78) --
	(493.84,239.78);

\path[draw=drawColor,line width= 0.6pt,line join=round] (375.72,193.94) --
	(375.72,255.12);

\path[draw=drawColor,line width= 0.6pt,line join=round] (403.19,193.94) --
	(403.19,255.12);

\path[draw=drawColor,line width= 0.6pt,line join=round] (430.66,193.94) --
	(430.66,255.12);

\path[draw=drawColor,line width= 0.6pt,line join=round] (458.13,193.94) --
	(458.13,255.12);

\path[draw=drawColor,line width= 0.6pt,line join=round] (485.60,193.94) --
	(485.60,255.12);
\definecolor{drawColor}{RGB}{228,26,28}

\path[draw=drawColor,line width= 0.6pt,dash pattern=on 2pt off 2pt ,line join=round] (378.46,247.96) --
	(381.21,229.72) --
	(383.96,217.69) --
	(386.71,209.81) --
	(389.45,204.71) --
	(392.20,201.47) --
	(394.95,199.46) --
	(397.69,198.26) --
	(400.44,197.60) --
	(403.19,197.28) --
	(405.94,197.18) --
	(408.68,197.21) --
	(411.43,197.32) --
	(414.18,197.46) --
	(416.92,197.62) --
	(419.67,197.78) --
	(422.42,197.94) --
	(425.17,198.08) --
	(427.91,198.21) --
	(430.66,198.32) --
	(433.41,198.42) --
	(436.15,198.51) --
	(438.90,198.58) --
	(441.65,198.65) --
	(444.40,198.70) --
	(447.14,198.74) --
	(449.89,198.78) --
	(452.64,198.81) --
	(455.38,198.84) --
	(458.13,198.86) --
	(460.88,198.88) --
	(463.63,198.89) --
	(466.37,198.90) --
	(469.12,198.91) --
	(471.87,198.92) --
	(474.61,198.93) --
	(477.36,198.94) --
	(480.11,198.94) --
	(482.86,198.94) --
	(485.60,198.95) --
	(488.35,198.95);
\definecolor{drawColor}{RGB}{55,126,184}

\path[draw=drawColor,line width= 0.6pt,dash pattern=on 2pt off 2pt ,line join=round] (378.46,247.01) --
	(381.21,229.14) --
	(383.96,217.33) --
	(386.71,209.57) --
	(389.45,204.54) --
	(392.20,201.34) --
	(394.95,199.35) --
	(397.69,198.17) --
	(400.44,197.52) --
	(403.19,197.22) --
	(405.94,197.13) --
	(408.68,197.17) --
	(411.43,197.29) --
	(414.18,197.44) --
	(416.92,197.61) --
	(419.67,197.78) --
	(422.42,197.94) --
	(425.17,198.09) --
	(427.91,198.23) --
	(430.66,198.34) --
	(433.41,198.44) --
	(436.15,198.53) --
	(438.90,198.60) --
	(441.65,198.67) --
	(444.40,198.72) --
	(447.14,198.76) --
	(449.89,198.80) --
	(452.64,198.83) --
	(455.38,198.85) --
	(458.13,198.87) --
	(460.88,198.89) --
	(463.63,198.90) --
	(466.37,198.91) --
	(469.12,198.92) --
	(471.87,198.93) --
	(474.61,198.93) --
	(477.36,198.94) --
	(480.11,198.94) --
	(482.86,198.95) --
	(485.60,198.95) --
	(488.35,198.95);
\definecolor{drawColor}{RGB}{77,175,74}

\path[draw=drawColor,line width= 0.6pt,dash pattern=on 2pt off 2pt ,line join=round] (378.46,252.34) --
	(381.21,232.10) --
	(383.96,218.77) --
	(386.71,210.08) --
	(389.45,204.48) --
	(392.20,200.97) --
	(394.95,198.84) --
	(397.69,197.62) --
	(400.44,196.99) --
	(403.19,196.74) --
	(405.94,196.72) --
	(408.68,196.84) --
	(411.43,197.03) --
	(414.18,197.26) --
	(416.92,197.48) --
	(419.67,197.70) --
	(422.42,197.91) --
	(425.17,198.09) --
	(427.91,198.24) --
	(430.66,198.37) --
	(433.41,198.49) --
	(436.15,198.58) --
	(438.90,198.65) --
	(441.65,198.72) --
	(444.40,198.76) --
	(447.14,198.80) --
	(449.89,198.83) --
	(452.64,198.86) --
	(455.38,198.88) --
	(458.13,198.89) --
	(460.88,198.90) --
	(463.63,198.91) --
	(466.37,198.92) --
	(469.12,198.92) --
	(471.87,198.93) --
	(474.61,198.93) --
	(477.36,198.93) --
	(480.11,198.94) --
	(482.86,198.94) --
	(485.60,198.94) --
	(488.35,198.94);
\end{scope}
\begin{scope}
\path[clip] ( 59.26,114.72) rectangle (180.13,175.89);
\definecolor{fillColor}{gray}{0.90}

\path[fill=fillColor] ( 59.26,114.72) rectangle (180.13,175.89);
\definecolor{drawColor}{gray}{0.95}

\path[draw=drawColor,line width= 0.3pt,line join=round] ( 59.26,129.82) --
	(180.13,129.82);

\path[draw=drawColor,line width= 0.3pt,line join=round] ( 59.26,147.72) --
	(180.13,147.72);

\path[draw=drawColor,line width= 0.3pt,line join=round] ( 59.26,165.61) --
	(180.13,165.61);

\path[draw=drawColor,line width= 0.3pt,line join=round] ( 75.74,114.72) --
	( 75.74,175.89);

\path[draw=drawColor,line width= 0.3pt,line join=round] (103.21,114.72) --
	(103.21,175.89);

\path[draw=drawColor,line width= 0.3pt,line join=round] (130.68,114.72) --
	(130.68,175.89);

\path[draw=drawColor,line width= 0.3pt,line join=round] (158.16,114.72) --
	(158.16,175.89);
\definecolor{drawColor}{RGB}{255,255,255}

\path[draw=drawColor,line width= 0.6pt,line join=round] ( 59.26,120.88) --
	(180.13,120.88);

\path[draw=drawColor,line width= 0.6pt,line join=round] ( 59.26,138.77) --
	(180.13,138.77);

\path[draw=drawColor,line width= 0.6pt,line join=round] ( 59.26,156.66) --
	(180.13,156.66);

\path[draw=drawColor,line width= 0.6pt,line join=round] ( 59.26,174.55) --
	(180.13,174.55);

\path[draw=drawColor,line width= 0.6pt,line join=round] ( 62.00,114.72) --
	( 62.00,175.89);

\path[draw=drawColor,line width= 0.6pt,line join=round] ( 89.48,114.72) --
	( 89.48,175.89);

\path[draw=drawColor,line width= 0.6pt,line join=round] (116.95,114.72) --
	(116.95,175.89);

\path[draw=drawColor,line width= 0.6pt,line join=round] (144.42,114.72) --
	(144.42,175.89);

\path[draw=drawColor,line width= 0.6pt,line join=round] (171.89,114.72) --
	(171.89,175.89);
\definecolor{drawColor}{RGB}{228,26,28}

\path[draw=drawColor,line width= 0.6pt,line join=round] ( 64.75,133.40) --
	( 67.50,127.40) --
	( 70.25,122.89) --
	( 72.99,120.59) --
	( 75.74,120.45) --
	( 78.49,122.11) --
	( 81.24,125.11) --
	( 83.98,128.97) --
	( 86.73,133.29) --
	( 89.48,137.75) --
	( 92.22,142.09) --
	( 94.97,146.16) --
	( 97.72,149.84) --
	(100.47,153.07) --
	(103.21,155.83) --
	(105.96,158.13) --
	(108.71,159.98) --
	(111.45,161.41) --
	(114.20,162.48) --
	(116.95,163.22) --
	(119.70,163.67) --
	(122.44,163.87) --
	(125.19,163.87) --
	(127.94,163.69) --
	(130.68,163.37) --
	(133.43,162.94) --
	(136.18,162.42) --
	(138.93,161.84) --
	(141.67,161.20) --
	(144.42,160.52) --
	(147.17,159.82) --
	(149.91,159.11) --
	(152.66,158.39) --
	(155.41,157.67) --
	(158.16,156.96) --
	(160.90,156.26) --
	(163.65,155.57) --
	(166.40,154.90) --
	(169.14,154.25) --
	(171.89,153.62) --
	(174.64,153.01);
\definecolor{drawColor}{RGB}{55,126,184}

\path[draw=drawColor,line width= 0.6pt,line join=round] ( 64.75,133.18) --
	( 67.50,126.89) --
	( 70.25,122.14) --
	( 72.99,119.67) --
	( 75.74,119.49) --
	( 78.49,121.22) --
	( 81.24,124.39) --
	( 83.98,128.49) --
	( 86.73,133.09) --
	( 89.48,137.85) --
	( 92.22,142.50) --
	( 94.97,146.85) --
	( 97.72,150.78) --
	(100.47,154.24) --
	(103.21,157.18) --
	(105.96,159.62) --
	(108.71,161.57) --
	(111.45,163.07) --
	(114.20,164.17) --
	(116.95,164.90) --
	(119.70,165.33) --
	(122.44,165.49) --
	(125.19,165.43) --
	(127.94,165.19) --
	(130.68,164.80) --
	(133.43,164.29) --
	(136.18,163.68) --
	(138.93,163.01) --
	(141.67,162.29) --
	(144.42,161.53) --
	(147.17,160.76) --
	(149.91,159.97) --
	(152.66,159.18) --
	(155.41,158.40) --
	(158.16,157.63) --
	(160.90,156.87) --
	(163.65,156.14) --
	(166.40,155.42) --
	(169.14,154.73) --
	(171.89,154.06) --
	(174.64,153.41);
\definecolor{drawColor}{RGB}{77,175,74}

\path[draw=drawColor,line width= 0.6pt,line join=round] ( 64.75,132.31) --
	( 67.50,125.14) --
	( 70.25,119.91) --
	( 72.99,117.50) --
	( 75.74,117.85) --
	( 78.49,120.50) --
	( 81.24,124.84) --
	( 83.98,130.23) --
	( 86.73,136.15) --
	( 89.48,142.15) --
	( 92.22,147.92) --
	( 94.97,153.23) --
	( 97.72,157.94) --
	(100.47,161.98) --
	(103.21,165.33) --
	(105.96,168.00) --
	(108.71,170.04) --
	(111.45,171.51) --
	(114.20,172.46) --
	(116.95,172.98) --
	(119.70,173.11) --
	(122.44,172.94) --
	(125.19,172.51) --
	(127.94,171.88) --
	(130.68,171.10) --
	(133.43,170.20) --
	(136.18,169.21) --
	(138.93,168.17) --
	(141.67,167.10) --
	(144.42,166.01) --
	(147.17,164.92) --
	(149.91,163.84) --
	(152.66,162.79) --
	(155.41,161.76) --
	(158.16,160.76) --
	(160.90,159.79) --
	(163.65,158.86) --
	(166.40,157.96) --
	(169.14,157.10) --
	(171.89,156.28) --
	(174.64,155.50);
\end{scope}
\begin{scope}
\path[clip] (221.84,114.72) rectangle (342.71,175.89);
\definecolor{fillColor}{gray}{0.90}

\path[fill=fillColor] (221.84,114.72) rectangle (342.71,175.89);
\definecolor{drawColor}{gray}{0.95}

\path[draw=drawColor,line width= 0.3pt,line join=round] (221.84,118.65) --
	(342.71,118.65);

\path[draw=drawColor,line width= 0.3pt,line join=round] (221.84,130.63) --
	(342.71,130.63);

\path[draw=drawColor,line width= 0.3pt,line join=round] (221.84,142.62) --
	(342.71,142.62);

\path[draw=drawColor,line width= 0.3pt,line join=round] (221.84,154.61) --
	(342.71,154.61);

\path[draw=drawColor,line width= 0.3pt,line join=round] (221.84,166.59) --
	(342.71,166.59);

\path[draw=drawColor,line width= 0.3pt,line join=round] (238.32,114.72) --
	(238.32,175.89);

\path[draw=drawColor,line width= 0.3pt,line join=round] (265.79,114.72) --
	(265.79,175.89);

\path[draw=drawColor,line width= 0.3pt,line join=round] (293.26,114.72) --
	(293.26,175.89);

\path[draw=drawColor,line width= 0.3pt,line join=round] (320.73,114.72) --
	(320.73,175.89);
\definecolor{drawColor}{RGB}{255,255,255}

\path[draw=drawColor,line width= 0.6pt,line join=round] (221.84,124.64) --
	(342.71,124.64);

\path[draw=drawColor,line width= 0.6pt,line join=round] (221.84,136.63) --
	(342.71,136.63);

\path[draw=drawColor,line width= 0.6pt,line join=round] (221.84,148.61) --
	(342.71,148.61);

\path[draw=drawColor,line width= 0.6pt,line join=round] (221.84,160.60) --
	(342.71,160.60);

\path[draw=drawColor,line width= 0.6pt,line join=round] (221.84,172.59) --
	(342.71,172.59);

\path[draw=drawColor,line width= 0.6pt,line join=round] (224.58,114.72) --
	(224.58,175.89);

\path[draw=drawColor,line width= 0.6pt,line join=round] (252.05,114.72) --
	(252.05,175.89);

\path[draw=drawColor,line width= 0.6pt,line join=round] (279.53,114.72) --
	(279.53,175.89);

\path[draw=drawColor,line width= 0.6pt,line join=round] (307.00,114.72) --
	(307.00,175.89);

\path[draw=drawColor,line width= 0.6pt,line join=round] (334.47,114.72) --
	(334.47,175.89);
\definecolor{drawColor}{RGB}{228,26,28}

\path[draw=drawColor,line width= 0.6pt,line join=round] (227.33,118.83) --
	(230.08,141.86) --
	(232.82,155.87) --
	(235.57,164.09) --
	(238.32,168.63) --
	(241.07,170.85) --
	(243.81,171.65) --
	(246.56,171.60) --
	(249.31,171.07) --
	(252.05,170.30) --
	(254.80,169.43) --
	(257.55,168.55) --
	(260.30,167.71) --
	(263.04,166.94) --
	(265.79,166.24) --
	(268.54,165.62) --
	(271.28,165.08) --
	(274.03,164.61) --
	(276.78,164.20) --
	(279.53,163.85) --
	(282.27,163.54) --
	(285.02,163.28) --
	(287.77,163.06) --
	(290.51,162.86) --
	(293.26,162.69) --
	(296.01,162.54) --
	(298.76,162.41) --
	(301.50,162.29) --
	(304.25,162.19) --
	(307.00,162.09) --
	(309.74,162.01) --
	(312.49,161.93) --
	(315.24,161.86) --
	(317.99,161.80) --
	(320.73,161.74) --
	(323.48,161.69) --
	(326.23,161.64) --
	(328.97,161.59) --
	(331.72,161.54) --
	(334.47,161.50) --
	(337.22,161.46);
\definecolor{drawColor}{RGB}{55,126,184}

\path[draw=drawColor,line width= 0.6pt,line join=round] (227.33,120.18) --
	(230.08,142.70) --
	(232.82,156.38) --
	(235.57,164.39) --
	(238.32,168.79) --
	(241.07,170.91) --
	(243.81,171.64) --
	(246.56,171.54) --
	(249.31,170.97) --
	(252.05,170.18) --
	(254.80,169.30) --
	(257.55,168.41) --
	(260.30,167.57) --
	(263.04,166.80) --
	(265.79,166.11) --
	(268.54,165.50) --
	(271.28,164.97) --
	(274.03,164.52) --
	(276.78,164.12) --
	(279.53,163.79) --
	(282.27,163.50) --
	(285.02,163.25) --
	(287.77,163.04) --
	(290.51,162.85) --
	(293.26,162.69) --
	(296.01,162.56) --
	(298.76,162.43) --
	(301.50,162.33) --
	(304.25,162.23) --
	(307.00,162.14) --
	(309.74,162.06) --
	(312.49,161.99) --
	(315.24,161.92) --
	(317.99,161.86) --
	(320.73,161.80) --
	(323.48,161.75) --
	(326.23,161.70) --
	(328.97,161.65) --
	(331.72,161.61) --
	(334.47,161.56) --
	(337.22,161.52);
\definecolor{drawColor}{RGB}{77,175,74}

\path[draw=drawColor,line width= 0.6pt,line join=round] (227.33,117.50) --
	(230.08,142.51) --
	(232.82,157.50) --
	(235.57,166.08) --
	(238.32,170.61) --
	(241.07,172.62) --
	(243.81,173.11) --
	(246.56,172.73) --
	(249.31,171.88) --
	(252.05,170.83) --
	(254.80,169.72) --
	(257.55,168.66) --
	(260.30,167.68) --
	(263.04,166.81) --
	(265.79,166.05) --
	(268.54,165.40) --
	(271.28,164.85) --
	(274.03,164.40) --
	(276.78,164.01) --
	(279.53,163.69) --
	(282.27,163.43) --
	(285.02,163.21) --
	(287.77,163.02) --
	(290.51,162.86) --
	(293.26,162.73) --
	(296.01,162.61) --
	(298.76,162.51) --
	(301.50,162.41) --
	(304.25,162.33) --
	(307.00,162.25) --
	(309.74,162.18) --
	(312.49,162.12) --
	(315.24,162.05) --
	(317.99,161.99) --
	(320.73,161.94) --
	(323.48,161.88) --
	(326.23,161.83) --
	(328.97,161.78) --
	(331.72,161.73) --
	(334.47,161.68) --
	(337.22,161.64);
\end{scope}
\begin{scope}
\path[clip] (372.97,114.72) rectangle (493.84,175.89);
\definecolor{fillColor}{gray}{0.90}

\path[fill=fillColor] (372.97,114.72) rectangle (493.85,175.89);
\definecolor{drawColor}{gray}{0.95}

\path[draw=drawColor,line width= 0.3pt,line join=round] (372.97,126.20) --
	(493.84,126.20);

\path[draw=drawColor,line width= 0.3pt,line join=round] (372.97,138.76) --
	(493.84,138.76);

\path[draw=drawColor,line width= 0.3pt,line join=round] (372.97,151.33) --
	(493.84,151.33);

\path[draw=drawColor,line width= 0.3pt,line join=round] (372.97,163.90) --
	(493.84,163.90);

\path[draw=drawColor,line width= 0.3pt,line join=round] (389.45,114.72) --
	(389.45,175.89);

\path[draw=drawColor,line width= 0.3pt,line join=round] (416.92,114.72) --
	(416.92,175.89);

\path[draw=drawColor,line width= 0.3pt,line join=round] (444.40,114.72) --
	(444.40,175.89);

\path[draw=drawColor,line width= 0.3pt,line join=round] (471.87,114.72) --
	(471.87,175.89);
\definecolor{drawColor}{RGB}{255,255,255}

\path[draw=drawColor,line width= 0.6pt,line join=round] (372.97,119.91) --
	(493.84,119.91);

\path[draw=drawColor,line width= 0.6pt,line join=round] (372.97,132.48) --
	(493.84,132.48);

\path[draw=drawColor,line width= 0.6pt,line join=round] (372.97,145.05) --
	(493.84,145.05);

\path[draw=drawColor,line width= 0.6pt,line join=round] (372.97,157.61) --
	(493.84,157.61);

\path[draw=drawColor,line width= 0.6pt,line join=round] (372.97,170.18) --
	(493.84,170.18);

\path[draw=drawColor,line width= 0.6pt,line join=round] (375.72,114.72) --
	(375.72,175.89);

\path[draw=drawColor,line width= 0.6pt,line join=round] (403.19,114.72) --
	(403.19,175.89);

\path[draw=drawColor,line width= 0.6pt,line join=round] (430.66,114.72) --
	(430.66,175.89);

\path[draw=drawColor,line width= 0.6pt,line join=round] (458.13,114.72) --
	(458.13,175.89);

\path[draw=drawColor,line width= 0.6pt,line join=round] (485.60,114.72) --
	(485.60,175.89);
\definecolor{drawColor}{RGB}{228,26,28}

\path[draw=drawColor,line width= 0.6pt,line join=round] (378.46,162.50) --
	(381.21,146.34) --
	(383.96,135.76) --
	(386.71,128.89) --
	(389.45,124.48) --
	(392.20,121.71) --
	(394.95,120.02) --
	(397.69,119.04) --
	(400.44,118.51) --
	(403.19,118.28) --
	(405.94,118.22) --
	(408.68,118.27) --
	(411.43,118.39) --
	(414.18,118.53) --
	(416.92,118.68) --
	(419.67,118.83) --
	(422.42,118.97) --
	(425.17,119.10) --
	(427.91,119.21) --
	(430.66,119.31) --
	(433.41,119.40) --
	(436.15,119.47) --
	(438.90,119.54) --
	(441.65,119.59) --
	(444.40,119.64) --
	(447.14,119.68) --
	(449.89,119.71) --
	(452.64,119.73) --
	(455.38,119.76) --
	(458.13,119.78) --
	(460.88,119.79) --
	(463.63,119.81) --
	(466.37,119.82) --
	(469.12,119.83) --
	(471.87,119.83) --
	(474.61,119.84) --
	(477.36,119.85) --
	(480.11,119.85) --
	(482.86,119.86) --
	(485.60,119.86) --
	(488.35,119.86);
\definecolor{drawColor}{RGB}{55,126,184}

\path[draw=drawColor,line width= 0.6pt,line join=round] (378.46,160.45) --
	(381.21,145.14) --
	(383.96,135.07) --
	(386.71,128.50) --
	(389.45,124.27) --
	(392.20,121.61) --
	(394.95,119.97) --
	(397.69,119.02) --
	(400.44,118.51) --
	(403.19,118.29) --
	(405.94,118.24) --
	(408.68,118.29) --
	(411.43,118.41) --
	(414.18,118.55) --
	(416.92,118.70) --
	(419.67,118.85) --
	(422.42,119.00) --
	(425.17,119.12) --
	(427.91,119.24) --
	(430.66,119.34) --
	(433.41,119.43) --
	(436.15,119.50) --
	(438.90,119.56) --
	(441.65,119.62) --
	(444.40,119.66) --
	(447.14,119.70) --
	(449.89,119.73) --
	(452.64,119.75) --
	(455.38,119.77) --
	(458.13,119.79) --
	(460.88,119.80) --
	(463.63,119.82) --
	(466.37,119.83) --
	(469.12,119.83) --
	(471.87,119.84) --
	(474.61,119.85) --
	(477.36,119.85) --
	(480.11,119.86) --
	(482.86,119.86) --
	(485.60,119.86) --
	(488.35,119.86);
\definecolor{drawColor}{RGB}{77,175,74}

\path[draw=drawColor,line width= 0.6pt,line join=round] (378.46,173.11) --
	(381.21,152.79) --
	(383.96,139.42) --
	(386.71,130.71) --
	(389.45,125.12) --
	(392.20,121.63) --
	(394.95,119.52) --
	(397.69,118.32) --
	(400.44,117.72) --
	(403.19,117.50) --
	(405.94,117.50) --
	(408.68,117.64) --
	(411.43,117.85) --
	(414.18,118.09) --
	(416.92,118.33) --
	(419.67,118.56) --
	(422.42,118.77) --
	(425.17,118.96) --
	(427.91,119.12) --
	(430.66,119.26) --
	(433.41,119.38) --
	(436.15,119.47) --
	(438.90,119.55) --
	(441.65,119.62) --
	(444.40,119.67) --
	(447.14,119.71) --
	(449.89,119.74) --
	(452.64,119.76) --
	(455.38,119.78) --
	(458.13,119.80) --
	(460.88,119.81) --
	(463.63,119.82) --
	(466.37,119.83) --
	(469.12,119.83) --
	(471.87,119.84) --
	(474.61,119.84) --
	(477.36,119.85) --
	(480.11,119.85) --
	(482.86,119.85) --
	(485.60,119.85) --
	(488.35,119.86);
\end{scope}
\begin{scope}
\path[clip] ( 59.26, 35.49) rectangle (180.13, 96.67);
\definecolor{fillColor}{gray}{0.90}

\path[fill=fillColor] ( 59.26, 35.49) rectangle (180.13, 96.67);
\definecolor{drawColor}{gray}{0.95}

\path[draw=drawColor,line width= 0.3pt,line join=round] ( 59.26, 50.76) --
	(180.13, 50.76);

\path[draw=drawColor,line width= 0.3pt,line join=round] ( 59.26, 71.19) --
	(180.13, 71.19);

\path[draw=drawColor,line width= 0.3pt,line join=round] ( 59.26, 91.62) --
	(180.13, 91.62);

\path[draw=drawColor,line width= 0.3pt,line join=round] ( 75.74, 35.49) --
	( 75.74, 96.67);

\path[draw=drawColor,line width= 0.3pt,line join=round] (103.21, 35.49) --
	(103.21, 96.67);

\path[draw=drawColor,line width= 0.3pt,line join=round] (130.68, 35.49) --
	(130.68, 96.67);

\path[draw=drawColor,line width= 0.3pt,line join=round] (158.16, 35.49) --
	(158.16, 96.67);
\definecolor{drawColor}{RGB}{255,255,255}

\path[draw=drawColor,line width= 0.6pt,line join=round] ( 59.26, 40.54) --
	(180.13, 40.54);

\path[draw=drawColor,line width= 0.6pt,line join=round] ( 59.26, 60.97) --
	(180.13, 60.97);

\path[draw=drawColor,line width= 0.6pt,line join=round] ( 59.26, 81.41) --
	(180.13, 81.41);

\path[draw=drawColor,line width= 0.6pt,line join=round] ( 62.00, 35.49) --
	( 62.00, 96.67);

\path[draw=drawColor,line width= 0.6pt,line join=round] ( 89.48, 35.49) --
	( 89.48, 96.67);

\path[draw=drawColor,line width= 0.6pt,line join=round] (116.95, 35.49) --
	(116.95, 96.67);

\path[draw=drawColor,line width= 0.6pt,line join=round] (144.42, 35.49) --
	(144.42, 96.67);

\path[draw=drawColor,line width= 0.6pt,line join=round] (171.89, 35.49) --
	(171.89, 96.67);
\definecolor{drawColor}{RGB}{228,26,28}

\path[draw=drawColor,line width= 0.6pt,dash pattern=on 2pt off 2pt ,line join=round] ( 64.75, 40.54) --
	( 67.50, 40.54) --
	( 70.25, 40.54) --
	( 72.99, 40.54) --
	( 75.74, 40.54) --
	( 78.49, 40.54) --
	( 81.24, 40.54) --
	( 83.98, 40.54) --
	( 86.73, 40.54) --
	( 89.48, 40.54) --
	( 92.22, 40.54) --
	( 94.97, 40.54) --
	( 97.72, 40.54) --
	(100.47, 40.54) --
	(103.21, 40.54) --
	(105.96, 40.54) --
	(108.71, 40.54) --
	(111.45, 40.54) --
	(114.20, 40.54) --
	(116.95, 40.54) --
	(119.70, 40.54) --
	(122.44, 40.54) --
	(125.19, 40.54) --
	(127.94, 40.54) --
	(130.68, 40.54) --
	(133.43, 40.54) --
	(136.18, 40.54) --
	(138.93, 40.54) --
	(141.67, 40.54) --
	(144.42, 40.54) --
	(147.17, 40.54) --
	(149.91, 40.54) --
	(152.66, 40.54) --
	(155.41, 40.54) --
	(158.16, 40.54) --
	(160.90, 40.54) --
	(163.65, 40.54) --
	(166.40, 40.54) --
	(169.14, 40.54) --
	(171.89, 40.54) --
	(174.64, 40.54);
\definecolor{drawColor}{RGB}{55,126,184}

\path[draw=drawColor,line width= 0.6pt,dash pattern=on 2pt off 2pt ,line join=round] ( 64.75, 59.74) --
	( 67.50, 52.54) --
	( 70.25, 47.81) --
	( 72.99, 44.71) --
	( 75.74, 42.72) --
	( 78.49, 41.45) --
	( 81.24, 40.67) --
	( 83.98, 40.21) --
	( 86.73, 39.96) --
	( 89.48, 39.85) --
	( 92.22, 39.81) --
	( 94.97, 39.83) --
	( 97.72, 39.88) --
	(100.47, 39.94) --
	(103.21, 40.01) --
	(105.96, 40.07) --
	(108.71, 40.13) --
	(111.45, 40.19) --
	(114.20, 40.24) --
	(116.95, 40.29) --
	(119.70, 40.33) --
	(122.44, 40.36) --
	(125.19, 40.39) --
	(127.94, 40.41) --
	(130.68, 40.43) --
	(133.43, 40.45) --
	(136.18, 40.46) --
	(138.93, 40.47) --
	(141.67, 40.48) --
	(144.42, 40.49) --
	(147.17, 40.49) --
	(149.91, 40.50) --
	(152.66, 40.50) --
	(155.41, 40.51) --
	(158.16, 40.51) --
	(160.90, 40.51) --
	(163.65, 40.51) --
	(166.40, 40.52) --
	(169.14, 40.52) --
	(171.89, 40.52) --
	(174.64, 40.52);
\definecolor{drawColor}{RGB}{77,175,74}

\path[draw=drawColor,line width= 0.6pt,dash pattern=on 2pt off 2pt ,line join=round] ( 64.75, 93.89) --
	( 67.50, 73.65) --
	( 70.25, 60.32) --
	( 72.99, 51.62) --
	( 75.74, 46.03) --
	( 78.49, 42.52) --
	( 81.24, 40.39) --
	( 83.98, 39.17) --
	( 86.73, 38.54) --
	( 89.48, 38.29) --
	( 92.22, 38.27) --
	( 94.97, 38.39) --
	( 97.72, 38.58) --
	(100.47, 38.80) --
	(103.21, 39.03) --
	(105.96, 39.25) --
	(108.71, 39.45) --
	(111.45, 39.63) --
	(114.20, 39.79) --
	(116.95, 39.92) --
	(119.70, 40.03) --
	(122.44, 40.13) --
	(125.19, 40.20) --
	(127.94, 40.26) --
	(130.68, 40.31) --
	(133.43, 40.35) --
	(136.18, 40.38) --
	(138.93, 40.41) --
	(141.67, 40.43) --
	(144.42, 40.44) --
	(147.17, 40.45) --
	(149.91, 40.46) --
	(152.66, 40.47) --
	(155.41, 40.47) --
	(158.16, 40.48) --
	(160.90, 40.48) --
	(163.65, 40.48) --
	(166.40, 40.48) --
	(169.14, 40.49) --
	(171.89, 40.49) --
	(174.64, 40.49);
\end{scope}
\begin{scope}
\path[clip] (221.84, 35.49) rectangle (342.71, 96.67);
\definecolor{fillColor}{gray}{0.90}

\path[fill=fillColor] (221.84, 35.49) rectangle (342.71, 96.67);
\definecolor{drawColor}{gray}{0.95}

\path[draw=drawColor,line width= 0.3pt,line join=round] (221.84, 41.80) --
	(342.71, 41.80);

\path[draw=drawColor,line width= 0.3pt,line join=round] (221.84, 55.17) --
	(342.71, 55.17);

\path[draw=drawColor,line width= 0.3pt,line join=round] (221.84, 68.55) --
	(342.71, 68.55);

\path[draw=drawColor,line width= 0.3pt,line join=round] (221.84, 81.93) --
	(342.71, 81.93);

\path[draw=drawColor,line width= 0.3pt,line join=round] (221.84, 95.31) --
	(342.71, 95.31);

\path[draw=drawColor,line width= 0.3pt,line join=round] (238.32, 35.49) --
	(238.32, 96.67);

\path[draw=drawColor,line width= 0.3pt,line join=round] (265.79, 35.49) --
	(265.79, 96.67);

\path[draw=drawColor,line width= 0.3pt,line join=round] (293.26, 35.49) --
	(293.26, 96.67);

\path[draw=drawColor,line width= 0.3pt,line join=round] (320.73, 35.49) --
	(320.73, 96.67);
\definecolor{drawColor}{RGB}{255,255,255}

\path[draw=drawColor,line width= 0.6pt,line join=round] (221.84, 48.49) --
	(342.71, 48.49);

\path[draw=drawColor,line width= 0.6pt,line join=round] (221.84, 61.86) --
	(342.71, 61.86);

\path[draw=drawColor,line width= 0.6pt,line join=round] (221.84, 75.24) --
	(342.71, 75.24);

\path[draw=drawColor,line width= 0.6pt,line join=round] (221.84, 88.62) --
	(342.71, 88.62);

\path[draw=drawColor,line width= 0.6pt,line join=round] (224.58, 35.49) --
	(224.58, 96.67);

\path[draw=drawColor,line width= 0.6pt,line join=round] (252.05, 35.49) --
	(252.05, 96.67);

\path[draw=drawColor,line width= 0.6pt,line join=round] (279.53, 35.49) --
	(279.53, 96.67);

\path[draw=drawColor,line width= 0.6pt,line join=round] (307.00, 35.49) --
	(307.00, 96.67);

\path[draw=drawColor,line width= 0.6pt,line join=round] (334.47, 35.49) --
	(334.47, 96.67);
\definecolor{drawColor}{RGB}{228,26,28}

\path[draw=drawColor,line width= 0.6pt,line join=round] (227.33, 47.30) --
	(230.08, 69.78) --
	(232.82, 82.16) --
	(235.57, 88.58) --
	(238.32, 91.55) --
	(241.07, 92.59) --
	(243.81, 92.60) --
	(246.56, 92.12) --
	(249.31, 91.45) --
	(252.05, 90.77) --
	(254.80, 90.15) --
	(257.55, 89.63) --
	(260.30, 89.21) --
	(263.04, 88.89) --
	(265.79, 88.66) --
	(268.54, 88.49) --
	(271.28, 88.39) --
	(274.03, 88.32) --
	(276.78, 88.29) --
	(279.53, 88.29) --
	(282.27, 88.29) --
	(285.02, 88.31) --
	(287.77, 88.33) --
	(290.51, 88.36) --
	(293.26, 88.39) --
	(296.01, 88.42) --
	(298.76, 88.45) --
	(301.50, 88.47) --
	(304.25, 88.49) --
	(307.00, 88.51) --
	(309.74, 88.53) --
	(312.49, 88.54) --
	(315.24, 88.56) --
	(317.99, 88.57) --
	(320.73, 88.58) --
	(323.48, 88.59) --
	(326.23, 88.59) --
	(328.97, 88.60) --
	(331.72, 88.60) --
	(334.47, 88.61) --
	(337.22, 88.61);
\definecolor{drawColor}{RGB}{55,126,184}

\path[draw=drawColor,line width= 0.6pt,line join=round] (227.33, 45.95) --
	(230.08, 68.87) --
	(232.82, 81.65) --
	(235.57, 88.37) --
	(238.32, 91.56) --
	(241.07, 92.72) --
	(243.81, 92.80) --
	(246.56, 92.34) --
	(249.31, 91.66) --
	(252.05, 90.95) --
	(254.80, 90.29) --
	(257.55, 89.73) --
	(260.30, 89.28) --
	(263.04, 88.93) --
	(265.79, 88.67) --
	(268.54, 88.49) --
	(271.28, 88.37) --
	(274.03, 88.30) --
	(276.78, 88.26) --
	(279.53, 88.25) --
	(282.27, 88.26) --
	(285.02, 88.28) --
	(287.77, 88.30) --
	(290.51, 88.33) --
	(293.26, 88.37) --
	(296.01, 88.40) --
	(298.76, 88.43) --
	(301.50, 88.46) --
	(304.25, 88.48) --
	(307.00, 88.50) --
	(309.74, 88.52) --
	(312.49, 88.54) --
	(315.24, 88.55) --
	(317.99, 88.57) --
	(320.73, 88.58) --
	(323.48, 88.59) --
	(326.23, 88.59) --
	(328.97, 88.60) --
	(331.72, 88.60) --
	(334.47, 88.61) --
	(337.22, 88.61);
\definecolor{drawColor}{RGB}{77,175,74}

\path[draw=drawColor,line width= 0.6pt,line join=round] (227.33, 38.27) --
	(230.08, 65.33) --
	(232.82, 80.53) --
	(235.57, 88.60) --
	(238.32, 92.43) --
	(241.07, 93.82) --
	(243.81, 93.89) --
	(246.56, 93.29) --
	(249.31, 92.42) --
	(252.05, 91.50) --
	(254.80, 90.65) --
	(257.55, 89.93) --
	(260.30, 89.35) --
	(263.04, 88.90) --
	(265.79, 88.57) --
	(268.54, 88.34) --
	(271.28, 88.20) --
	(274.03, 88.12) --
	(276.78, 88.08) --
	(279.53, 88.08) --
	(282.27, 88.11) --
	(285.02, 88.14) --
	(287.77, 88.19) --
	(290.51, 88.24) --
	(293.26, 88.29) --
	(296.01, 88.34) --
	(298.76, 88.38) --
	(301.50, 88.42) --
	(304.25, 88.46) --
	(307.00, 88.49) --
	(309.74, 88.52) --
	(312.49, 88.54) --
	(315.24, 88.56) --
	(317.99, 88.57) --
	(320.73, 88.58) --
	(323.48, 88.59) --
	(326.23, 88.60) --
	(328.97, 88.61) --
	(331.72, 88.61) --
	(334.47, 88.62) --
	(337.22, 88.62);
\end{scope}
\begin{scope}
\path[clip] (  0.00,  0.00) rectangle (505.89,325.21);
\definecolor{fillColor}{gray}{0.80}

\path[fill=fillColor] ( 59.26,255.12) rectangle (180.13,269.55);
\definecolor{drawColor}{RGB}{0,0,0}

\node[text=drawColor,anchor=base,inner sep=0pt, outer sep=0pt, scale=  0.96] at (119.70,258.69) {output $ Y $};
\end{scope}
\begin{scope}
\path[clip] (  0.00,  0.00) rectangle (505.89,325.21);
\definecolor{fillColor}{gray}{0.80}

\path[fill=fillColor] (221.84,255.12) rectangle (342.71,269.55);
\definecolor{drawColor}{RGB}{0,0,0}

\node[text=drawColor,anchor=base,inner sep=0pt, outer sep=0pt, scale=  0.96] at (282.27,258.69) {investment $ I $};
\end{scope}
\begin{scope}
\path[clip] (  0.00,  0.00) rectangle (505.89,325.21);
\definecolor{fillColor}{gray}{0.80}

\path[fill=fillColor] (372.97,255.12) rectangle (493.85,269.55);
\definecolor{drawColor}{RGB}{0,0,0}

\node[text=drawColor,anchor=base,inner sep=0pt, outer sep=0pt, scale=  0.96] at (433.41,258.69) {spread $\E_t R_{k,t+1} - R_{t}$};
\end{scope}
\begin{scope}
\path[clip] (  0.00,  0.00) rectangle (505.89,325.21);
\definecolor{fillColor}{gray}{0.80}

\path[fill=fillColor] ( 59.26,175.89) rectangle (180.13,190.33);
\definecolor{drawColor}{RGB}{0,0,0}

\node[text=drawColor,anchor=base,inner sep=0pt, outer sep=0pt, scale=  0.96] at (119.70,179.46) {aggregate loans $ S $};
\end{scope}
\begin{scope}
\path[clip] (  0.00,  0.00) rectangle (505.89,325.21);
\definecolor{fillColor}{gray}{0.80}

\path[fill=fillColor] (221.84,175.89) rectangle (342.71,190.33);
\definecolor{drawColor}{RGB}{0,0,0}

\node[text=drawColor,anchor=base,inner sep=0pt, outer sep=0pt, scale=  0.96] at (282.27,179.46) {aggregate net worth $ N $};
\end{scope}
\begin{scope}
\path[clip] (  0.00,  0.00) rectangle (505.89,325.21);
\definecolor{fillColor}{gray}{0.80}

\path[fill=fillColor] (372.97,175.89) rectangle (493.85,190.33);
\definecolor{drawColor}{RGB}{0,0,0}

\node[text=drawColor,anchor=base,inner sep=0pt, outer sep=0pt, scale=  0.96] at (433.41,179.46) {avg multiplier $\bar{\lambda}_t$};
\end{scope}
\begin{scope}
\path[clip] (  0.00,  0.00) rectangle (505.89,325.21);
\definecolor{fillColor}{gray}{0.80}

\path[fill=fillColor] ( 59.26, 96.67) rectangle (180.13,111.10);
\definecolor{drawColor}{RGB}{0,0,0}

\node[text=drawColor,anchor=base,inner sep=0pt, outer sep=0pt, scale=  0.96] at (119.70,100.24) {interbank spread  $R_{bt} - R_{t}$};
\end{scope}
\begin{scope}
\path[clip] (  0.00,  0.00) rectangle (505.89,325.21);
\definecolor{fillColor}{gray}{0.80}

\path[fill=fillColor] (221.84, 96.67) rectangle (342.71,111.10);
\definecolor{drawColor}{RGB}{0,0,0}

\node[text=drawColor,anchor=base,inner sep=0pt, outer sep=0pt, scale=  0.96] at (282.27,100.24) {asset price $Q^{{i}}_t$};
\end{scope}
\begin{scope}
\path[clip] (  0.00,  0.00) rectangle (505.89,325.21);
\definecolor{drawColor}{gray}{0.50}

\node[text=drawColor,anchor=base east,inner sep=0pt, outer sep=0pt, scale=  0.96] at ( 52.14,204.36) {-0.01};

\node[text=drawColor,anchor=base east,inner sep=0pt, outer sep=0pt, scale=  0.96] at ( 52.14,225.59) {0.00};

\node[text=drawColor,anchor=base east,inner sep=0pt, outer sep=0pt, scale=  0.96] at ( 52.14,246.81) {0.01};
\end{scope}
\begin{scope}
\path[clip] (  0.00,  0.00) rectangle (505.89,325.21);
\definecolor{drawColor}{gray}{0.50}

\path[draw=drawColor,line width= 0.6pt,line join=round] ( 54.99,208.01) --
	( 59.26,208.01);

\path[draw=drawColor,line width= 0.6pt,line join=round] ( 54.99,229.24) --
	( 59.26,229.24);

\path[draw=drawColor,line width= 0.6pt,line join=round] ( 54.99,250.46) --
	( 59.26,250.46);
\end{scope}
\begin{scope}
\path[clip] (  0.00,  0.00) rectangle (505.89,325.21);
\definecolor{drawColor}{gray}{0.50}

\node[text=drawColor,anchor=base east,inner sep=0pt, outer sep=0pt, scale=  0.96] at (214.72,193.77) {-0.08};

\node[text=drawColor,anchor=base east,inner sep=0pt, outer sep=0pt, scale=  0.96] at (214.72,208.78) {-0.04};

\node[text=drawColor,anchor=base east,inner sep=0pt, outer sep=0pt, scale=  0.96] at (214.72,223.78) {0.00};

\node[text=drawColor,anchor=base east,inner sep=0pt, outer sep=0pt, scale=  0.96] at (214.72,238.79) {0.04};
\end{scope}
\begin{scope}
\path[clip] (  0.00,  0.00) rectangle (505.89,325.21);
\definecolor{drawColor}{gray}{0.50}

\path[draw=drawColor,line width= 0.6pt,line join=round] (217.57,197.42) --
	(221.84,197.42);

\path[draw=drawColor,line width= 0.6pt,line join=round] (217.57,212.43) --
	(221.84,212.43);

\path[draw=drawColor,line width= 0.6pt,line join=round] (217.57,227.43) --
	(221.84,227.43);

\path[draw=drawColor,line width= 0.6pt,line join=round] (217.57,242.44) --
	(221.84,242.44);
\end{scope}
\begin{scope}
\path[clip] (  0.00,  0.00) rectangle (505.89,325.21);
\definecolor{drawColor}{gray}{0.50}

\node[text=drawColor,anchor=base east,inner sep=0pt, outer sep=0pt, scale=  0.96] at (365.86,195.34) {0.00};

\node[text=drawColor,anchor=base east,inner sep=0pt, outer sep=0pt, scale=  0.96] at (365.86,215.74) {0.02};

\node[text=drawColor,anchor=base east,inner sep=0pt, outer sep=0pt, scale=  0.96] at (365.86,236.13) {0.04};
\end{scope}
\begin{scope}
\path[clip] (  0.00,  0.00) rectangle (505.89,325.21);
\definecolor{drawColor}{gray}{0.50}

\path[draw=drawColor,line width= 0.6pt,line join=round] (368.70,198.99) --
	(372.97,198.99);

\path[draw=drawColor,line width= 0.6pt,line join=round] (368.70,219.38) --
	(372.97,219.38);

\path[draw=drawColor,line width= 0.6pt,line join=round] (368.70,239.78) --
	(372.97,239.78);
\end{scope}
\begin{scope}
\path[clip] (  0.00,  0.00) rectangle (505.89,325.21);
\definecolor{drawColor}{gray}{0.50}

\node[text=drawColor,anchor=base east,inner sep=0pt, outer sep=0pt, scale=  0.96] at ( 52.14,117.23) {-0.005};

\node[text=drawColor,anchor=base east,inner sep=0pt, outer sep=0pt, scale=  0.96] at ( 52.14,135.12) {0.000};

\node[text=drawColor,anchor=base east,inner sep=0pt, outer sep=0pt, scale=  0.96] at ( 52.14,153.01) {0.005};

\node[text=drawColor,anchor=base east,inner sep=0pt, outer sep=0pt, scale=  0.96] at ( 52.14,170.90) {0.010};
\end{scope}
\begin{scope}
\path[clip] (  0.00,  0.00) rectangle (505.89,325.21);
\definecolor{drawColor}{gray}{0.50}

\path[draw=drawColor,line width= 0.6pt,line join=round] ( 54.99,120.88) --
	( 59.26,120.88);

\path[draw=drawColor,line width= 0.6pt,line join=round] ( 54.99,138.77) --
	( 59.26,138.77);

\path[draw=drawColor,line width= 0.6pt,line join=round] ( 54.99,156.66) --
	( 59.26,156.66);

\path[draw=drawColor,line width= 0.6pt,line join=round] ( 54.99,174.55) --
	( 59.26,174.55);
\end{scope}
\begin{scope}
\path[clip] (  0.00,  0.00) rectangle (505.89,325.21);
\definecolor{drawColor}{gray}{0.50}

\node[text=drawColor,anchor=base east,inner sep=0pt, outer sep=0pt, scale=  0.96] at (214.72,120.99) {-0.3};

\node[text=drawColor,anchor=base east,inner sep=0pt, outer sep=0pt, scale=  0.96] at (214.72,132.98) {-0.2};

\node[text=drawColor,anchor=base east,inner sep=0pt, outer sep=0pt, scale=  0.96] at (214.72,144.96) {-0.1};

\node[text=drawColor,anchor=base east,inner sep=0pt, outer sep=0pt, scale=  0.96] at (214.72,156.95) {0.0};

\node[text=drawColor,anchor=base east,inner sep=0pt, outer sep=0pt, scale=  0.96] at (214.72,168.94) {0.1};
\end{scope}
\begin{scope}
\path[clip] (  0.00,  0.00) rectangle (505.89,325.21);
\definecolor{drawColor}{gray}{0.50}

\path[draw=drawColor,line width= 0.6pt,line join=round] (217.57,124.64) --
	(221.84,124.64);

\path[draw=drawColor,line width= 0.6pt,line join=round] (217.57,136.63) --
	(221.84,136.63);

\path[draw=drawColor,line width= 0.6pt,line join=round] (217.57,148.61) --
	(221.84,148.61);

\path[draw=drawColor,line width= 0.6pt,line join=round] (217.57,160.60) --
	(221.84,160.60);

\path[draw=drawColor,line width= 0.6pt,line join=round] (217.57,172.59) --
	(221.84,172.59);
\end{scope}
\begin{scope}
\path[clip] (  0.00,  0.00) rectangle (505.89,325.21);
\definecolor{drawColor}{gray}{0.50}

\node[text=drawColor,anchor=base east,inner sep=0pt, outer sep=0pt, scale=  0.96] at (365.86,116.27) {0};

\node[text=drawColor,anchor=base east,inner sep=0pt, outer sep=0pt, scale=  0.96] at (365.86,128.83) {5};

\node[text=drawColor,anchor=base east,inner sep=0pt, outer sep=0pt, scale=  0.96] at (365.86,141.40) {10};

\node[text=drawColor,anchor=base east,inner sep=0pt, outer sep=0pt, scale=  0.96] at (365.86,153.96) {15};

\node[text=drawColor,anchor=base east,inner sep=0pt, outer sep=0pt, scale=  0.96] at (365.86,166.53) {20};
\end{scope}
\begin{scope}
\path[clip] (  0.00,  0.00) rectangle (505.89,325.21);
\definecolor{drawColor}{gray}{0.50}

\path[draw=drawColor,line width= 0.6pt,line join=round] (368.70,119.91) --
	(372.97,119.91);

\path[draw=drawColor,line width= 0.6pt,line join=round] (368.70,132.48) --
	(372.97,132.48);

\path[draw=drawColor,line width= 0.6pt,line join=round] (368.70,145.05) --
	(372.97,145.05);

\path[draw=drawColor,line width= 0.6pt,line join=round] (368.70,157.61) --
	(372.97,157.61);

\path[draw=drawColor,line width= 0.6pt,line join=round] (368.70,170.18) --
	(372.97,170.18);
\end{scope}
\begin{scope}
\path[clip] (  0.00,  0.00) rectangle (505.89,325.21);
\definecolor{drawColor}{gray}{0.50}

\node[text=drawColor,anchor=base east,inner sep=0pt, outer sep=0pt, scale=  0.96] at ( 52.14, 36.89) {0.00};

\node[text=drawColor,anchor=base east,inner sep=0pt, outer sep=0pt, scale=  0.96] at ( 52.14, 57.32) {0.02};

\node[text=drawColor,anchor=base east,inner sep=0pt, outer sep=0pt, scale=  0.96] at ( 52.14, 77.76) {0.04};
\end{scope}
\begin{scope}
\path[clip] (  0.00,  0.00) rectangle (505.89,325.21);
\definecolor{drawColor}{gray}{0.50}

\path[draw=drawColor,line width= 0.6pt,line join=round] ( 54.99, 40.54) --
	( 59.26, 40.54);

\path[draw=drawColor,line width= 0.6pt,line join=round] ( 54.99, 60.97) --
	( 59.26, 60.97);

\path[draw=drawColor,line width= 0.6pt,line join=round] ( 54.99, 81.41) --
	( 59.26, 81.41);
\end{scope}
\begin{scope}
\path[clip] (  0.00,  0.00) rectangle (505.89,325.21);
\definecolor{drawColor}{gray}{0.50}

\node[text=drawColor,anchor=base east,inner sep=0pt, outer sep=0pt, scale=  0.96] at (214.72, 44.84) {-0.075};

\node[text=drawColor,anchor=base east,inner sep=0pt, outer sep=0pt, scale=  0.96] at (214.72, 58.21) {-0.050};

\node[text=drawColor,anchor=base east,inner sep=0pt, outer sep=0pt, scale=  0.96] at (214.72, 71.59) {-0.025};

\node[text=drawColor,anchor=base east,inner sep=0pt, outer sep=0pt, scale=  0.96] at (214.72, 84.97) {0.000};
\end{scope}
\begin{scope}
\path[clip] (  0.00,  0.00) rectangle (505.89,325.21);
\definecolor{drawColor}{gray}{0.50}

\path[draw=drawColor,line width= 0.6pt,line join=round] (217.57, 48.49) --
	(221.84, 48.49);

\path[draw=drawColor,line width= 0.6pt,line join=round] (217.57, 61.86) --
	(221.84, 61.86);

\path[draw=drawColor,line width= 0.6pt,line join=round] (217.57, 75.24) --
	(221.84, 75.24);

\path[draw=drawColor,line width= 0.6pt,line join=round] (217.57, 88.62) --
	(221.84, 88.62);
\end{scope}
\begin{scope}
\path[clip] (  0.00,  0.00) rectangle (505.89,325.21);
\definecolor{drawColor}{gray}{0.50}

\path[draw=drawColor,line width= 0.6pt,line join=round] ( 62.00, 31.22) --
	( 62.00, 35.49);

\path[draw=drawColor,line width= 0.6pt,line join=round] ( 89.48, 31.22) --
	( 89.48, 35.49);

\path[draw=drawColor,line width= 0.6pt,line join=round] (116.95, 31.22) --
	(116.95, 35.49);

\path[draw=drawColor,line width= 0.6pt,line join=round] (144.42, 31.22) --
	(144.42, 35.49);

\path[draw=drawColor,line width= 0.6pt,line join=round] (171.89, 31.22) --
	(171.89, 35.49);
\end{scope}
\begin{scope}
\path[clip] (  0.00,  0.00) rectangle (505.89,325.21);
\definecolor{drawColor}{gray}{0.50}

\node[text=drawColor,anchor=base,inner sep=0pt, outer sep=0pt, scale=  0.96] at ( 62.00, 21.08) {0};

\node[text=drawColor,anchor=base,inner sep=0pt, outer sep=0pt, scale=  0.96] at ( 89.48, 21.08) {10};

\node[text=drawColor,anchor=base,inner sep=0pt, outer sep=0pt, scale=  0.96] at (116.95, 21.08) {20};

\node[text=drawColor,anchor=base,inner sep=0pt, outer sep=0pt, scale=  0.96] at (144.42, 21.08) {30};

\node[text=drawColor,anchor=base,inner sep=0pt, outer sep=0pt, scale=  0.96] at (171.89, 21.08) {40};
\end{scope}
\begin{scope}
\path[clip] (  0.00,  0.00) rectangle (505.89,325.21);
\definecolor{drawColor}{gray}{0.50}

\path[draw=drawColor,line width= 0.6pt,line join=round] (224.58, 31.22) --
	(224.58, 35.49);

\path[draw=drawColor,line width= 0.6pt,line join=round] (252.05, 31.22) --
	(252.05, 35.49);

\path[draw=drawColor,line width= 0.6pt,line join=round] (279.53, 31.22) --
	(279.53, 35.49);

\path[draw=drawColor,line width= 0.6pt,line join=round] (307.00, 31.22) --
	(307.00, 35.49);

\path[draw=drawColor,line width= 0.6pt,line join=round] (334.47, 31.22) --
	(334.47, 35.49);
\end{scope}
\begin{scope}
\path[clip] (  0.00,  0.00) rectangle (505.89,325.21);
\definecolor{drawColor}{gray}{0.50}

\node[text=drawColor,anchor=base,inner sep=0pt, outer sep=0pt, scale=  0.96] at (224.58, 21.08) {0};

\node[text=drawColor,anchor=base,inner sep=0pt, outer sep=0pt, scale=  0.96] at (252.05, 21.08) {10};

\node[text=drawColor,anchor=base,inner sep=0pt, outer sep=0pt, scale=  0.96] at (279.53, 21.08) {20};

\node[text=drawColor,anchor=base,inner sep=0pt, outer sep=0pt, scale=  0.96] at (307.00, 21.08) {30};

\node[text=drawColor,anchor=base,inner sep=0pt, outer sep=0pt, scale=  0.96] at (334.47, 21.08) {40};
\end{scope}
\begin{scope}
\path[clip] (  0.00,  0.00) rectangle (505.89,325.21);
\definecolor{drawColor}{RGB}{0,0,0}

\node[text=drawColor,anchor=base,inner sep=0pt, outer sep=0pt, scale=  1.20] at (276.55,  9.03) {quarters};
\end{scope}
\begin{scope}
\path[clip] (  0.00,  0.00) rectangle (505.89,325.21);
\definecolor{drawColor}{RGB}{0,0,0}

\node[text=drawColor,rotate= 90.00,anchor=base,inner sep=0pt, outer sep=0pt, scale=  1.20] at ( 18.16,145.30) {deviations from steady state};
\end{scope}
\begin{scope}
\path[clip] (  0.00,  0.00) rectangle (505.89,325.21);
\definecolor{fillColor}{RGB}{255,255,255}

\path[fill=fillColor] ( 97.18,278.42) rectangle (325.79,304.30);
\end{scope}
\begin{scope}
\path[clip] (  0.00,  0.00) rectangle (505.89,325.21);
\definecolor{drawColor}{RGB}{0,0,0}

\node[text=drawColor,anchor=base west,inner sep=0pt, outer sep=0pt, scale=  0.96] at (101.45,287.71) {\bfseries interbank friction $\Xi$};
\end{scope}
\begin{scope}
\path[clip] (  0.00,  0.00) rectangle (505.89,325.21);
\definecolor{drawColor}{RGB}{255,255,255}
\definecolor{fillColor}{gray}{0.95}

\path[draw=drawColor,line width= 0.6pt,line join=round,line cap=round,fill=fillColor] (214.00,282.69) rectangle (231.35,300.03);
\end{scope}
\begin{scope}
\path[clip] (  0.00,  0.00) rectangle (505.89,325.21);
\definecolor{drawColor}{RGB}{228,26,28}

\path[draw=drawColor,line width= 0.6pt,line join=round] (215.74,291.36) -- (229.61,291.36);
\end{scope}
\begin{scope}
\path[clip] (  0.00,  0.00) rectangle (505.89,325.21);
\definecolor{drawColor}{RGB}{255,255,255}
\definecolor{fillColor}{gray}{0.95}

\path[draw=drawColor,line width= 0.6pt,line join=round,line cap=round,fill=fillColor] (241.26,282.69) rectangle (258.61,300.03);
\end{scope}
\begin{scope}
\path[clip] (  0.00,  0.00) rectangle (505.89,325.21);
\definecolor{drawColor}{RGB}{55,126,184}

\path[draw=drawColor,line width= 0.6pt,line join=round] (243.00,291.36) -- (256.87,291.36);
\end{scope}
\begin{scope}
\path[clip] (  0.00,  0.00) rectangle (505.89,325.21);
\definecolor{drawColor}{RGB}{255,255,255}
\definecolor{fillColor}{gray}{0.95}

\path[draw=drawColor,line width= 0.6pt,line join=round,line cap=round,fill=fillColor] (276.90,282.69) rectangle (294.24,300.03);
\end{scope}
\begin{scope}
\path[clip] (  0.00,  0.00) rectangle (505.89,325.21);
\definecolor{drawColor}{RGB}{77,175,74}

\path[draw=drawColor,line width= 0.6pt,line join=round] (278.63,291.36) -- (292.51,291.36);
\end{scope}
\begin{scope}
\path[clip] (  0.00,  0.00) rectangle (505.89,325.21);
\definecolor{drawColor}{RGB}{0,0,0}

\node[text=drawColor,anchor=base west,inner sep=0pt, outer sep=0pt, scale=  0.96] at (233.51,287.71) {0};
\end{scope}
\begin{scope}
\path[clip] (  0.00,  0.00) rectangle (505.89,325.21);
\definecolor{drawColor}{RGB}{0,0,0}

\node[text=drawColor,anchor=base west,inner sep=0pt, outer sep=0pt, scale=  0.96] at (260.78,287.71) {0.4};
\end{scope}
\begin{scope}
\path[clip] (  0.00,  0.00) rectangle (505.89,325.21);
\definecolor{drawColor}{RGB}{0,0,0}

\node[text=drawColor,anchor=base west,inner sep=0pt, outer sep=0pt, scale=  0.96] at (296.41,287.71) {0.998};
\end{scope}
\begin{scope}
\path[clip] (  0.00,  0.00) rectangle (505.89,325.21);
\definecolor{fillColor}{RGB}{255,255,255}

\path[fill=fillColor] (331.81,278.42) rectangle (455.92,304.30);
\end{scope}
\begin{scope}
\path[clip] (  0.00,  0.00) rectangle (505.89,325.21);
\definecolor{drawColor}{RGB}{255,255,255}
\definecolor{fillColor}{gray}{0.95}

\path[draw=drawColor,line width= 0.6pt,line join=round,line cap=round,fill=fillColor] (340.42,282.69) rectangle (357.76,300.03);
\end{scope}
\begin{scope}
\path[clip] (  0.00,  0.00) rectangle (505.89,325.21);
\definecolor{drawColor}{RGB}{0,0,0}

\path[draw=drawColor,line width= 0.6pt,line join=round] (342.15,291.36) -- (356.03,291.36);
\end{scope}
\begin{scope}
\path[clip] (  0.00,  0.00) rectangle (505.89,325.21);
\definecolor{drawColor}{RGB}{255,255,255}
\definecolor{fillColor}{gray}{0.95}

\path[draw=drawColor,line width= 0.6pt,line join=round,line cap=round,fill=fillColor] (394.20,282.69) rectangle (411.54,300.03);
\end{scope}
\begin{scope}
\path[clip] (  0.00,  0.00) rectangle (505.89,325.21);
\definecolor{drawColor}{RGB}{0,0,0}

\path[draw=drawColor,line width= 0.6pt,dash pattern=on 2pt off 2pt ,line join=round] (395.93,291.36) -- (409.81,291.36);
\end{scope}
\begin{scope}
\path[clip] (  0.00,  0.00) rectangle (505.89,325.21);
\definecolor{drawColor}{RGB}{0,0,0}

\node[text=drawColor,anchor=base west,inner sep=0pt, outer sep=0pt, scale=  0.96] at (359.93,287.71) {relative};
\end{scope}
\begin{scope}
\path[clip] (  0.00,  0.00) rectangle (505.89,325.21);
\definecolor{drawColor}{RGB}{0,0,0}

\node[text=drawColor,anchor=base west,inner sep=0pt, outer sep=0pt, scale=  0.96] at (413.71,287.71) {absolute};
\end{scope}
\end{tikzpicture}

\end{document}
