% Created by tikzDevice version 0.8.1 on 2015-05-31 22:49:31
% !TEX encoding = UTF-8 Unicode
\documentclass[mathserif,x11names,red]{beamer}
\nonstopmode

\usepackage{tikz}

\usepackage[active,tightpage,psfixbb]{preview}

\PreviewEnvironment{pgfpicture}

\setlength\PreviewBorder{0pt}

\newcommand{\SweaveOpts}[1]{}  % do not interfere with LaTeX
\newcommand{\SweaveInput}[1]{} % because they are not real TeX commands
\newcommand{\Sexpr}[1]{}       % will only be parsed by R


%% ignorenonframetext does not work
% \mode<article>{}
 % \mode<presentation>{\usetheme{default} }
 
 \input{headerFiles/header}
 \input{headerFiles/math-def}
 \newtheorem{stylfact}{Stylized fact}
 \input{headerFiles/tikz-def}
 \input{headerFiles/acronyms}
 
 % opening
 % \only<article>{\title{The role of the interbank market in a macroeconomic model with financial frictions}}
 \only<presentation>{\title[Interbank market and financial frictions]{The role of the interbank market in a macroeconomic model with financial frictions}}
 
 \author{Fabian Greimel}
 \institute{IHS}
 

\begin{document}

\begin{tikzpicture}[x=1pt,y=1pt]
\definecolor{fillColor}{RGB}{255,255,255}
\path[use as bounding box,fill=fillColor,fill opacity=0.00] (0,0) rectangle (231.26,260.17);
\begin{scope}
\path[clip] (  0.00,  0.00) rectangle (231.26,260.17);
\definecolor{drawColor}{RGB}{255,255,255}
\definecolor{fillColor}{RGB}{255,255,255}

\path[draw=drawColor,line width= 0.6pt,line join=round,line cap=round,fill=fillColor] (  0.00,  0.00) rectangle (231.26,260.17);
\end{scope}
\begin{scope}
\path[clip] ( 56.19,174.61) rectangle (219.22,233.69);
\definecolor{fillColor}{gray}{0.90}

\path[fill=fillColor] ( 56.19,174.61) rectangle (219.22,233.69);
\definecolor{drawColor}{gray}{0.95}

\path[draw=drawColor,line width= 0.3pt,line join=round] ( 56.19,185.43) --
	(219.22,185.43);

\path[draw=drawColor,line width= 0.3pt,line join=round] ( 56.19,199.56) --
	(219.22,199.56);

\path[draw=drawColor,line width= 0.3pt,line join=round] ( 56.19,213.69) --
	(219.22,213.69);

\path[draw=drawColor,line width= 0.3pt,line join=round] ( 56.19,227.82) --
	(219.22,227.82);

\path[draw=drawColor,line width= 0.3pt,line join=round] ( 59.17,174.61) --
	( 59.17,233.69);

\path[draw=drawColor,line width= 0.3pt,line join=round] (101.87,174.61) --
	(101.87,233.69);

\path[draw=drawColor,line width= 0.3pt,line join=round] (144.55,174.61) --
	(144.55,233.69);

\path[draw=drawColor,line width= 0.3pt,line join=round] (187.22,174.61) --
	(187.22,233.69);
\definecolor{drawColor}{RGB}{255,255,255}

\path[draw=drawColor,line width= 0.6pt,line join=round] ( 56.19,178.36) --
	(219.22,178.36);

\path[draw=drawColor,line width= 0.6pt,line join=round] ( 56.19,192.49) --
	(219.22,192.49);

\path[draw=drawColor,line width= 0.6pt,line join=round] ( 56.19,206.62) --
	(219.22,206.62);

\path[draw=drawColor,line width= 0.6pt,line join=round] ( 56.19,220.75) --
	(219.22,220.75);

\path[draw=drawColor,line width= 0.6pt,line join=round] ( 80.52,174.61) --
	( 80.52,233.69);

\path[draw=drawColor,line width= 0.6pt,line join=round] (123.21,174.61) --
	(123.21,233.69);

\path[draw=drawColor,line width= 0.6pt,line join=round] (165.89,174.61) --
	(165.89,233.69);

\path[draw=drawColor,line width= 0.6pt,line join=round] (208.56,174.61) --
	(208.56,233.69);
\definecolor{fillColor}{RGB}{204,204,204}

\path[fill=fillColor,fill opacity=0.50] ( 91.17,233.69) rectangle ( 96.85,174.61);

\path[fill=fillColor,fill opacity=0.50] (148.80,233.69) rectangle (165.89,174.61);
\definecolor{drawColor}{RGB}{0,0,0}

\path[draw=drawColor,line width= 0.6pt,line join=round] ( 63.60,196.45) --
	( 63.76,195.37) --
	( 63.92,194.53) --
	( 64.09,193.04) --
	( 64.25,193.28) --
	( 64.41,193.95) --
	( 64.58,194.38) --
	( 64.74,193.79) --
	( 64.91,195.66) --
	( 65.07,195.00) --
	( 65.23,195.48) --
	( 65.40,196.61) --
	( 65.56,198.81) --
	( 65.72,197.58) --
	( 65.89,198.56) --
	( 66.05,195.44) --
	( 66.21,193.72) --
	( 66.38,194.05) --
	( 66.54,193.39) --
	( 66.71,193.58) --
	( 66.87,192.25) --
	( 67.03,195.30) --
	( 67.20,196.33) --
	( 67.36,194.81) --
	( 67.52,194.23) --
	( 67.69,199.33) --
	( 67.85,195.02) --
	( 68.01,195.25) --
	( 68.18,193.42) --
	( 68.34,194.18) --
	( 68.50,194.95) --
	( 68.67,193.98) --
	( 68.83,192.02) --
	( 69.00,192.88) --
	( 69.16,194.69) --
	( 69.32,196.70) --
	( 69.49,194.59) --
	( 69.65,194.24) --
	( 69.81,197.03) --
	( 69.98,196.40) --
	( 70.14,194.81) --
	( 70.30,196.14) --
	( 70.47,196.85) --
	( 70.63,197.96) --
	( 70.79,197.24) --
	( 70.96,198.57) --
	( 71.12,197.65) --
	( 71.29,197.55) --
	( 71.45,196.56) --
	( 71.61,198.02) --
	( 71.78,197.45) --
	( 71.94,197.81) --
	( 72.10,197.21) --
	( 72.27,197.34) --
	( 72.43,197.88) --
	( 72.59,197.05) --
	( 72.76,198.57) --
	( 72.92,196.98) --
	( 73.09,197.86) --
	( 73.25,198.10) --
	( 73.41,197.65) --
	( 73.58,197.86) --
	( 73.74,196.92) --
	( 73.90,198.00) --
	( 74.07,196.05) --
	( 74.23,198.22) --
	( 74.39,196.55) --
	( 74.56,195.51) --
	( 74.72,197.34) --
	( 74.88,197.15) --
	( 75.05,196.22) --
	( 75.21,197.42) --
	( 75.38,196.46) --
	( 75.54,197.81) --
	( 75.70,195.59) --
	( 75.87,196.90) --
	( 76.03,196.56) --
	( 76.19,197.29) --
	( 76.36,197.43) --
	( 76.52,195.09) --
	( 76.68,195.56) --
	( 76.85,196.63) --
	( 77.01,195.31) --
	( 77.17,194.15) --
	( 77.34,194.97) --
	( 77.50,194.81) --
	( 77.67,194.91) --
	( 77.83,195.66) --
	( 77.99,194.64) --
	( 78.16,194.39) --
	( 78.32,193.70) --
	( 78.48,195.96) --
	( 78.65,195.23) --
	( 78.81,195.53) --
	( 78.97,197.15) --
	( 79.14,198.82) --
	( 79.30,196.95) --
	( 79.47,197.08) --
	( 79.63,197.28) --
	( 79.79,198.09) --
	( 79.96,197.40) --
	( 80.12,199.24) --
	( 80.28,197.41) --
	( 80.45,198.91) --
	( 80.61,196.89) --
	( 80.77,196.19) --
	( 80.94,196.05) --
	( 81.10,196.93) --
	( 81.26,196.64) --
	( 81.43,197.12) --
	( 81.59,197.72) --
	( 81.76,197.40) --
	( 81.92,198.60) --
	( 82.08,198.29) --
	( 82.25,198.00) --
	( 82.41,197.45) --
	( 82.57,198.55) --
	( 82.74,197.95) --
	( 82.90,198.62) --
	( 83.06,198.06) --
	( 83.23,199.13) --
	( 83.39,198.29) --
	( 83.55,197.55) --
	( 83.72,198.87) --
	( 83.88,195.86) --
	( 84.05,197.74) --
	( 84.21,196.47) --
	( 84.37,197.37) --
	( 84.54,196.79) --
	( 84.70,197.92) --
	( 84.86,200.38) --
	( 85.03,198.24) --
	( 85.19,198.09) --
	( 85.35,198.73) --
	( 85.52,198.04) --
	( 85.68,198.32) --
	( 85.84,199.13) --
	( 86.01,199.05) --
	( 86.17,199.16) --
	( 86.34,198.72) --
	( 86.50,197.72) --
	( 86.66,198.92) --
	( 86.83,197.72) --
	( 86.99,198.69) --
	( 87.15,198.78) --
	( 87.32,200.14) --
	( 87.48,200.21) --
	( 87.64,201.99) --
	( 87.81,202.02) --
	( 87.97,202.12) --
	( 88.14,200.17) --
	( 88.30,201.37) --
	( 88.46,202.39) --
	( 88.63,202.13) --
	( 88.79,202.80) --
	( 88.95,202.03) --
	( 89.12,204.57) --
	( 89.28,203.56) --
	( 89.44,202.77) --
	( 89.61,205.21) --
	( 89.77,204.93) --
	( 89.93,204.10) --
	( 90.10,202.60) --
	( 90.26,202.84) --
	( 90.43,205.17) --
	( 90.59,204.76) --
	( 90.75,206.29) --
	( 90.92,206.35) --
	( 91.08,204.79) --
	( 91.24,208.80) --
	( 91.41,208.28) --
	( 91.57,209.44) --
	( 91.73,207.94) --
	( 91.90,206.58) --
	( 92.06,206.28) --
	( 92.22,206.46) --
	( 92.39,203.92) --
	( 92.55,204.88) --
	( 92.72,204.49) --
	( 92.88,204.53) --
	( 93.04,204.45) --
	( 93.21,201.87) --
	( 93.37,204.19) --
	( 93.53,202.86) --
	( 93.70,203.60) --
	( 93.86,203.32) --
	( 94.02,205.95) --
	( 94.19,204.75) --
	( 94.35,206.24) --
	( 94.52,204.56) --
	( 94.68,206.60) --
	( 94.84,209.64) --
	( 95.01,228.19) --
	( 95.17,214.28) --
	( 95.33,208.09) --
	( 95.50,207.28) --
	( 95.66,206.93) --
	( 95.82,209.01) --
	( 95.99,207.33) --
	( 96.15,209.17) --
	( 96.31,210.68) --
	( 96.48,209.33) --
	( 96.64,207.70) --
	( 96.81,207.82) --
	( 96.97,209.03) --
	( 97.13,208.81) --
	( 97.30,207.39) --
	( 97.46,209.53) --
	( 97.62,208.83) --
	( 97.79,209.43) --
	( 97.95,206.90) --
	( 98.11,206.64) --
	( 98.28,206.65) --
	( 98.44,205.44) --
	( 98.60,205.70) --
	( 98.77,205.48) --
	( 98.93,205.32) --
	( 99.10,205.53) --
	( 99.26,204.98) --
	( 99.42,203.88) --
	( 99.59,205.50) --
	( 99.75,206.61) --
	( 99.91,206.17) --
	(100.08,207.07) --
	(100.24,203.94) --
	(100.40,206.67) --
	(100.57,206.05) --
	(100.73,208.34) --
	(100.90,205.00) --
	(101.06,205.72) --
	(101.22,207.92) --
	(101.39,206.05) --
	(101.55,206.38) --
	(101.71,205.42) --
	(101.88,206.31) --
	(102.04,205.07) --
	(102.20,206.19) --
	(102.37,204.83) --
	(102.53,208.32) --
	(102.69,207.36) --
	(102.86,208.77) --
	(103.02,207.63) --
	(103.19,208.74) --
	(103.35,211.22) --
	(103.51,209.85) --
	(103.68,210.37) --
	(103.84,208.49) --
	(104.00,211.90) --
	(104.17,210.02) --
	(104.33,212.87) --
	(104.49,211.29) --
	(104.66,212.64) --
	(104.82,213.94) --
	(104.98,212.72) --
	(105.15,212.73) --
	(105.31,213.61) --
	(105.48,213.26) --
	(105.64,213.63) --
	(105.80,215.05) --
	(105.97,213.80) --
	(106.13,212.69) --
	(106.29,208.59) --
	(106.46,211.43) --
	(106.62,209.44) --
	(106.78,208.54) --
	(106.95,210.72) --
	(107.11,207.77) --
	(107.28,210.20) --
	(107.44,210.42) --
	(107.60,213.45) --
	(107.77,213.10) --
	(107.93,212.92) --
	(108.09,211.29) --
	(108.26,213.83) --
	(108.42,210.45) --
	(108.58,212.56) --
	(108.75,209.69) --
	(108.91,211.70) --
	(109.07,211.47) --
	(109.24,211.75) --
	(109.40,209.10) --
	(109.57,209.70) --
	(109.73,212.79) --
	(109.89,212.21) --
	(110.06,212.59) --
	(110.22,211.38) --
	(110.38,212.17) --
	(110.55,210.24) --
	(110.71,211.67) --
	(110.87,209.74) --
	(111.04,212.07) --
	(111.20,213.38) --
	(111.36,213.02) --
	(111.53,211.62) --
	(111.69,209.13) --
	(111.86,209.99) --
	(112.02,208.18) --
	(112.18,207.78) --
	(112.35,206.34) --
	(112.51,209.94) --
	(112.67,211.10) --
	(112.84,213.19) --
	(113.00,209.23) --
	(113.16,210.71) --
	(113.33,210.91) --
	(113.49,210.70) --
	(113.66,208.50) --
	(113.82,207.91) --
	(113.98,207.82) --
	(114.15,208.97) --
	(114.31,208.24) --
	(114.47,208.66) --
	(114.64,206.44) --
	(114.80,206.48) --
	(114.96,208.52) --
	(115.13,205.66) --
	(115.29,214.45) --
	(115.45,216.25) --
	(115.62,217.25) --
	(115.78,216.88) --
	(115.95,206.04) --
	(116.11,207.49) --
	(116.27,206.01) --
	(116.44,206.40) --
	(116.60,207.96) --
	(116.76,209.09) --
	(116.93,211.79) --
	(117.09,213.50) --
	(117.25,211.05) --
	(117.42,209.72) --
	(117.58,210.77) --
	(117.74,209.75) --
	(117.91,208.18) --
	(118.07,208.21) --
	(118.24,208.96) --
	(118.40,208.24) --
	(118.56,209.96) --
	(118.73,211.72) --
	(118.89,211.91) --
	(119.05,218.24) --
	(119.22,217.85) --
	(119.38,216.93) --
	(119.54,218.36) --
	(119.71,218.83) --
	(119.87,219.72) --
	(120.04,217.53) --
	(120.20,216.00) --
	(120.36,216.96) --
	(120.53,216.55) --
	(120.69,219.97) --
	(120.85,217.24) --
	(121.02,216.28) --
	(121.18,216.47) --
	(121.34,214.46) --
	(121.51,216.58) --
	(121.67,216.03) --
	(121.83,220.55) --
	(122.00,221.01) --
	(122.16,212.86) --
	(122.33,213.18) --
	(122.49,212.72) --
	(122.65,210.28) --
	(122.82,213.86) --
	(122.98,211.44) --
	(123.14,210.86) --
	(123.31,206.79) --
	(123.47,204.39) --
	(123.63,206.75) --
	(123.80,205.26) --
	(123.96,205.75) --
	(124.12,205.13) --
	(124.29,205.71) --
	(124.45,207.20) --
	(124.62,208.17) --
	(124.78,205.20) --
	(124.94,205.53) --
	(125.11,204.35) --
	(125.27,204.32) --
	(125.43,207.61) --
	(125.60,208.10) --
	(125.76,207.21) --
	(125.92,206.31) --
	(126.09,207.17) --
	(126.25,205.79) --
	(126.42,206.75) --
	(126.58,205.60) --
	(126.74,205.64) --
	(126.91,205.55) --
	(127.07,205.30) --
	(127.23,201.41) --
	(127.40,201.15) --
	(127.56,200.36) --
	(127.72,200.29) --
	(127.89,203.03) --
	(128.05,201.48) --
	(128.21,204.28) --
	(128.38,201.71) --
	(128.54,203.63) --
	(128.71,205.85) --
	(128.87,205.82) --
	(129.03,204.72) --
	(129.20,205.44) --
	(129.36,204.01) --
	(129.52,205.15) --
	(129.69,203.87) --
	(129.85,206.03) --
	(130.01,203.73) --
	(130.18,205.12) --
	(130.34,207.73) --
	(130.50,207.22) --
	(130.67,207.10) --
	(130.83,208.28) --
	(131.00,207.76) --
	(131.16,207.31) --
	(131.32,207.59) --
	(131.49,208.18) --
	(131.65,206.99) --
	(131.81,205.93) --
	(131.98,206.89) --
	(132.14,208.71) --
	(132.30,208.11) --
	(132.47,207.69) --
	(132.63,206.85) --
	(132.80,207.40) --
	(132.96,206.34) --
	(133.12,208.85) --
	(133.29,209.19) --
	(133.45,211.05) --
	(133.61,209.21) --
	(133.78,208.45) --
	(133.94,210.92) --
	(134.10,212.08) --
	(134.27,208.03) --
	(134.43,209.11) --
	(134.59,209.25) --
	(134.76,206.76) --
	(134.92,204.67) --
	(135.09,205.86) --
	(135.25,207.32) --
	(135.41,208.02) --
	(135.58,208.89) --
	(135.74,207.67) --
	(135.90,204.94) --
	(136.07,205.48) --
	(136.23,204.70) --
	(136.39,207.69) --
	(136.56,204.95) --
	(136.72,205.45) --
	(136.88,204.82) --
	(137.05,205.06) --
	(137.21,206.40) --
	(137.38,205.17) --
	(137.54,207.90) --
	(137.70,209.71) --
	(137.87,208.82) --
	(138.03,209.64) --
	(138.19,212.87) --
	(138.36,212.68) --
	(138.52,210.17) --
	(138.68,210.30) --
	(138.85,212.73) --
	(139.01,212.31) --
	(139.17,216.15) --
	(139.34,215.93) --
	(139.50,214.48) --
	(139.67,217.35) --
	(139.83,216.73) --
	(139.99,214.74) --
	(140.16,218.25) --
	(140.32,219.02) --
	(140.48,216.12) --
	(140.65,216.74) --
	(140.81,219.36) --
	(140.97,217.26) --
	(141.14,215.80) --
	(141.30,216.63) --
	(141.47,214.13) --
	(141.63,219.76) --
	(141.79,218.46) --
	(141.96,218.34) --
	(142.12,215.97) --
	(142.28,218.80) --
	(142.45,219.21) --
	(142.61,218.95) --
	(142.77,217.45) --
	(142.94,216.27) --
	(143.10,216.76) --
	(143.26,215.03) --
	(143.43,215.41) --
	(143.59,213.79) --
	(143.76,214.92) --
	(143.92,215.08) --
	(144.08,214.76) --
	(144.25,216.66) --
	(144.41,216.05) --
	(144.57,216.56) --
	(144.74,215.01) --
	(144.90,216.96) --
	(145.06,219.08) --
	(145.23,218.72) --
	(145.39,217.05) --
	(145.55,224.83) --
	(145.72,221.17) --
	(145.88,221.13) --
	(146.05,221.15) --
	(146.21,221.83) --
	(146.37,218.99) --
	(146.54,222.35) --
	(146.70,223.70) --
	(146.86,223.86) --
	(147.03,220.85) --
	(147.19,224.68) --
	(147.35,224.27) --
	(147.52,224.85) --
	(147.68,225.48) --
	(147.85,228.28) --
	(148.01,228.25) --
	(148.17,230.61) --
	(148.34,227.30) --
	(148.50,231.42) --
	(148.66,231.36) --
	(148.83,226.94) --
	(148.99,227.17) --
	(149.15,228.28) --
	(149.32,227.70) --
	(149.48,232.09) --
	(149.64,231.88) --
	(149.81,230.81) --
	(149.97,230.73) --
	(150.14,228.95) --
	(150.30,228.16) --
	(150.46,229.79) --
	(150.63,229.35) --
	(150.79,228.99) --
	(150.95,228.61) --
	(151.12,228.09) --
	(151.28,228.38) --
	(151.44,227.53) --
	(151.61,229.74) --
	(151.77,227.21) --
	(151.93,225.95) --
	(152.10,226.70) --
	(152.26,224.56) --
	(152.43,226.92) --
	(152.59,224.98) --
	(152.75,228.05) --
	(152.92,227.78) --
	(153.08,223.99) --
	(153.24,223.33) --
	(153.41,224.55) --
	(153.57,223.44) --
	(153.73,225.01) --
	(153.90,223.42) --
	(154.06,222.51) --
	(154.23,224.24) --
	(154.39,225.15) --
	(154.55,227.56) --
	(154.72,227.72) --
	(154.88,233.69) --
	(155.04,230.06) --
	(155.21,228.94) --
	(155.37,229.29) --
	(155.53,230.67) --
	(155.70,229.10) --
	(155.86,222.87) --
	(156.02,218.27) --
	(156.19,213.46) --
	(156.35,212.50) --
	(156.52,210.28) --
	(156.68,210.39) --
	(156.84,208.49) --
	(157.01,208.92) --
	(157.17,208.50) --
	(157.33,215.47) --
	(157.50,220.04) --
	(157.66,218.38) --
	(157.82,223.78) --
	(157.99,223.96) --
	(158.15,220.76) --
	(158.31,220.67) --
	(158.48,221.43) --
	(158.64,221.72) --
	(158.81,223.06) --
	(158.97,220.12) --
	(159.13,221.00) --
	(159.30,220.23) --
	(159.46,218.40) --
	(159.62,218.20) --
	(159.79,221.31) --
	(159.95,222.63) --
	(160.11,222.55) --
	(160.28,221.17) --
	(160.44,219.40) --
	(160.61,220.33) --
	(160.77,220.11) --
	(160.93,218.80) --
	(161.10,224.70) --
	(161.26,220.44) --
	(161.42,219.66) --
	(161.59,208.93) --
	(161.75,210.01) --
	(161.91,210.26) --
	(162.08,210.42) --
	(162.24,212.00) --
	(162.40,207.61) --
	(162.57,207.94) --
	(162.73,209.44) --
	(162.90,207.11) --
	(163.06,207.49) --
	(163.22,207.23) --
	(163.39,209.35) --
	(163.55,208.76) --
	(163.71,204.70) --
	(163.88,206.30) --
	(164.04,205.22) --
	(164.20,204.05) --
	(164.37,204.11) --
	(164.53,198.64) --
	(164.69,196.76) --
	(164.86,195.07) --
	(165.02,196.18) --
	(165.19,195.03) --
	(165.35,195.24) --
	(165.51,196.54) --
	(165.68,195.60) --
	(165.84,193.78) --
	(166.00,194.50) --
	(166.17,194.10) --
	(166.33,193.75) --
	(166.49,193.52) --
	(166.66,194.25) --
	(166.82,193.79) --
	(166.99,195.70) --
	(167.15,196.04) --
	(167.31,196.57) --
	(167.48,195.51) --
	(167.64,195.95) --
	(167.80,186.79) --
	(167.97,185.48) --
	(168.13,187.44) --
	(168.29,185.11) --
	(168.46,184.67) --
	(168.62,184.68) --
	(168.78,184.98) --
	(168.95,185.09) --
	(169.11,184.78) --
	(169.28,186.43) --
	(169.44,185.35) --
	(169.60,185.07) --
	(169.77,185.38) --
	(169.93,184.59) --
	(170.09,182.97) --
	(170.26,186.09) --
	(170.42,186.72) --
	(170.58,185.67) --
	(170.75,186.91) --
	(170.91,187.58) --
	(171.07,186.91) --
	(171.24,187.26) --
	(171.40,187.10) --
	(171.57,188.49) --
	(171.73,189.13) --
	(171.89,189.60) --
	(172.06,187.47) --
	(172.22,188.07) --
	(172.38,189.65) --
	(172.55,190.41) --
	(172.71,190.74) --
	(172.87,190.71) --
	(173.04,191.98) --
	(173.20,192.22) --
	(173.37,191.75) --
	(173.53,190.72) --
	(173.69,191.03) --
	(173.86,190.51) --
	(174.02,191.24) --
	(174.18,190.92) --
	(174.35,189.86) --
	(174.51,189.88) --
	(174.67,189.19) --
	(174.84,187.01) --
	(175.00,188.10) --
	(175.16,187.91) --
	(175.33,188.14) --
	(175.49,187.24) --
	(175.66,187.71) --
	(175.82,187.40) --
	(175.98,187.69) --
	(176.15,185.94) --
	(176.31,186.33) --
	(176.47,183.90) --
	(176.64,184.42) --
	(176.80,183.05) --
	(176.96,183.72) --
	(177.13,182.80) --
	(177.29,182.73) --
	(177.45,182.28) --
	(177.62,183.00) --
	(177.78,182.95) --
	(177.95,183.18) --
	(178.11,182.20) --
	(178.27,182.19) --
	(178.44,187.24) --
	(178.60,186.34) --
	(178.76,180.11) --
	(178.93,180.71) --
	(179.09,180.94) --
	(179.25,181.26) --
	(179.42,182.28) --
	(179.58,182.83) --
	(179.75,182.67) --
	(179.91,181.67) --
	(180.07,181.17) --
	(180.24,181.77) --
	(180.40,182.07) --
	(180.56,181.41) --
	(180.73,180.66) --
	(180.89,181.11) --
	(181.05,181.05) --
	(181.22,181.42) --
	(181.38,180.46) --
	(181.54,181.10) --
	(181.71,180.85) --
	(181.87,182.14) --
	(182.04,180.73) --
	(182.20,180.28) --
	(182.36,180.89) --
	(182.53,181.39) --
	(182.69,180.74) --
	(182.85,180.63) --
	(183.02,179.90) --
	(183.18,180.62) --
	(183.34,180.54) --
	(183.51,180.91) --
	(183.67,180.99) --
	(183.83,181.46) --
	(184.00,182.52) --
	(184.16,180.96) --
	(184.33,181.00) --
	(184.49,181.32) --
	(184.65,181.60) --
	(184.82,180.39) --
	(184.98,181.18) --
	(185.14,181.38) --
	(185.31,181.96) --
	(185.47,179.52) --
	(185.63,179.49) --
	(185.80,179.74) --
	(185.96,179.97) --
	(186.12,180.56) --
	(186.29,179.63) --
	(186.45,179.06) --
	(186.62,180.22) --
	(186.78,180.95) --
	(186.94,179.39) --
	(187.11,179.24) --
	(187.27,180.17) --
	(187.43,180.28) --
	(187.60,180.95) --
	(187.76,180.32) --
	(187.92,180.52) --
	(188.09,181.11) --
	(188.25,180.78) --
	(188.42,179.87) --
	(188.58,180.13) --
	(188.74,181.11) --
	(188.91,181.32) --
	(189.07,180.72) --
	(189.23,180.05) --
	(189.40,181.38) --
	(189.56,182.32) --
	(189.72,182.30) --
	(189.89,179.85) --
	(190.05,182.16) --
	(190.21,181.65) --
	(190.38,182.59) --
	(190.54,180.64) --
	(190.71,181.08) --
	(190.87,182.95) --
	(191.03,184.07) --
	(191.20,181.66) --
	(191.36,181.05) --
	(191.52,182.93) --
	(191.69,183.79) --
	(191.85,184.19) --
	(192.01,181.82) --
	(192.18,182.89) --
	(192.34,183.60) --
	(192.50,183.36) --
	(192.67,181.27) --
	(192.83,181.84) --
	(193.00,182.64) --
	(193.16,183.35) --
	(193.32,181.76) --
	(193.49,181.26) --
	(193.65,182.29) --
	(193.81,182.38) --
	(193.98,183.65) --
	(194.14,180.62) --
	(194.30,180.98) --
	(194.47,181.66) --
	(194.63,182.02) --
	(194.80,180.22) --
	(194.96,180.78) --
	(195.12,182.16) --
	(195.29,182.01) --
	(195.45,180.87) --
	(195.61,180.07) --
	(195.78,181.02) --
	(195.94,181.13) --
	(196.10,182.12) --
	(196.27,179.70) --
	(196.43,179.89) --
	(196.59,180.39) --
	(196.76,181.65) --
	(196.92,179.46) --
	(197.09,179.74) --
	(197.25,180.40) --
	(197.41,181.73) --
	(197.58,180.81) --
	(197.74,180.21) --
	(197.90,180.75) --
	(198.07,180.76) --
	(198.23,181.23) --
	(198.39,179.75) --
	(198.56,179.71) --
	(198.72,180.22) --
	(198.88,180.51) --
	(199.05,178.87) --
	(199.21,179.26) --
	(199.38,180.30) --
	(199.54,180.67) --
	(199.70,179.80) --
	(199.87,179.17) --
	(200.03,178.97) --
	(200.19,180.85) --
	(200.36,181.17) --
	(200.52,179.66) --
	(200.68,180.12) --
	(200.85,181.32) --
	(201.01,181.24) --
	(201.18,180.68) --
	(201.34,179.93) --
	(201.50,180.90) --
	(201.67,181.08) --
	(201.83,180.13) --
	(201.99,179.38) --
	(202.16,180.20) --
	(202.32,180.68) --
	(202.48,181.14) --
	(202.65,179.19) --
	(202.81,179.71) --
	(202.97,180.39) --
	(203.14,181.28) --
	(203.30,179.22) --
	(203.47,179.98) --
	(203.63,181.15) --
	(203.79,181.19) --
	(203.96,180.18) --
	(204.12,179.88) --
	(204.28,181.62) --
	(204.45,182.15) --
	(204.61,182.89) --
	(204.77,181.39) --
	(204.94,181.75) --
	(205.10,179.67) --
	(205.26,179.74) --
	(205.43,179.59) --
	(205.59,179.53) --
	(205.76,180.57) --
	(205.92,180.28) --
	(206.08,179.02) --
	(206.25,178.05) --
	(206.41,178.31) --
	(206.57,178.79) --
	(206.74,178.40) --
	(206.90,178.16) --
	(207.06,178.40) --
	(207.23,178.59) --
	(207.39,178.62) --
	(207.56,176.38) --
	(207.72,176.55) --
	(207.88,176.45) --
	(208.05,176.45) --
	(208.21,176.25) --
	(208.37,175.72) --
	(208.54,175.35) --
	(208.70,176.47) --
	(208.86,176.15) --
	(209.03,176.20) --
	(209.19,176.12) --
	(209.35,176.81) --
	(209.52,176.68) --
	(209.68,176.59) --
	(209.85,176.50) --
	(210.01,176.55) --
	(210.17,176.19) --
	(210.34,175.55) --
	(210.50,174.62) --
	(210.66,174.61) --
	(210.83,175.16) --
	(210.99,174.73) --
	(211.15,175.14) --
	(211.32,175.30) --
	(211.48,175.31) --
	(211.64,175.66) --
	(211.81,175.14);
\end{scope}
\begin{scope}
\path[clip] ( 56.19, 97.48) rectangle (219.22,156.56);
\definecolor{fillColor}{gray}{0.90}

\path[fill=fillColor] ( 56.19, 97.48) rectangle (219.22,156.56);
\definecolor{drawColor}{gray}{0.95}

\path[draw=drawColor,line width= 0.3pt,line join=round] ( 56.19,105.63) --
	(219.22,105.63);

\path[draw=drawColor,line width= 0.3pt,line join=round] ( 56.19,121.93) --
	(219.22,121.93);

\path[draw=drawColor,line width= 0.3pt,line join=round] ( 56.19,138.23) --
	(219.22,138.23);

\path[draw=drawColor,line width= 0.3pt,line join=round] ( 56.19,154.53) --
	(219.22,154.53);

\path[draw=drawColor,line width= 0.3pt,line join=round] ( 59.17, 97.48) --
	( 59.17,156.56);

\path[draw=drawColor,line width= 0.3pt,line join=round] (101.87, 97.48) --
	(101.87,156.56);

\path[draw=drawColor,line width= 0.3pt,line join=round] (144.55, 97.48) --
	(144.55,156.56);

\path[draw=drawColor,line width= 0.3pt,line join=round] (187.22, 97.48) --
	(187.22,156.56);
\definecolor{drawColor}{RGB}{255,255,255}

\path[draw=drawColor,line width= 0.6pt,line join=round] ( 56.19, 97.48) --
	(219.22, 97.48);

\path[draw=drawColor,line width= 0.6pt,line join=round] ( 56.19,113.78) --
	(219.22,113.78);

\path[draw=drawColor,line width= 0.6pt,line join=round] ( 56.19,130.08) --
	(219.22,130.08);

\path[draw=drawColor,line width= 0.6pt,line join=round] ( 56.19,146.38) --
	(219.22,146.38);

\path[draw=drawColor,line width= 0.6pt,line join=round] ( 80.52, 97.48) --
	( 80.52,156.56);

\path[draw=drawColor,line width= 0.6pt,line join=round] (123.21, 97.48) --
	(123.21,156.56);

\path[draw=drawColor,line width= 0.6pt,line join=round] (165.89, 97.48) --
	(165.89,156.56);

\path[draw=drawColor,line width= 0.6pt,line join=round] (208.56, 97.48) --
	(208.56,156.56);
\definecolor{fillColor}{RGB}{204,204,204}

\path[fill=fillColor,fill opacity=0.50] ( 91.17,156.56) rectangle ( 96.85, 97.48);

\path[fill=fillColor,fill opacity=0.50] (148.80,156.56) rectangle (165.89, 97.48);
\definecolor{drawColor}{RGB}{0,0,0}

\path[draw=drawColor,line width= 0.6pt,line join=round] ( 63.60, 97.48) --
	( 63.76, 97.48) --
	( 63.92, 97.68) --
	( 64.09, 97.69) --
	( 64.25, 97.71) --
	( 64.41, 97.77) --
	( 64.58, 97.86) --
	( 64.74, 97.91) --
	( 64.91, 98.08) --
	( 65.07, 98.11) --
	( 65.23, 98.11) --
	( 65.40, 98.17) --
	( 65.56, 98.45) --
	( 65.72, 98.31) --
	( 65.89, 98.27) --
	( 66.05, 98.20) --
	( 66.21, 98.32) --
	( 66.38, 98.50) --
	( 66.54, 98.42) --
	( 66.71, 98.44) --
	( 66.87, 98.51) --
	( 67.03, 98.55) --
	( 67.20, 98.53) --
	( 67.36, 98.56) --
	( 67.52, 98.65) --
	( 67.69, 98.78) --
	( 67.85, 98.68) --
	( 68.01, 98.72) --
	( 68.18, 98.81) --
	( 68.34, 98.93) --
	( 68.50, 99.00) --
	( 68.67, 99.08) --
	( 68.83, 99.20) --
	( 69.00, 99.36) --
	( 69.16, 99.50) --
	( 69.32, 99.32) --
	( 69.49, 99.37) --
	( 69.65, 99.51) --
	( 69.81, 99.65) --
	( 69.98, 99.70) --
	( 70.14, 99.85) --
	( 70.30,100.07) --
	( 70.47,100.25) --
	( 70.63,100.33) --
	( 70.79,100.35) --
	( 70.96,100.43) --
	( 71.12,100.44) --
	( 71.29,100.40) --
	( 71.45,100.51) --
	( 71.61,100.45) --
	( 71.78,100.44) --
	( 71.94,100.52) --
	( 72.10,100.50) --
	( 72.27,100.53) --
	( 72.43,100.54) --
	( 72.59,100.41) --
	( 72.76,100.45) --
	( 72.92,100.42) --
	( 73.09,100.36) --
	( 73.25,100.34) --
	( 73.41,100.37) --
	( 73.58,100.40) --
	( 73.74,100.42) --
	( 73.90,100.52) --
	( 74.07,100.60) --
	( 74.23,100.55) --
	( 74.39,100.66) --
	( 74.56,100.60) --
	( 74.72,100.57) --
	( 74.88,100.61) --
	( 75.05,100.70) --
	( 75.21,100.67) --
	( 75.38,100.76) --
	( 75.54,100.83) --
	( 75.70,100.84) --
	( 75.87,100.98) --
	( 76.03,101.11) --
	( 76.19,101.05) --
	( 76.36,100.96) --
	( 76.52,101.05) --
	( 76.68,101.04) --
	( 76.85,100.95) --
	( 77.01,101.01) --
	( 77.17,101.12) --
	( 77.34,101.18) --
	( 77.50,101.26) --
	( 77.67,101.36) --
	( 77.83,101.21) --
	( 77.99,101.30) --
	( 78.16,101.50) --
	( 78.32,101.52) --
	( 78.48,101.48) --
	( 78.65,101.48) --
	( 78.81,101.58) --
	( 78.97,101.70) --
	( 79.14,101.72) --
	( 79.30,101.88) --
	( 79.47,102.06) --
	( 79.63,102.16) --
	( 79.79,102.32) --
	( 79.96,102.32) --
	( 80.12,102.57) --
	( 80.28,102.76) --
	( 80.45,102.74) --
	( 80.61,102.65) --
	( 80.77,102.77) --
	( 80.94,102.83) --
	( 81.10,102.92) --
	( 81.26,102.91) --
	( 81.43,102.84) --
	( 81.59,102.90) --
	( 81.76,103.06) --
	( 81.92,103.27) --
	( 82.08,103.36) --
	( 82.25,103.42) --
	( 82.41,103.55) --
	( 82.57,103.47) --
	( 82.74,103.63) --
	( 82.90,103.73) --
	( 83.06,103.83) --
	( 83.23,104.01) --
	( 83.39,104.05) --
	( 83.55,104.19) --
	( 83.72,104.20) --
	( 83.88,104.43) --
	( 84.05,104.44) --
	( 84.21,104.44) --
	( 84.37,104.50) --
	( 84.54,104.75) --
	( 84.70,104.71) --
	( 84.86,104.81) --
	( 85.03,104.80) --
	( 85.19,104.94) --
	( 85.35,104.95) --
	( 85.52,104.94) --
	( 85.68,105.00) --
	( 85.84,105.11) --
	( 86.01,105.17) --
	( 86.17,105.15) --
	( 86.34,105.26) --
	( 86.50,105.20) --
	( 86.66,105.58) --
	( 86.83,105.51) --
	( 86.99,105.37) --
	( 87.15,105.35) --
	( 87.32,105.30) --
	( 87.48,105.40) --
	( 87.64,105.47) --
	( 87.81,105.35) --
	( 87.97,105.41) --
	( 88.14,105.58) --
	( 88.30,105.59) --
	( 88.46,105.67) --
	( 88.63,105.65) --
	( 88.79,105.80) --
	( 88.95,106.01) --
	( 89.12,106.14) --
	( 89.28,106.06) --
	( 89.44,106.07) --
	( 89.61,106.11) --
	( 89.77,106.29) --
	( 89.93,106.03) --
	( 90.10,106.08) --
	( 90.26,106.13) --
	( 90.43,106.32) --
	( 90.59,106.28) --
	( 90.75,106.20) --
	( 90.92,106.25) --
	( 91.08,106.35) --
	( 91.24,106.30) --
	( 91.41,106.48) --
	( 91.57,106.43) --
	( 91.73,106.47) --
	( 91.90,106.51) --
	( 92.06,106.47) --
	( 92.22,106.52) --
	( 92.39,106.53) --
	( 92.55,106.63) --
	( 92.72,106.60) --
	( 92.88,106.50) --
	( 93.04,106.48) --
	( 93.21,106.59) --
	( 93.37,106.44) --
	( 93.53,106.55) --
	( 93.70,106.53) --
	( 93.86,106.62) --
	( 94.02,106.81) --
	( 94.19,106.57) --
	( 94.35,106.53) --
	( 94.52,106.66) --
	( 94.68,106.70) --
	( 94.84,106.73) --
	( 95.01,107.86) --
	( 95.17,107.27) --
	( 95.33,106.95) --
	( 95.50,106.86) --
	( 95.66,106.86) --
	( 95.82,106.89) --
	( 95.99,106.79) --
	( 96.15,107.07) --
	( 96.31,107.04) --
	( 96.48,107.14) --
	( 96.64,107.14) --
	( 96.81,107.11) --
	( 96.97,107.37) --
	( 97.13,107.32) --
	( 97.30,107.22) --
	( 97.46,107.32) --
	( 97.62,107.28) --
	( 97.79,107.26) --
	( 97.95,107.20) --
	( 98.11,107.21) --
	( 98.28,107.16) --
	( 98.44,107.27) --
	( 98.60,107.26) --
	( 98.77,107.32) --
	( 98.93,107.31) --
	( 99.10,107.25) --
	( 99.26,107.27) --
	( 99.42,107.51) --
	( 99.59,107.58) --
	( 99.75,107.55) --
	( 99.91,107.61) --
	(100.08,107.59) --
	(100.24,107.62) --
	(100.40,107.49) --
	(100.57,107.49) --
	(100.73,107.63) --
	(100.90,107.67) --
	(101.06,107.58) --
	(101.22,107.74) --
	(101.39,107.79) --
	(101.55,107.91) --
	(101.71,107.91) --
	(101.88,107.79) --
	(102.04,107.89) --
	(102.20,107.98) --
	(102.37,108.16) --
	(102.53,108.24) --
	(102.69,108.26) --
	(102.86,108.51) --
	(103.02,108.63) --
	(103.19,108.78) --
	(103.35,108.97) --
	(103.51,108.83) --
	(103.68,109.08) --
	(103.84,109.19) --
	(104.00,109.43) --
	(104.17,109.67) --
	(104.33,109.73) --
	(104.49,109.93) --
	(104.66,109.89) --
	(104.82,110.15) --
	(104.98,110.29) --
	(105.15,110.26) --
	(105.31,110.49) --
	(105.48,110.52) --
	(105.64,110.91) --
	(105.80,110.96) --
	(105.97,111.02) --
	(106.13,110.76) --
	(106.29,110.95) --
	(106.46,110.97) --
	(106.62,110.91) --
	(106.78,110.81) --
	(106.95,111.11) --
	(107.11,111.21) --
	(107.28,111.25) --
	(107.44,111.38) --
	(107.60,111.52) --
	(107.77,111.65) --
	(107.93,111.56) --
	(108.09,111.48) --
	(108.26,111.71) --
	(108.42,111.80) --
	(108.58,111.86) --
	(108.75,112.10) --
	(108.91,112.31) --
	(109.07,112.42) --
	(109.24,112.59) --
	(109.40,112.63) --
	(109.57,112.72) --
	(109.73,112.91) --
	(109.89,112.95) --
	(110.06,112.98) --
	(110.22,112.94) --
	(110.38,113.52) --
	(110.55,113.38) --
	(110.71,113.22) --
	(110.87,113.40) --
	(111.04,113.34) --
	(111.20,113.51) --
	(111.36,113.39) --
	(111.53,113.23) --
	(111.69,113.18) --
	(111.86,113.36) --
	(112.02,113.38) --
	(112.18,113.24) --
	(112.35,113.04) --
	(112.51,113.27) --
	(112.67,112.99) --
	(112.84,113.13) --
	(113.00,113.12) --
	(113.16,113.13) --
	(113.33,113.35) --
	(113.49,113.48) --
	(113.66,113.48) --
	(113.82,113.47) --
	(113.98,113.32) --
	(114.15,113.38) --
	(114.31,114.09) --
	(114.47,114.01) --
	(114.64,113.98) --
	(114.80,114.04) --
	(114.96,114.07) --
	(115.13,114.31) --
	(115.29,114.39) --
	(115.45,114.38) --
	(115.62,114.71) --
	(115.78,115.25) --
	(115.95,115.15) --
	(116.11,115.14) --
	(116.27,115.41) --
	(116.44,115.53) --
	(116.60,115.71) --
	(116.76,115.88) --
	(116.93,115.71) --
	(117.09,115.88) --
	(117.25,116.09) --
	(117.42,116.00) --
	(117.58,116.07) --
	(117.74,116.09) --
	(117.91,115.93) --
	(118.07,116.06) --
	(118.24,116.12) --
	(118.40,116.37) --
	(118.56,116.63) --
	(118.73,116.62) --
	(118.89,116.77) --
	(119.05,116.73) --
	(119.22,116.83) --
	(119.38,116.72) --
	(119.54,116.66) --
	(119.71,116.59) --
	(119.87,116.79) --
	(120.04,116.89) --
	(120.20,117.00) --
	(120.36,117.18) --
	(120.53,117.29) --
	(120.69,117.54) --
	(120.85,117.75) --
	(121.02,117.64) --
	(121.18,117.61) --
	(121.34,117.79) --
	(121.51,117.81) --
	(121.67,117.89) --
	(121.83,117.90) --
	(122.00,117.96) --
	(122.16,118.04) --
	(122.33,118.31) --
	(122.49,118.49) --
	(122.65,118.59) --
	(122.82,118.62) --
	(122.98,118.44) --
	(123.14,118.55) --
	(123.31,119.03) --
	(123.47,119.19) --
	(123.63,119.49) --
	(123.80,119.46) --
	(123.96,119.81) --
	(124.12,119.71) --
	(124.29,119.89) --
	(124.45,120.24) --
	(124.62,120.30) --
	(124.78,120.41) --
	(124.94,120.82) --
	(125.11,120.87) --
	(125.27,120.61) --
	(125.43,120.71) --
	(125.60,120.79) --
	(125.76,121.00) --
	(125.92,121.02) --
	(126.09,121.01) --
	(126.25,121.16) --
	(126.42,121.33) --
	(126.58,121.66) --
	(126.74,121.67) --
	(126.91,121.81) --
	(127.07,121.54) --
	(127.23,122.02) --
	(127.40,121.98) --
	(127.56,122.11) --
	(127.72,122.32) --
	(127.89,122.47) --
	(128.05,122.54) --
	(128.21,122.80) --
	(128.38,122.84) --
	(128.54,122.93) --
	(128.71,123.14) --
	(128.87,123.11) --
	(129.03,123.16) --
	(129.20,123.11) --
	(129.36,123.36) --
	(129.52,123.44) --
	(129.69,123.40) --
	(129.85,123.49) --
	(130.01,123.75) --
	(130.18,123.71) --
	(130.34,123.49) --
	(130.50,123.46) --
	(130.67,123.71) --
	(130.83,123.94) --
	(131.00,123.76) --
	(131.16,124.11) --
	(131.32,124.31) --
	(131.49,124.55) --
	(131.65,124.81) --
	(131.81,124.59) --
	(131.98,124.55) --
	(132.14,124.82) --
	(132.30,125.02) --
	(132.47,125.03) --
	(132.63,124.94) --
	(132.80,125.23) --
	(132.96,125.21) --
	(133.12,125.43) --
	(133.29,125.30) --
	(133.45,125.64) --
	(133.61,125.79) --
	(133.78,125.97) --
	(133.94,125.97) --
	(134.10,126.21) --
	(134.27,126.45) --
	(134.43,126.58) --
	(134.59,126.68) --
	(134.76,126.82) --
	(134.92,127.15) --
	(135.09,127.33) --
	(135.25,127.31) --
	(135.41,127.21) --
	(135.58,127.42) --
	(135.74,127.43) --
	(135.90,127.40) --
	(136.07,127.41) --
	(136.23,127.50) --
	(136.39,127.75) --
	(136.56,127.93) --
	(136.72,127.96) --
	(136.88,127.89) --
	(137.05,128.10) --
	(137.21,128.33) --
	(137.38,128.27) --
	(137.54,128.31) --
	(137.70,128.07) --
	(137.87,128.31) --
	(138.03,128.25) --
	(138.19,129.53) --
	(138.36,129.72) --
	(138.52,129.72) --
	(138.68,129.78) --
	(138.85,130.04) --
	(139.01,129.98) --
	(139.17,130.01) --
	(139.34,130.29) --
	(139.50,130.52) --
	(139.67,130.63) --
	(139.83,130.55) --
	(139.99,131.11) --
	(140.16,131.20) --
	(140.32,131.17) --
	(140.48,131.26) --
	(140.65,131.38) --
	(140.81,131.53) --
	(140.97,131.61) --
	(141.14,131.58) --
	(141.30,131.78) --
	(141.47,131.89) --
	(141.63,132.13) --
	(141.79,131.98) --
	(141.96,131.26) --
	(142.12,131.36) --
	(142.28,131.65) --
	(142.45,131.99) --
	(142.61,132.06) --
	(142.77,132.12) --
	(142.94,132.24) --
	(143.10,132.25) --
	(143.26,132.36) --
	(143.43,132.38) --
	(143.59,132.57) --
	(143.76,132.68) --
	(143.92,132.55) --
	(144.08,132.74) --
	(144.25,133.02) --
	(144.41,133.15) --
	(144.57,133.43) --
	(144.74,133.42) --
	(144.90,133.54) --
	(145.06,133.73) --
	(145.23,133.75) --
	(145.39,133.96) --
	(145.55,134.23) --
	(145.72,134.69) --
	(145.88,134.89) --
	(146.05,135.20) --
	(146.21,135.42) --
	(146.37,135.36) --
	(146.54,135.61) --
	(146.70,135.64) --
	(146.86,135.91) --
	(147.03,136.23) --
	(147.19,136.41) --
	(147.35,136.48) --
	(147.52,136.70) --
	(147.68,136.72) --
	(147.85,136.96) --
	(148.01,136.97) --
	(148.17,137.04) --
	(148.34,137.20) --
	(148.50,137.46) --
	(148.66,137.68) --
	(148.83,137.59) --
	(148.99,137.80) --
	(149.15,137.62) --
	(149.32,137.98) --
	(149.48,137.83) --
	(149.64,137.83) --
	(149.81,137.77) --
	(149.97,138.13) --
	(150.14,138.12) --
	(150.30,138.20) --
	(150.46,138.21) --
	(150.63,138.57) --
	(150.79,138.41) --
	(150.95,138.07) --
	(151.12,137.97) --
	(151.28,137.96) --
	(151.44,138.20) --
	(151.61,138.35) --
	(151.77,138.24) --
	(151.93,138.18) --
	(152.10,138.23) --
	(152.26,138.28) --
	(152.43,138.23) --
	(152.59,138.30) --
	(152.75,138.20) --
	(152.92,138.04) --
	(153.08,138.06) --
	(153.24,138.13) --
	(153.41,138.23) --
	(153.57,138.26) --
	(153.73,138.19) --
	(153.90,138.05) --
	(154.06,138.18) --
	(154.23,138.30) --
	(154.39,138.17) --
	(154.55,138.01) --
	(154.72,138.03) --
	(154.88,138.88) --
	(155.04,139.46) --
	(155.21,141.91) --
	(155.37,141.69) --
	(155.53,142.01) --
	(155.70,142.82) --
	(155.86,142.47) --
	(156.02,141.77) --
	(156.19,141.66) --
	(156.35,140.86) --
	(156.52,141.04) --
	(156.68,141.25) --
	(156.84,141.31) --
	(157.01,141.07) --
	(157.17,141.15) --
	(157.33,140.66) --
	(157.50,140.67) --
	(157.66,140.82) --
	(157.82,140.86) --
	(157.99,140.71) --
	(158.15,141.11) --
	(158.31,141.06) --
	(158.48,140.87) --
	(158.64,140.64) --
	(158.81,140.91) --
	(158.97,140.95) --
	(159.13,140.45) --
	(159.30,140.24) --
	(159.46,140.29) --
	(159.62,140.05) --
	(159.79,140.03) --
	(159.95,139.84) --
	(160.11,140.60) --
	(160.28,140.82) --
	(160.44,140.44) --
	(160.61,140.61) --
	(160.77,140.65) --
	(160.93,140.86) --
	(161.10,140.61) --
	(161.26,140.76) --
	(161.42,140.33) --
	(161.59,140.15) --
	(161.75,140.03) --
	(161.91,139.76) --
	(162.08,139.53) --
	(162.24,139.46) --
	(162.40,139.50) --
	(162.57,139.45) --
	(162.73,139.16) --
	(162.90,139.06) --
	(163.06,139.01) --
	(163.22,138.86) --
	(163.39,138.67) --
	(163.55,138.54) --
	(163.71,137.92) --
	(163.88,137.83) --
	(164.04,137.83) --
	(164.20,137.86) --
	(164.37,137.72) --
	(164.53,138.47) --
	(164.69,138.57) --
	(164.86,138.45) --
	(165.02,138.26) --
	(165.19,138.33) --
	(165.35,138.36) --
	(165.51,138.26) --
	(165.68,137.95) --
	(165.84,138.05) --
	(166.00,137.77) --
	(166.17,137.58) --
	(166.33,137.66) --
	(166.49,137.48) --
	(166.66,137.25) --
	(166.82,137.24) --
	(166.99,137.06) --
	(167.15,136.94) --
	(167.31,136.78) --
	(167.48,136.81) --
	(167.64,136.81) --
	(167.80,136.79) --
	(167.97,140.12) --
	(168.13,140.09) --
	(168.29,140.25) --
	(168.46,140.11) --
	(168.62,140.06) --
	(168.78,139.81) --
	(168.95,139.94) --
	(169.11,139.83) --
	(169.28,139.55) --
	(169.44,139.38) --
	(169.60,139.47) --
	(169.77,139.40) --
	(169.93,139.44) --
	(170.09,139.55) --
	(170.26,139.37) --
	(170.42,139.73) --
	(170.58,139.89) --
	(170.75,139.70) --
	(170.91,139.92) --
	(171.07,139.98) --
	(171.24,139.83) --
	(171.40,139.89) --
	(171.57,139.98) --
	(171.73,139.98) --
	(171.89,140.09) --
	(172.06,139.83) --
	(172.22,139.69) --
	(172.38,140.05) --
	(172.55,140.05) --
	(172.71,140.11) --
	(172.87,140.08) --
	(173.04,140.14) --
	(173.20,140.08) --
	(173.37,140.16) --
	(173.53,139.97) --
	(173.69,139.96) --
	(173.86,140.03) --
	(174.02,139.78) --
	(174.18,139.66) --
	(174.35,139.57) --
	(174.51,139.48) --
	(174.67,139.73) --
	(174.84,139.65) --
	(175.00,139.50) --
	(175.16,139.34) --
	(175.33,139.36) --
	(175.49,139.21) --
	(175.66,139.23) --
	(175.82,139.05) --
	(175.98,139.16) --
	(176.15,139.20) --
	(176.31,139.18) --
	(176.47,139.22) --
	(176.64,139.35) --
	(176.80,139.45) --
	(176.96,139.50) --
	(177.13,139.40) --
	(177.29,139.44) --
	(177.45,139.54) --
	(177.62,139.27) --
	(177.78,139.43) --
	(177.95,139.54) --
	(178.11,139.47) --
	(178.27,139.46) --
	(178.44,139.49) --
	(178.60,139.42) --
	(178.76,139.62) --
	(178.93,139.83) --
	(179.09,139.76) --
	(179.25,139.91) --
	(179.42,139.88) --
	(179.58,140.25) --
	(179.75,140.30) --
	(179.91,140.28) --
	(180.07,140.25) --
	(180.24,140.40) --
	(180.40,140.27) --
	(180.56,140.33) --
	(180.73,140.47) --
	(180.89,140.60) --
	(181.05,140.70) --
	(181.22,140.69) --
	(181.38,140.89) --
	(181.54,141.22) --
	(181.71,141.24) --
	(181.87,141.38) --
	(182.04,141.45) --
	(182.20,141.52) --
	(182.36,141.44) --
	(182.53,141.45) --
	(182.69,141.34) --
	(182.85,141.45) --
	(183.02,141.82) --
	(183.18,141.95) --
	(183.34,141.78) --
	(183.51,141.86) --
	(183.67,142.59) --
	(183.83,142.63) --
	(184.00,142.70) --
	(184.16,142.76) --
	(184.33,143.04) --
	(184.49,142.89) --
	(184.65,142.89) --
	(184.82,142.89) --
	(184.98,143.03) --
	(185.14,143.20) --
	(185.31,143.25) --
	(185.47,143.27) --
	(185.63,143.22) --
	(185.80,143.39) --
	(185.96,143.55) --
	(186.12,143.61) --
	(186.29,143.64) --
	(186.45,143.68) --
	(186.62,143.86) --
	(186.78,143.76) --
	(186.94,143.72) --
	(187.11,143.94) --
	(187.27,144.08) --
	(187.43,144.28) --
	(187.60,144.12) --
	(187.76,144.27) --
	(187.92,144.40) --
	(188.09,144.52) --
	(188.25,144.45) --
	(188.42,144.51) --
	(188.58,144.63) --
	(188.74,144.87) --
	(188.91,144.85) --
	(189.07,144.80) --
	(189.23,144.92) --
	(189.40,144.96) --
	(189.56,144.97) --
	(189.72,144.95) --
	(189.89,144.81) --
	(190.05,145.46) --
	(190.21,145.42) --
	(190.38,145.49) --
	(190.54,145.52) --
	(190.71,145.49) --
	(190.87,145.73) --
	(191.03,145.69) --
	(191.20,146.05) --
	(191.36,146.16) --
	(191.52,146.36) --
	(191.69,146.22) --
	(191.85,146.13) --
	(192.01,146.10) --
	(192.18,146.34) --
	(192.34,146.34) --
	(192.50,146.32) --
	(192.67,146.20) --
	(192.83,146.19) --
	(193.00,146.20) --
	(193.16,146.21) --
	(193.32,146.14) --
	(193.49,146.26) --
	(193.65,146.71) --
	(193.81,146.71) --
	(193.98,146.69) --
	(194.14,146.74) --
	(194.30,146.88) --
	(194.47,146.65) --
	(194.63,146.74) --
	(194.80,146.74) --
	(194.96,146.57) --
	(195.12,146.73) --
	(195.29,146.74) --
	(195.45,146.68) --
	(195.61,146.63) --
	(195.78,146.50) --
	(195.94,146.43) --
	(196.10,146.60) --
	(196.27,146.61) --
	(196.43,146.58) --
	(196.59,146.43) --
	(196.76,146.39) --
	(196.92,146.39) --
	(197.09,146.38) --
	(197.25,146.36) --
	(197.41,146.43) --
	(197.58,146.52) --
	(197.74,146.36) --
	(197.90,146.56) --
	(198.07,146.59) --
	(198.23,146.75) --
	(198.39,146.73) --
	(198.56,146.66) --
	(198.72,146.79) --
	(198.88,146.93) --
	(199.05,146.87) --
	(199.21,147.01) --
	(199.38,146.84) --
	(199.54,147.02) --
	(199.70,147.06) --
	(199.87,147.17) --
	(200.03,147.33) --
	(200.19,147.26) --
	(200.36,147.25) --
	(200.52,147.38) --
	(200.68,147.48) --
	(200.85,147.62) --
	(201.01,147.83) --
	(201.18,148.08) --
	(201.34,148.08) --
	(201.50,148.36) --
	(201.67,148.51) --
	(201.83,148.75) --
	(201.99,148.86) --
	(202.16,148.89) --
	(202.32,148.98) --
	(202.48,149.13) --
	(202.65,149.28) --
	(202.81,149.37) --
	(202.97,149.41) --
	(203.14,149.65) --
	(203.30,149.83) --
	(203.47,150.02) --
	(203.63,149.94) --
	(203.79,150.14) --
	(203.96,150.24) --
	(204.12,150.53) --
	(204.28,150.86) --
	(204.45,150.86) --
	(204.61,150.91) --
	(204.77,151.05) --
	(204.94,151.14) --
	(205.10,151.18) --
	(205.26,151.22) --
	(205.43,151.46) --
	(205.59,151.49) --
	(205.76,151.50) --
	(205.92,151.51) --
	(206.08,151.65) --
	(206.25,151.88) --
	(206.41,152.01) --
	(206.57,151.94) --
	(206.74,152.00) --
	(206.90,152.15) --
	(207.06,151.98) --
	(207.23,152.14) --
	(207.39,152.42) --
	(207.56,152.49) --
	(207.72,152.94) --
	(207.88,152.88) --
	(208.05,153.02) --
	(208.21,153.10) --
	(208.37,153.48) --
	(208.54,153.56) --
	(208.70,153.78) --
	(208.86,154.01) --
	(209.03,154.19) --
	(209.19,154.23) --
	(209.35,154.32) --
	(209.52,154.28) --
	(209.68,154.47) --
	(209.85,154.90) --
	(210.01,154.90) --
	(210.17,154.94) --
	(210.34,155.30) --
	(210.50,155.53) --
	(210.66,155.86) --
	(210.83,155.73) --
	(210.99,155.94) --
	(211.15,156.18) --
	(211.32,156.20) --
	(211.48,156.28) --
	(211.64,156.20) --
	(211.81,156.56);
\end{scope}
\begin{scope}
\path[clip] ( 56.19, 20.34) rectangle (219.22, 79.43);
\definecolor{fillColor}{gray}{0.90}

\path[fill=fillColor] ( 56.19, 20.34) rectangle (219.22, 79.43);
\definecolor{drawColor}{gray}{0.95}

\path[draw=drawColor,line width= 0.3pt,line join=round] ( 56.19, 22.89) --
	(219.22, 22.89);

\path[draw=drawColor,line width= 0.3pt,line join=round] ( 56.19, 37.80) --
	(219.22, 37.80);

\path[draw=drawColor,line width= 0.3pt,line join=round] ( 56.19, 52.71) --
	(219.22, 52.71);

\path[draw=drawColor,line width= 0.3pt,line join=round] ( 56.19, 67.61) --
	(219.22, 67.61);

\path[draw=drawColor,line width= 0.3pt,line join=round] ( 59.17, 20.34) --
	( 59.17, 79.43);

\path[draw=drawColor,line width= 0.3pt,line join=round] (101.87, 20.34) --
	(101.87, 79.43);

\path[draw=drawColor,line width= 0.3pt,line join=round] (144.55, 20.34) --
	(144.55, 79.43);

\path[draw=drawColor,line width= 0.3pt,line join=round] (187.22, 20.34) --
	(187.22, 79.43);
\definecolor{drawColor}{RGB}{255,255,255}

\path[draw=drawColor,line width= 0.6pt,line join=round] ( 56.19, 30.35) --
	(219.22, 30.35);

\path[draw=drawColor,line width= 0.6pt,line join=round] ( 56.19, 45.25) --
	(219.22, 45.25);

\path[draw=drawColor,line width= 0.6pt,line join=round] ( 56.19, 60.16) --
	(219.22, 60.16);

\path[draw=drawColor,line width= 0.6pt,line join=round] ( 56.19, 75.07) --
	(219.22, 75.07);

\path[draw=drawColor,line width= 0.6pt,line join=round] ( 80.52, 20.34) --
	( 80.52, 79.43);

\path[draw=drawColor,line width= 0.6pt,line join=round] (123.21, 20.34) --
	(123.21, 79.43);

\path[draw=drawColor,line width= 0.6pt,line join=round] (165.89, 20.34) --
	(165.89, 79.43);

\path[draw=drawColor,line width= 0.6pt,line join=round] (208.56, 20.34) --
	(208.56, 79.43);
\definecolor{fillColor}{RGB}{204,204,204}

\path[fill=fillColor,fill opacity=0.50] ( 91.17, 79.43) rectangle ( 96.85, 20.34);

\path[fill=fillColor,fill opacity=0.50] (148.80, 79.43) rectangle (165.89, 20.34);
\definecolor{drawColor}{RGB}{0,0,0}

\path[draw=drawColor,line width= 0.6pt,line join=round] ( 63.60, 57.93) --
	( 63.76, 56.51) --
	( 63.92, 55.15) --
	( 64.09, 53.19) --
	( 64.25, 53.48) --
	( 64.41, 54.29) --
	( 64.58, 54.74) --
	( 64.74, 53.92) --
	( 64.91, 56.14) --
	( 65.07, 55.25) --
	( 65.23, 55.88) --
	( 65.40, 57.25) --
	( 65.56, 59.73) --
	( 65.72, 58.33) --
	( 65.89, 59.64) --
	( 66.05, 55.70) --
	( 66.21, 53.35) --
	( 66.38, 53.58) --
	( 66.54, 52.82) --
	( 66.71, 53.04) --
	( 66.87, 51.25) --
	( 67.03, 55.11) --
	( 67.20, 56.44) --
	( 67.36, 54.47) --
	( 67.52, 53.64) --
	( 67.69, 59.96) --
	( 67.85, 54.60) --
	( 68.01, 54.85) --
	( 68.18, 52.42) --
	( 68.34, 53.25) --
	( 68.50, 54.15) --
	( 68.67, 52.84) --
	( 68.83, 50.25) --
	( 69.00, 51.15) --
	( 69.16, 53.26) --
	( 69.32, 55.97) --
	( 69.49, 53.29) --
	( 69.65, 52.69) --
	( 69.81, 55.99) --
	( 69.98, 55.17) --
	( 70.14, 53.03) --
	( 70.30, 54.42) --
	( 70.47, 55.09) --
	( 70.63, 56.35) --
	( 70.79, 55.46) --
	( 70.96, 56.97) --
	( 71.12, 55.85) --
	( 71.29, 55.76) --
	( 71.45, 54.45) --
	( 71.61, 56.29) --
	( 71.78, 55.60) --
	( 71.94, 55.94) --
	( 72.10, 55.25) --
	( 72.27, 55.37) --
	( 72.43, 56.01) --
	( 72.59, 55.16) --
	( 72.76, 56.95) --
	( 72.92, 55.05) --
	( 73.09, 56.19) --
	( 73.25, 56.50) --
	( 73.41, 55.92) --
	( 73.58, 56.15) --
	( 73.74, 54.98) --
	( 73.90, 56.17) --
	( 74.07, 53.74) --
	( 74.23, 56.41) --
	( 74.39, 54.28) --
	( 74.56, 53.08) --
	( 74.72, 55.31) --
	( 74.88, 55.05) --
	( 75.05, 53.83) --
	( 75.21, 55.31) --
	( 75.38, 54.06) --
	( 75.54, 55.59) --
	( 75.70, 52.92) --
	( 75.87, 54.33) --
	( 76.03, 53.80) --
	( 76.19, 54.73) --
	( 76.36, 55.00) --
	( 76.52, 52.12) --
	( 76.68, 52.68) --
	( 76.85, 54.06) --
	( 77.01, 52.43) --
	( 77.17, 50.93) --
	( 77.34, 51.85) --
	( 77.50, 51.57) --
	( 77.67, 51.59) --
	( 77.83, 52.63) --
	( 77.99, 51.33) --
	( 78.16, 50.84) --
	( 78.32, 50.02) --
	( 78.48, 52.72) --
	( 78.65, 51.85) --
	( 78.81, 52.10) --
	( 78.97, 53.88) --
	( 79.14, 55.80) --
	( 79.30, 53.46) --
	( 79.47, 53.43) --
	( 79.63, 53.55) --
	( 79.79, 54.32) --
	( 79.96, 53.53) --
	( 80.12, 55.37) --
	( 80.28, 53.10) --
	( 80.45, 54.82) --
	( 80.61, 52.62) --
	( 80.77, 51.71) --
	( 80.94, 51.49) --
	( 81.10, 52.39) --
	( 81.26, 52.07) --
	( 81.43, 52.69) --
	( 81.59, 53.31) --
	( 81.76, 52.79) --
	( 81.92, 53.93) --
	( 82.08, 53.49) --
	( 82.25, 53.11) --
	( 82.41, 52.38) --
	( 82.57, 53.66) --
	( 82.74, 52.85) --
	( 82.90, 53.49) --
	( 83.06, 52.78) --
	( 83.23, 53.78) --
	( 83.39, 52.82) --
	( 83.55, 51.89) --
	( 83.72, 53.32) --
	( 83.88, 49.82) --
	( 84.05, 51.86) --
	( 84.21, 50.47) --
	( 84.37, 51.39) --
	( 84.54, 50.54) --
	( 84.70, 51.81) --
	( 84.86, 54.36) --
	( 85.03, 52.06) --
	( 85.19, 51.78) --
	( 85.35, 52.46) --
	( 85.52, 51.72) --
	( 85.68, 51.96) --
	( 85.84, 52.73) --
	( 86.01, 52.59) --
	( 86.17, 52.72) --
	( 86.34, 52.15) --
	( 86.50, 51.15) --
	( 86.66, 52.08) --
	( 86.83, 50.88) --
	( 86.99, 52.03) --
	( 87.15, 52.15) --
	( 87.32, 53.63) --
	( 87.48, 53.61) --
	( 87.64, 55.43) --
	( 87.81, 55.58) --
	( 87.97, 55.63) --
	( 88.14, 53.40) --
	( 88.30, 54.66) --
	( 88.46, 55.66) --
	( 88.63, 55.40) --
	( 88.79, 55.96) --
	( 88.95, 54.95) --
	( 89.12, 57.48) --
	( 89.28, 56.49) --
	( 89.44, 55.66) --
	( 89.61, 58.16) --
	( 89.77, 57.70) --
	( 89.93, 57.09) --
	( 90.10, 55.47) --
	( 90.26, 55.68) --
	( 90.43, 57.92) --
	( 90.59, 57.52) --
	( 90.75, 59.20) --
	( 90.92, 59.21) --
	( 91.08, 57.48) --
	( 91.24, 61.70) --
	( 91.41, 60.97) --
	( 91.57, 62.22) --
	( 91.73, 60.62) --
	( 91.90, 59.18) --
	( 92.06, 58.91) --
	( 92.22, 59.05) --
	( 92.39, 56.40) --
	( 92.55, 57.29) --
	( 92.72, 56.92) --
	( 92.88, 57.07) --
	( 93.04, 57.01) --
	( 93.21, 54.23) --
	( 93.37, 56.77) --
	( 93.53, 55.29) --
	( 93.70, 56.08) --
	( 93.86, 55.70) --
	( 94.02, 58.21) --
	( 94.19, 57.22) --
	( 94.35, 58.81) --
	( 94.52, 56.94) --
	( 94.68, 59.00) --
	( 94.84, 62.09) --
	( 95.01, 79.43) --
	( 95.17, 66.20) --
	( 95.33, 60.25) --
	( 95.50, 59.52) --
	( 95.66, 59.17) --
	( 95.82, 61.27) --
	( 95.99, 59.65) --
	( 96.15, 61.23) --
	( 96.31, 62.81) --
	( 96.48, 61.32) --
	( 96.64, 59.66) --
	( 96.81, 59.81) --
	( 96.97, 60.77) --
	( 97.13, 60.60) --
	( 97.30, 59.26) --
	( 97.46, 61.33) --
	( 97.62, 60.66) --
	( 97.79, 61.28) --
	( 97.95, 58.78) --
	( 98.11, 58.51) --
	( 98.28, 58.57) --
	( 98.44, 57.22) --
	( 98.60, 57.50) --
	( 98.77, 57.22) --
	( 98.93, 57.08) --
	( 99.10, 57.35) --
	( 99.26, 56.77) --
	( 99.42, 55.42) --
	( 99.59, 56.99) --
	( 99.75, 58.14) --
	( 99.91, 57.63) --
	(100.08, 58.56) --
	(100.24, 55.39) --
	(100.40, 58.26) --
	(100.57, 57.63) --
	(100.73, 59.80) --
	(100.90, 56.40) --
	(101.06, 57.21) --
	(101.22, 59.26) --
	(101.39, 57.34) --
	(101.55, 57.55) --
	(101.71, 56.58) --
	(101.88, 57.59) --
	(102.04, 56.26) --
	(102.20, 57.29) --
	(102.37, 55.77) --
	(102.53, 59.15) --
	(102.69, 58.19) --
	(102.86, 59.33) --
	(103.02, 58.09) --
	(103.19, 59.03) --
	(103.35, 61.26) --
	(103.51, 60.07) --
	(103.68, 60.32) --
	(103.84, 58.38) --
	(104.00, 61.44) --
	(104.17, 59.40) --
	(104.33, 62.06) --
	(104.49, 60.35) --
	(104.66, 61.67) --
	(104.82, 62.64) --
	(104.98, 61.35) --
	(105.15, 61.38) --
	(105.31, 61.98) --
	(105.48, 61.62) --
	(105.64, 61.58) --
	(105.80, 62.85) --
	(105.97, 61.62) --
	(106.13, 60.85) --
	(106.29, 56.84) --
	(106.46, 59.47) --
	(106.62, 57.67) --
	(106.78, 56.91) --
	(106.95, 58.68) --
	(107.11, 55.84) --
	(107.28, 58.06) --
	(107.44, 58.14) --
	(107.60, 60.81) --
	(107.77, 60.36) --
	(107.93, 60.29) --
	(108.09, 58.86) --
	(108.26, 60.97) --
	(108.42, 57.79) --
	(108.58, 59.67) --
	(108.75, 56.83) --
	(108.91, 58.46) --
	(109.07, 58.16) --
	(109.24, 58.26) --
	(109.40, 55.84) --
	(109.57, 56.30) --
	(109.73, 58.91) --
	(109.89, 58.35) --
	(110.06, 58.67) --
	(110.22, 57.62) --
	(110.38, 57.81) --
	(110.55, 56.23) --
	(110.71, 57.63) --
	(110.87, 55.76) --
	(111.04, 57.87) --
	(111.20, 58.90) --
	(111.36, 58.67) --
	(111.53, 57.58) --
	(111.69, 55.40) --
	(111.86, 56.02) --
	(112.02, 54.39) --
	(112.18, 54.16) --
	(112.35, 53.03) --
	(112.51, 56.05) --
	(112.67, 57.32) --
	(112.84, 59.06) --
	(113.00, 55.54) --
	(113.16, 56.86) --
	(113.33, 56.85) --
	(113.49, 56.55) --
	(113.66, 54.60) --
	(113.82, 54.09) --
	(113.98, 54.13) --
	(114.15, 55.09) --
	(114.31, 53.89) --
	(114.47, 54.31) --
	(114.64, 52.40) --
	(114.80, 52.39) --
	(114.96, 54.15) --
	(115.13, 51.47) --
	(115.29, 59.05) --
	(115.45, 60.63) --
	(115.62, 61.18) --
	(115.78, 60.38) --
	(115.95, 51.19) --
	(116.11, 52.44) --
	(116.27, 50.99) --
	(116.44, 51.24) --
	(116.60, 52.42) --
	(116.76, 53.26) --
	(116.93, 55.67) --
	(117.09, 56.97) --
	(117.25, 54.74) --
	(117.42, 53.70) --
	(117.58, 54.52) --
	(117.74, 53.66) --
	(117.91, 52.45) --
	(118.07, 52.38) --
	(118.24, 52.97) --
	(118.40, 52.19) --
	(118.56, 53.43) --
	(118.73, 54.90) --
	(118.89, 54.95) --
	(119.05, 60.22) --
	(119.22, 59.81) --
	(119.38, 59.14) --
	(119.54, 60.38) --
	(119.71, 60.84) --
	(119.87, 61.39) --
	(120.04, 59.50) --
	(120.20, 58.14) --
	(120.36, 58.79) --
	(120.53, 58.36) --
	(120.69, 60.94) --
	(120.85, 58.54) --
	(121.02, 57.85) --
	(121.18, 58.03) --
	(121.34, 56.26) --
	(121.51, 57.96) --
	(121.67, 57.45) --
	(121.83, 61.10) --
	(122.00, 61.42) --
	(122.16, 54.77) --
	(122.33, 54.82) --
	(122.49, 54.33) --
	(122.65, 52.29) --
	(122.82, 55.14) --
	(122.98, 53.33) --
	(123.14, 52.79) --
	(123.31, 49.23) --
	(123.47, 47.23) --
	(123.63, 48.92) --
	(123.80, 47.75) --
	(123.96, 47.94) --
	(124.12, 47.51) --
	(124.29, 47.86) --
	(124.45, 48.81) --
	(124.62, 49.52) --
	(124.78, 47.16) --
	(124.94, 47.18) --
	(125.11, 46.25) --
	(125.27, 46.36) --
	(125.43, 48.84) --
	(125.60, 49.17) --
	(125.76, 48.36) --
	(125.92, 47.67) --
	(126.09, 48.33) --
	(126.25, 47.18) --
	(126.42, 47.82) --
	(126.58, 46.76) --
	(126.74, 46.79) --
	(126.91, 46.64) --
	(127.07, 46.60) --
	(127.23, 43.41) --
	(127.40, 43.24) --
	(127.56, 42.58) --
	(127.72, 42.43) --
	(127.89, 44.40) --
	(128.05, 43.21) --
	(128.21, 45.17) --
	(128.38, 43.24) --
	(128.54, 44.62) --
	(128.71, 46.15) --
	(128.87, 46.15) --
	(129.03, 45.31) --
	(129.20, 45.87) --
	(129.36, 44.68) --
	(129.52, 45.48) --
	(129.69, 44.56) --
	(129.85, 46.10) --
	(130.01, 44.29) --
	(130.18, 45.32) --
	(130.34, 47.35) --
	(130.50, 46.99) --
	(130.67, 46.77) --
	(130.83, 47.51) --
	(131.00, 47.23) --
	(131.16, 46.71) --
	(131.32, 46.81) --
	(131.49, 47.11) --
	(131.65, 46.11) --
	(131.81, 45.46) --
	(131.98, 46.18) --
	(132.14, 47.34) --
	(132.30, 46.81) --
	(132.47, 46.50) --
	(132.63, 45.95) --
	(132.80, 46.19) --
	(132.96, 45.45) --
	(133.12, 47.12) --
	(133.29, 47.43) --
	(133.45, 48.57) --
	(133.61, 47.19) --
	(133.78, 46.55) --
	(133.94, 48.29) --
	(134.10, 48.98) --
	(134.27, 46.02) --
	(134.43, 46.71) --
	(134.59, 46.76) --
	(134.76, 44.96) --
	(134.92, 43.36) --
	(135.09, 44.10) --
	(135.25, 45.11) --
	(135.41, 45.64) --
	(135.58, 46.14) --
	(135.74, 45.30) --
	(135.90, 43.43) --
	(136.07, 43.80) --
	(136.23, 43.22) --
	(136.39, 45.16) --
	(136.56, 43.21) --
	(136.72, 43.53) --
	(136.88, 43.13) --
	(137.05, 43.20) --
	(137.21, 44.01) --
	(137.38, 43.20) --
	(137.54, 45.04) --
	(137.70, 46.38) --
	(137.87, 45.66) --
	(138.03, 46.25) --
	(138.19, 47.78) --
	(138.36, 47.56) --
	(138.52, 45.90) --
	(138.68, 45.96) --
	(138.85, 47.44) --
	(139.01, 47.19) --
	(139.17, 49.71) --
	(139.34, 49.42) --
	(139.50, 48.35) --
	(139.67, 50.17) --
	(139.83, 49.81) --
	(139.99, 48.23) --
	(140.16, 50.45) --
	(140.32, 50.97) --
	(140.48, 49.05) --
	(140.65, 49.39) --
	(140.81, 51.00) --
	(140.97, 49.61) --
	(141.14, 48.68) --
	(141.30, 49.11) --
	(141.47, 47.45) --
	(141.63, 50.94) --
	(141.79, 50.19) --
	(141.96, 50.49) --
	(142.12, 48.90) --
	(142.28, 50.58) --
	(142.45, 50.66) --
	(142.61, 50.45) --
	(142.77, 49.47) --
	(142.94, 48.66) --
	(143.10, 48.96) --
	(143.26, 47.81) --
	(143.43, 48.04) --
	(143.59, 46.92) --
	(143.76, 47.58) --
	(143.92, 47.74) --
	(144.08, 47.45) --
	(144.25, 48.52) --
	(144.41, 48.07) --
	(144.57, 48.26) --
	(144.74, 47.29) --
	(144.90, 48.46) --
	(145.06, 49.69) --
	(145.23, 49.46) --
	(145.39, 48.31) --
	(145.55, 53.01) --
	(145.72, 50.51) --
	(145.88, 50.38) --
	(146.05, 50.24) --
	(146.21, 50.54) --
	(146.37, 48.85) --
	(146.54, 50.77) --
	(146.70, 51.57) --
	(146.86, 51.53) --
	(147.03, 49.56) --
	(147.19, 51.77) --
	(147.35, 51.49) --
	(147.52, 51.73) --
	(147.68, 52.09) --
	(147.85, 53.64) --
	(148.01, 53.62) --
	(148.17, 54.99) --
	(148.34, 52.93) --
	(148.50, 55.24) --
	(148.66, 55.09) --
	(148.83, 52.52) --
	(148.99, 52.55) --
	(149.15, 53.29) --
	(149.32, 52.77) --
	(149.48, 55.43) --
	(149.64, 55.30) --
	(149.81, 54.71) --
	(149.97, 54.47) --
	(150.14, 53.43) --
	(150.30, 52.93) --
	(150.46, 53.88) --
	(150.63, 53.43) --
	(150.79, 53.31) --
	(150.95, 53.25) --
	(151.12, 53.01) --
	(151.28, 53.18) --
	(151.44, 52.56) --
	(151.61, 53.77) --
	(151.77, 52.35) --
	(151.93, 51.64) --
	(152.10, 52.05) --
	(152.26, 50.78) --
	(152.43, 52.18) --
	(152.59, 51.01) --
	(152.75, 52.87) --
	(152.92, 52.78) --
	(153.08, 50.54) --
	(153.24, 50.13) --
	(153.41, 50.79) --
	(153.57, 50.13) --
	(153.73, 51.08) --
	(153.90, 50.21) --
	(154.06, 49.62) --
	(154.23, 50.58) --
	(154.39, 51.18) --
	(154.55, 52.67) --
	(154.72, 52.75) --
	(154.88, 55.79) --
	(155.04, 53.39) --
	(155.21, 51.55) --
	(155.37, 51.86) --
	(155.53, 52.47) --
	(155.70, 51.22) --
	(155.86, 47.93) --
	(156.02, 45.66) --
	(156.19, 43.00) --
	(156.35, 42.75) --
	(156.52, 41.43) --
	(156.68, 41.42) --
	(156.84, 40.34) --
	(157.01, 40.66) --
	(157.17, 40.39) --
	(157.33, 44.51) --
	(157.50, 47.10) --
	(157.66, 46.09) --
	(157.82, 49.14) --
	(157.99, 49.30) --
	(158.15, 47.32) --
	(158.31, 47.29) --
	(158.48, 47.80) --
	(158.64, 48.06) --
	(158.81, 48.71) --
	(158.97, 47.03) --
	(159.13, 47.74) --
	(159.30, 47.39) --
	(159.46, 46.33) --
	(159.62, 46.30) --
	(159.79, 48.09) --
	(159.95, 48.93) --
	(160.11, 48.55) --
	(160.28, 47.67) --
	(160.44, 46.83) --
	(160.61, 47.29) --
	(160.77, 47.15) --
	(160.93, 46.32) --
	(161.10, 49.76) --
	(161.26, 47.29) --
	(161.42, 47.02) --
	(161.59, 40.97) --
	(161.75, 41.63) --
	(161.91, 41.86) --
	(162.08, 42.04) --
	(162.24, 42.97) --
	(162.40, 40.44) --
	(162.57, 40.64) --
	(162.73, 41.61) --
	(162.90, 40.29) --
	(163.06, 40.53) --
	(163.22, 40.43) --
	(163.39, 41.73) --
	(163.55, 41.43) --
	(163.71, 39.26) --
	(163.88, 40.23) --
	(164.04, 39.60) --
	(164.20, 38.89) --
	(164.37, 38.98) --
	(164.53, 35.54) --
	(164.69, 34.42) --
	(164.86, 33.46) --
	(165.02, 34.16) --
	(165.19, 33.47) --
	(165.35, 33.58) --
	(165.51, 34.37) --
	(165.68, 33.90) --
	(165.84, 32.80) --
	(166.00, 33.29) --
	(166.17, 33.11) --
	(166.33, 32.87) --
	(166.49, 32.78) --
	(166.66, 33.27) --
	(166.82, 33.00) --
	(166.99, 34.18) --
	(167.15, 34.42) --
	(167.31, 34.78) --
	(167.48, 34.13) --
	(167.64, 34.40) --
	(167.80, 28.93) --
	(167.97, 27.58) --
	(168.13, 28.70) --
	(168.29, 27.35) --
	(168.46, 27.12) --
	(168.62, 27.13) --
	(168.78, 27.34) --
	(168.95, 27.39) --
	(169.11, 27.23) --
	(169.28, 28.22) --
	(169.44, 27.63) --
	(169.60, 27.45) --
	(169.77, 27.64) --
	(169.93, 27.18) --
	(170.09, 26.23) --
	(170.26, 28.06) --
	(170.42, 28.36) --
	(170.58, 27.72) --
	(170.75, 28.47) --
	(170.91, 28.81) --
	(171.07, 28.42) --
	(171.24, 28.65) --
	(171.40, 28.55) --
	(171.57, 29.33) --
	(171.73, 29.69) --
	(171.89, 29.94) --
	(172.06, 28.77) --
	(172.22, 29.14) --
	(172.38, 29.98) --
	(172.55, 30.41) --
	(172.71, 30.59) --
	(172.87, 30.57) --
	(173.04, 31.29) --
	(173.20, 31.44) --
	(173.37, 31.16) --
	(173.53, 30.61) --
	(173.69, 30.78) --
	(173.86, 30.48) --
	(174.02, 30.94) --
	(174.18, 30.78) --
	(174.35, 30.19) --
	(174.51, 30.22) --
	(174.67, 29.77) --
	(174.84, 28.54) --
	(175.00, 29.19) --
	(175.16, 29.11) --
	(175.33, 29.24) --
	(175.49, 28.75) --
	(175.66, 29.02) --
	(175.82, 28.87) --
	(175.98, 29.01) --
	(176.15, 28.00) --
	(176.31, 28.22) --
	(176.47, 26.81) --
	(176.64, 27.09) --
	(176.80, 26.29) --
	(176.96, 26.67) --
	(177.13, 26.15) --
	(177.29, 26.11) --
	(177.45, 25.83) --
	(177.62, 26.29) --
	(177.78, 26.23) --
	(177.95, 26.35) --
	(178.11, 25.79) --
	(178.27, 25.79) --
	(178.44, 28.70) --
	(178.60, 28.19) --
	(178.76, 24.57) --
	(178.93, 24.89) --
	(179.09, 25.03) --
	(179.25, 25.20) --
	(179.42, 25.79) --
	(179.58, 26.04) --
	(179.75, 25.95) --
	(179.91, 25.38) --
	(180.07, 25.10) --
	(180.24, 25.42) --
	(180.40, 25.61) --
	(180.56, 25.23) --
	(180.73, 24.78) --
	(180.89, 25.02) --
	(181.05, 24.98) --
	(181.22, 25.19) --
	(181.38, 24.62) --
	(181.54, 24.94) --
	(181.71, 24.80) --
	(181.87, 25.50) --
	(182.04, 24.70) --
	(182.20, 24.44) --
	(182.36, 24.80) --
	(182.53, 25.07) --
	(182.69, 24.72) --
	(182.85, 24.65) --
	(183.02, 24.20) --
	(183.18, 24.58) --
	(183.34, 24.55) --
	(183.51, 24.76) --
	(183.67, 24.71) --
	(183.83, 24.96) --
	(184.00, 25.54) --
	(184.16, 24.68) --
	(184.33, 24.66) --
	(184.49, 24.86) --
	(184.65, 25.01) --
	(184.82, 24.35) --
	(184.98, 24.76) --
	(185.14, 24.85) --
	(185.31, 25.17) --
	(185.47, 23.83) --
	(185.63, 23.81) --
	(185.80, 23.93) --
	(185.96, 24.04) --
	(186.12, 24.36) --
	(186.29, 23.85) --
	(186.45, 23.53) --
	(186.62, 24.14) --
	(186.78, 24.55) --
	(186.94, 23.71) --
	(187.11, 23.60) --
	(187.27, 24.09) --
	(187.43, 24.13) --
	(187.60, 24.51) --
	(187.76, 24.15) --
	(187.92, 24.25) --
	(188.09, 24.55) --
	(188.25, 24.38) --
	(188.42, 23.88) --
	(188.58, 24.01) --
	(188.74, 24.51) --
	(188.91, 24.63) --
	(189.07, 24.31) --
	(189.23, 23.93) --
	(189.40, 24.64) --
	(189.56, 25.15) --
	(189.72, 25.14) --
	(189.89, 23.84) --
	(190.05, 25.01) --
	(190.21, 24.74) --
	(190.38, 25.23) --
	(190.54, 24.19) --
	(190.71, 24.42) --
	(190.87, 25.39) --
	(191.03, 25.99) --
	(191.20, 24.67) --
	(191.36, 24.33) --
	(191.52, 25.31) --
	(191.69, 25.78) --
	(191.85, 26.00) --
	(192.01, 24.75) --
	(192.18, 25.29) --
	(192.34, 25.66) --
	(192.50, 25.54) --
	(192.67, 24.45) --
	(192.83, 24.75) --
	(193.00, 25.17) --
	(193.16, 25.54) --
	(193.32, 24.72) --
	(193.49, 24.44) --
	(193.65, 24.93) --
	(193.81, 24.97) --
	(193.98, 25.65) --
	(194.14, 24.04) --
	(194.30, 24.22) --
	(194.47, 24.60) --
	(194.63, 24.78) --
	(194.80, 23.84) --
	(194.96, 24.15) --
	(195.12, 24.86) --
	(195.29, 24.78) --
	(195.45, 24.19) --
	(195.61, 23.77) --
	(195.78, 24.28) --
	(195.94, 24.35) --
	(196.10, 24.85) --
	(196.27, 23.57) --
	(196.43, 23.68) --
	(196.59, 23.96) --
	(196.76, 24.63) --
	(196.92, 23.47) --
	(197.09, 23.62) --
	(197.25, 23.97) --
	(197.41, 24.66) --
	(197.58, 24.17) --
	(197.74, 23.87) --
	(197.90, 24.13) --
	(198.07, 24.14) --
	(198.23, 24.37) --
	(198.39, 23.59) --
	(198.56, 23.58) --
	(198.72, 23.83) --
	(198.88, 23.97) --
	(199.05, 23.11) --
	(199.21, 23.31) --
	(199.38, 23.87) --
	(199.54, 24.05) --
	(199.70, 23.59) --
	(199.87, 23.24) --
	(200.03, 23.12) --
	(200.19, 24.11) --
	(200.36, 24.28) --
	(200.52, 23.48) --
	(200.68, 23.71) --
	(200.85, 24.32) --
	(201.01, 24.25) --
	(201.18, 23.94) --
	(201.34, 23.55) --
	(201.50, 24.02) --
	(201.67, 24.10) --
	(201.83, 23.59) --
	(201.99, 23.20) --
	(202.16, 23.61) --
	(202.32, 23.85) --
	(202.48, 24.07) --
	(202.65, 23.06) --
	(202.81, 23.31) --
	(202.97, 23.66) --
	(203.14, 24.09) --
	(203.30, 23.02) --
	(203.47, 23.39) --
	(203.63, 23.99) --
	(203.79, 23.99) --
	(203.96, 23.47) --
	(204.12, 23.29) --
	(204.28, 24.13) --
	(204.45, 24.40) --
	(204.61, 24.77) --
	(204.77, 24.00) --
	(204.94, 24.17) --
	(205.10, 23.13) --
	(205.26, 23.16) --
	(205.43, 23.07) --
	(205.59, 23.03) --
	(205.76, 23.55) --
	(205.92, 23.40) --
	(206.08, 22.77) --
	(206.25, 22.27) --
	(206.41, 22.39) --
	(206.57, 22.63) --
	(206.74, 22.43) --
	(206.90, 22.30) --
	(207.06, 22.43) --
	(207.23, 22.51) --
	(207.39, 22.51) --
	(207.56, 21.40) --
	(207.72, 21.45) --
	(207.88, 21.41) --
	(208.05, 21.40) --
	(208.21, 21.30) --
	(208.37, 21.01) --
	(208.54, 20.83) --
	(208.70, 21.36) --
	(208.86, 21.19) --
	(209.03, 21.20) --
	(209.19, 21.16) --
	(209.35, 21.49) --
	(209.52, 21.43) --
	(209.68, 21.37) --
	(209.85, 21.30) --
	(210.01, 21.32) --
	(210.17, 21.15) --
	(210.34, 20.82) --
	(210.50, 20.36) --
	(210.66, 20.34) --
	(210.83, 20.61) --
	(210.99, 20.39) --
	(211.15, 20.58) --
	(211.32, 20.65) --
	(211.48, 20.65) --
	(211.64, 20.82) --
	(211.81, 20.55);
\end{scope}
\begin{scope}
\path[clip] (  0.00,  0.00) rectangle (231.26,260.17);
\definecolor{fillColor}{gray}{0.80}

\path[fill=fillColor] ( 56.19,233.69) rectangle (219.22,248.13);
\definecolor{drawColor}{RGB}{0,0,0}

\node[text=drawColor,anchor=base,inner sep=0pt, outer sep=0pt, scale=  0.96] at (137.70,237.26) {interbank loans (stock)};
\end{scope}
\begin{scope}
\path[clip] (  0.00,  0.00) rectangle (231.26,260.17);
\definecolor{fillColor}{gray}{0.80}

\path[fill=fillColor] ( 56.19,156.56) rectangle (219.22,170.99);
\definecolor{drawColor}{RGB}{0,0,0}

\node[text=drawColor,anchor=base,inner sep=0pt, outer sep=0pt, scale=  0.96] at (137.70,160.13) {total bank credit (stock)};
\end{scope}
\begin{scope}
\path[clip] (  0.00,  0.00) rectangle (231.26,260.17);
\definecolor{fillColor}{gray}{0.80}

\path[fill=fillColor] ( 56.19, 79.43) rectangle (219.22, 93.86);
\definecolor{drawColor}{RGB}{0,0,0}

\node[text=drawColor,anchor=base,inner sep=0pt, outer sep=0pt, scale=  0.96] at (137.70, 83.00) {ratio};
\end{scope}
\begin{scope}
\path[clip] (  0.00,  0.00) rectangle (231.26,260.17);
\definecolor{drawColor}{gray}{0.50}

\node[text=drawColor,anchor=base east,inner sep=0pt, outer sep=0pt, scale=  0.96] at ( 49.07,174.71) {100};

\node[text=drawColor,anchor=base east,inner sep=0pt, outer sep=0pt, scale=  0.96] at ( 49.07,188.84) {200};

\node[text=drawColor,anchor=base east,inner sep=0pt, outer sep=0pt, scale=  0.96] at ( 49.07,202.97) {300};

\node[text=drawColor,anchor=base east,inner sep=0pt, outer sep=0pt, scale=  0.96] at ( 49.07,217.10) {400};
\end{scope}
\begin{scope}
\path[clip] (  0.00,  0.00) rectangle (231.26,260.17);
\definecolor{drawColor}{gray}{0.50}

\path[draw=drawColor,line width= 0.6pt,line join=round] ( 51.92,178.36) --
	( 56.19,178.36);

\path[draw=drawColor,line width= 0.6pt,line join=round] ( 51.92,192.49) --
	( 56.19,192.49);

\path[draw=drawColor,line width= 0.6pt,line join=round] ( 51.92,206.62) --
	( 56.19,206.62);

\path[draw=drawColor,line width= 0.6pt,line join=round] ( 51.92,220.75) --
	( 56.19,220.75);
\end{scope}
\begin{scope}
\path[clip] (  0.00,  0.00) rectangle (231.26,260.17);
\definecolor{drawColor}{gray}{0.50}

\node[text=drawColor,anchor=base east,inner sep=0pt, outer sep=0pt, scale=  0.96] at ( 49.07, 93.83) {4000};

\node[text=drawColor,anchor=base east,inner sep=0pt, outer sep=0pt, scale=  0.96] at ( 49.07,110.13) {6000};

\node[text=drawColor,anchor=base east,inner sep=0pt, outer sep=0pt, scale=  0.96] at ( 49.07,126.43) {8000};

\node[text=drawColor,anchor=base east,inner sep=0pt, outer sep=0pt, scale=  0.96] at ( 49.07,142.73) {10000};
\end{scope}
\begin{scope}
\path[clip] (  0.00,  0.00) rectangle (231.26,260.17);
\definecolor{drawColor}{gray}{0.50}

\path[draw=drawColor,line width= 0.6pt,line join=round] ( 51.92, 97.48) --
	( 56.19, 97.48);

\path[draw=drawColor,line width= 0.6pt,line join=round] ( 51.92,113.78) --
	( 56.19,113.78);

\path[draw=drawColor,line width= 0.6pt,line join=round] ( 51.92,130.08) --
	( 56.19,130.08);

\path[draw=drawColor,line width= 0.6pt,line join=round] ( 51.92,146.38) --
	( 56.19,146.38);
\end{scope}
\begin{scope}
\path[clip] (  0.00,  0.00) rectangle (231.26,260.17);
\definecolor{drawColor}{gray}{0.50}

\node[text=drawColor,anchor=base east,inner sep=0pt, outer sep=0pt, scale=  0.96] at ( 49.07, 26.70) {0.02};

\node[text=drawColor,anchor=base east,inner sep=0pt, outer sep=0pt, scale=  0.96] at ( 49.07, 41.60) {0.04};

\node[text=drawColor,anchor=base east,inner sep=0pt, outer sep=0pt, scale=  0.96] at ( 49.07, 56.51) {0.06};

\node[text=drawColor,anchor=base east,inner sep=0pt, outer sep=0pt, scale=  0.96] at ( 49.07, 71.42) {0.08};
\end{scope}
\begin{scope}
\path[clip] (  0.00,  0.00) rectangle (231.26,260.17);
\definecolor{drawColor}{gray}{0.50}

\path[draw=drawColor,line width= 0.6pt,line join=round] ( 51.92, 30.35) --
	( 56.19, 30.35);

\path[draw=drawColor,line width= 0.6pt,line join=round] ( 51.92, 45.25) --
	( 56.19, 45.25);

\path[draw=drawColor,line width= 0.6pt,line join=round] ( 51.92, 60.16) --
	( 56.19, 60.16);

\path[draw=drawColor,line width= 0.6pt,line join=round] ( 51.92, 75.07) --
	( 56.19, 75.07);
\end{scope}
\begin{scope}
\path[clip] (  0.00,  0.00) rectangle (231.26,260.17);
\definecolor{drawColor}{gray}{0.50}

\path[draw=drawColor,line width= 0.6pt,line join=round] ( 80.52, 16.07) --
	( 80.52, 20.34);

\path[draw=drawColor,line width= 0.6pt,line join=round] (123.21, 16.07) --
	(123.21, 20.34);

\path[draw=drawColor,line width= 0.6pt,line join=round] (165.89, 16.07) --
	(165.89, 20.34);

\path[draw=drawColor,line width= 0.6pt,line join=round] (208.56, 16.07) --
	(208.56, 20.34);
\end{scope}
\begin{scope}
\path[clip] (  0.00,  0.00) rectangle (231.26,260.17);
\definecolor{drawColor}{gray}{0.50}

\node[text=drawColor,anchor=base,inner sep=0pt, outer sep=0pt, scale=  0.96] at ( 80.52,  5.93) {2000};

\node[text=drawColor,anchor=base,inner sep=0pt, outer sep=0pt, scale=  0.96] at (123.21,  5.93) {2005};

\node[text=drawColor,anchor=base,inner sep=0pt, outer sep=0pt, scale=  0.96] at (165.89,  5.93) {2010};

\node[text=drawColor,anchor=base,inner sep=0pt, outer sep=0pt, scale=  0.96] at (208.56,  5.93) {2015};
\end{scope}
\begin{scope}
\path[clip] (  0.00,  0.00) rectangle (231.26,260.17);
\definecolor{drawColor}{RGB}{0,0,0}

\node[text=drawColor,rotate= 90.00,anchor=base,inner sep=0pt, outer sep=0pt, scale=  1.20] at ( 18.16,127.02) {in billion US dollars};
\end{scope}
\end{tikzpicture}

\end{document}
