%!PS-Adobe-3.0 EPSF-3.0
%%Creator: MATLAB, The MathWorks, Inc. Version 8.0.0.783 (R2012b). Operating System: Darwin 14.3.0 Darwin Kernel Version 14.3.0: Mon Mar 23 11:59:05 PDT 2015; root:xnu-2782.20.48~5/RELEASE_X86_64 x86_64.
%%Title: ./example1_IRF_e.eps
%%CreationDate: 07/20/2015  11:52:28
%%DocumentNeededFonts: Helvetica
%%DocumentProcessColors: Cyan Magenta Yellow Black
%%LanguageLevel: 2
%%Pages: 1
%%BoundingBox:    65   215   549   598
%%EndComments

%%BeginProlog
% MathWorks dictionary
/MathWorks 160 dict begin
% definition operators
/bdef {bind def} bind def
/ldef {load def} bind def
/xdef {exch def} bdef
/xstore {exch store} bdef
% operator abbreviations
/c  /clip ldef
/cc /concat ldef
/cp /closepath ldef
/gr /grestore ldef
/gs /gsave ldef
/mt /moveto ldef
/np /newpath ldef
/cm /currentmatrix ldef
/sm /setmatrix ldef
/rm /rmoveto ldef
/rl /rlineto ldef
/s {show newpath} bdef
/sc {setcmykcolor} bdef
/sr /setrgbcolor ldef
/sg /setgray ldef
/w /setlinewidth ldef
/j /setlinejoin ldef
/cap /setlinecap ldef
/rc {rectclip} bdef
/rf {rectfill} bdef
% page state control
/pgsv () def
/bpage {/pgsv save def} bdef
/epage {pgsv restore} bdef
/bplot /gsave ldef
/eplot {stroke grestore} bdef
% orientation switch
/portraitMode 0 def /landscapeMode 1 def /rotateMode 2 def
% coordinate system mappings
/dpi2point 0 def
% font control
/FontSize 0 def
/FMS {/FontSize xstore findfont [FontSize 0 0 FontSize neg 0 0]
  makefont setfont} bdef
/reencode {exch dup where {pop load} {pop StandardEncoding} ifelse
  exch dup 3 1 roll findfont dup length dict begin
  { 1 index /FID ne {def}{pop pop} ifelse } forall
  /Encoding exch def currentdict end definefont pop} bdef
/isroman {findfont /CharStrings get /Agrave known} bdef
/FMSR {3 1 roll 1 index dup isroman {reencode} {pop pop} ifelse
  exch FMS} bdef
/csm {1 dpi2point div -1 dpi2point div scale neg translate
 dup landscapeMode eq {pop -90 rotate}
  {rotateMode eq {90 rotate} if} ifelse} bdef
% line types: solid, dotted, dashed, dotdash
/SO { [] 0 setdash } bdef
/DO { [.5 dpi2point mul 4 dpi2point mul] 0 setdash } bdef
/DA { [6 dpi2point mul] 0 setdash } bdef
/DD { [.5 dpi2point mul 4 dpi2point mul 6 dpi2point mul 4
  dpi2point mul] 0 setdash } bdef
% macros for lines and objects
/L {lineto stroke} bdef
/MP {3 1 roll moveto 1 sub {rlineto} repeat} bdef
/AP {{rlineto} repeat} bdef
/PDlw -1 def
/W {/PDlw currentlinewidth def setlinewidth} def
/PP {closepath eofill} bdef
/DP {closepath stroke} bdef
/MR {4 -2 roll moveto dup  0 exch rlineto exch 0 rlineto
  neg 0 exch rlineto closepath} bdef
/FR {MR stroke} bdef
/PR {MR fill} bdef
/L1i {{currentfile picstr readhexstring pop} image} bdef
/tMatrix matrix def
/MakeOval {newpath tMatrix currentmatrix pop translate scale
0 0 1 0 360 arc tMatrix setmatrix} bdef
/FO {MakeOval stroke} bdef
/PO {MakeOval fill} bdef
/PD {currentlinewidth 2 div 0 360 arc fill
   PDlw -1 eq not {PDlw w /PDlw -1 def} if} def
/FA {newpath tMatrix currentmatrix pop translate scale
  0 0 1 5 -2 roll arc tMatrix setmatrix stroke} bdef
/PA {newpath tMatrix currentmatrix pop	translate 0 0 moveto scale
  0 0 1 5 -2 roll arc closepath tMatrix setmatrix fill} bdef
/FAn {newpath tMatrix currentmatrix pop translate scale
  0 0 1 5 -2 roll arcn tMatrix setmatrix stroke} bdef
/PAn {newpath tMatrix currentmatrix pop translate 0 0 moveto scale
  0 0 1 5 -2 roll arcn closepath tMatrix setmatrix fill} bdef
/vradius 0 def /hradius 0 def /lry 0 def
/lrx 0 def /uly 0 def /ulx 0 def /rad 0 def
/MRR {/vradius xdef /hradius xdef /lry xdef /lrx xdef /uly xdef
  /ulx xdef newpath tMatrix currentmatrix pop ulx hradius add uly
  vradius add translate hradius vradius scale 0 0 1 180 270 arc 
  tMatrix setmatrix lrx hradius sub uly vradius add translate
  hradius vradius scale 0 0 1 270 360 arc tMatrix setmatrix
  lrx hradius sub lry vradius sub translate hradius vradius scale
  0 0 1 0 90 arc tMatrix setmatrix ulx hradius add lry vradius sub
  translate hradius vradius scale 0 0 1 90 180 arc tMatrix setmatrix
  closepath} bdef
/FRR {MRR stroke } bdef
/PRR {MRR fill } bdef
/MlrRR {/lry xdef /lrx xdef /uly xdef /ulx xdef /rad lry uly sub 2 div def
  newpath tMatrix currentmatrix pop ulx rad add uly rad add translate
  rad rad scale 0 0 1 90 270 arc tMatrix setmatrix lrx rad sub lry rad
  sub translate rad rad scale 0 0 1 270 90 arc tMatrix setmatrix
  closepath} bdef
/FlrRR {MlrRR stroke } bdef
/PlrRR {MlrRR fill } bdef
/MtbRR {/lry xdef /lrx xdef /uly xdef /ulx xdef /rad lrx ulx sub 2 div def
  newpath tMatrix currentmatrix pop ulx rad add uly rad add translate
  rad rad scale 0 0 1 180 360 arc tMatrix setmatrix lrx rad sub lry rad
  sub translate rad rad scale 0 0 1 0 180 arc tMatrix setmatrix
  closepath} bdef
/FtbRR {MtbRR stroke } bdef
/PtbRR {MtbRR fill } bdef
/stri 6 array def /dtri 6 array def
/smat 6 array def /dmat 6 array def
/tmat1 6 array def /tmat2 6 array def /dif 3 array def
/asub {/ind2 exch def /ind1 exch def dup dup
  ind1 get exch ind2 get sub exch } bdef
/tri_to_matrix {
  2 0 asub 3 1 asub 4 0 asub 5 1 asub
  dup 0 get exch 1 get 7 -1 roll astore } bdef
/compute_transform {
  dmat dtri tri_to_matrix tmat1 invertmatrix 
  smat stri tri_to_matrix tmat2 concatmatrix } bdef
/ds {stri astore pop} bdef
/dt {dtri astore pop} bdef
/db {2 copy /cols xdef /rows xdef mul dup 3 mul string
  currentfile 
  3 index 0 eq {/ASCIIHexDecode filter}
  {/ASCII85Decode filter 3 index 2 eq {/RunLengthDecode filter} if }
  ifelse exch readstring pop
  dup 0 3 index getinterval /rbmap xdef
  dup 2 index dup getinterval /gbmap xdef
  1 index dup 2 mul exch getinterval /bbmap xdef pop pop}bdef
/it {gs np dtri aload pop moveto lineto lineto cp c
  cols rows 8 compute_transform 
  rbmap gbmap bbmap true 3 colorimage gr}bdef
/il {newpath moveto lineto stroke}bdef
currentdict end def
%%EndProlog

%%BeginSetup
MathWorks begin

0 cap

end
%%EndSetup

%%Page: 1 1
%%BeginPageSetup
%%PageBoundingBox:    65   215   549   598
MathWorks begin
bpage
%%EndPageSetup

%%BeginObject: obj1
bplot

/dpi2point 12 def
portraitMode 0216 7344 csm

  564   161  5812  4602 rc
85 dict begin %Colortable dictionary
/c0 { 0.000000 0.000000 0.000000 sr} bdef
/c1 { 1.000000 1.000000 1.000000 sr} bdef
/c2 { 0.900000 0.000000 0.000000 sr} bdef
/c3 { 0.000000 0.820000 0.000000 sr} bdef
/c4 { 0.000000 0.000000 0.800000 sr} bdef
/c5 { 0.910000 0.820000 0.320000 sr} bdef
/c6 { 1.000000 0.260000 0.820000 sr} bdef
/c7 { 0.000000 0.820000 0.820000 sr} bdef
c0
1 j
1 sg
   0    0 6918 5189 rf
6 w
0 1068 2315 0 0 -1068 899 1508 4 MP
PP
-2315 0 0 1068 2315 0 0 -1068 899 1508 5 MP stroke
4 w
DO
SO
6 w
0 sg
 899 1508 mt 3214 1508 L
 899  440 mt 3214  440 L
 899 1508 mt  899  440 L
3214 1508 mt 3214  440 L
 899 1508 mt 3214 1508 L
 899 1508 mt  899  440 L
1433 1508 mt 1433 1484 L
1433  440 mt 1433  463 L
%%IncludeResource: font Helvetica
/Helvetica /ISOLatin1Encoding 120 FMSR

1367 1653 mt 
(10) s
2026 1508 mt 2026 1484 L
2026  440 mt 2026  463 L
1960 1653 mt 
(20) s
2620 1508 mt 2620 1484 L
2620  440 mt 2620  463 L
2554 1653 mt 
(30) s
3214 1508 mt 3214 1484 L
3214  440 mt 3214  463 L
3148 1653 mt 
(40) s
 899 1508 mt  922 1508 L
3214 1508 mt 3190 1508 L
 798 1552 mt 
(0) s
 899 1241 mt  922 1241 L
3214 1241 mt 3190 1241 L
 564 1285 mt 
(0.005) s
 899  974 mt  922  974 L
3214  974 mt 3190  974 L
 631 1018 mt 
(0.01) s
 899  707 mt  922  707 L
3214  707 mt 3190  707 L
 564  751 mt 
(0.015) s
 899  440 mt  922  440 L
3214  440 mt 3190  440 L
 631  484 mt 
(0.02) s
 899 1508 mt 3214 1508 L
 899  440 mt 3214  440 L
 899 1508 mt  899  440 L
3214 1508 mt 3214  440 L
gs 899 440 2316 1069 rc
12 w
60 9 59 8 60 8 59 12 59 8 60 9 59 10 59 9 
60 10 59 11 59 11 60 12 59 13 60 14 59 13 59 14 
60 14 59 13 59 13 60 14 59 16 59 16 60 17 59 19 
59 17 60 19 59 18 60 18 59 20 59 24 60 21 59 23 
59 23 60 25 59 26 59 26 60 29 59 29 59 30 899 546 40 MP stroke
6 w
/c8 { 1.000000 0.000000 0.000000 sr} bdef
c8
2315 0 899 1508 2 MP stroke
gr

c8
0 sg
2026  345 mt 
(y) s
1 sg
0 1068 2315 0 0 -1068 3945 1508 4 MP
PP
-2315 0 0 1068 2315 0 0 -1068 3945 1508 5 MP stroke
4 w
DO
SO
6 w
0 sg
3945 1508 mt 6260 1508 L
3945  440 mt 6260  440 L
3945 1508 mt 3945  440 L
6260 1508 mt 6260  440 L
3945 1508 mt 6260 1508 L
3945 1508 mt 3945  440 L
4479 1508 mt 4479 1484 L
4479  440 mt 4479  463 L
4413 1653 mt 
(10) s
5072 1508 mt 5072 1484 L
5072  440 mt 5072  463 L
5006 1653 mt 
(20) s
5666 1508 mt 5666 1484 L
5666  440 mt 5666  463 L
5600 1653 mt 
(30) s
6260 1508 mt 6260 1484 L
6260  440 mt 6260  463 L
6194 1653 mt 
(40) s
3945 1508 mt 3968 1508 L
6260 1508 mt 6236 1508 L
3844 1552 mt 
(0) s
3945 1241 mt 3968 1241 L
6260 1241 mt 6236 1241 L
3844 1285 mt 
(2) s
3945  974 mt 3968  974 L
6260  974 mt 6236  974 L
3844 1018 mt 
(4) s
3945  707 mt 3968  707 L
6260  707 mt 6236  707 L
3844  751 mt 
(6) s
3945  440 mt 3968  440 L
6260  440 mt 6236  440 L
3844  484 mt 
(8) s
3945  386 mt 
(x 10) s
%%IncludeResource: font Helvetica
/Helvetica /ISOLatin1Encoding 80 FMSR

4171  312 mt 
(-3) s
3945 1508 mt 6260 1508 L
3945  440 mt 6260  440 L
3945 1508 mt 3945  440 L
6260 1508 mt 6260  440 L
gs 3945 440 2316 1069 rc
12 w
60 10 59 11 60 11 59 11 59 8 60 8 59 10 59 9 
60 8 59 8 59 8 60 6 59 7 60 7 59 5 59 4 
60 4 59 3 59 3 60 1 59 0 59 -1 60 -1 59 -4 
59 -5 60 -6 59 -8 60 -11 59 -12 59 -13 60 -16 59 -20 
59 -20 60 -23 59 -27 59 -30 60 -32 59 -37 59 -41 3945 1001 40 MP stroke
6 w
c8
2315 0 3945 1508 2 MP stroke
gr

c8
0 sg
%%IncludeResource: font Helvetica
/Helvetica /ISOLatin1Encoding 120 FMSR

5072  345 mt 
(c) s
1 sg
0 1069 2315 0 0 -1069 899 3063 4 MP
PP
-2315 0 0 1069 2315 0 0 -1069 899 3063 5 MP stroke
4 w
DO
SO
6 w
0 sg
 899 3063 mt 3214 3063 L
 899 1994 mt 3214 1994 L
 899 3063 mt  899 1994 L
3214 3063 mt 3214 1994 L
 899 3063 mt 3214 3063 L
 899 3063 mt  899 1994 L
1433 3063 mt 1433 3039 L
1433 1994 mt 1433 2017 L
1367 3208 mt 
(10) s
2026 3063 mt 2026 3039 L
2026 1994 mt 2026 2017 L
1960 3208 mt 
(20) s
2620 3063 mt 2620 3039 L
2620 1994 mt 2620 2017 L
2554 3208 mt 
(30) s
3214 3063 mt 3214 3039 L
3214 1994 mt 3214 2017 L
3148 3208 mt 
(40) s
 899 3063 mt  922 3063 L
3214 3063 mt 3190 3063 L
 798 3107 mt 
(0) s
 899 2795 mt  922 2795 L
3214 2795 mt 3190 2795 L
 631 2839 mt 
(0.05) s
 899 2528 mt  922 2528 L
3214 2528 mt 3190 2528 L
 698 2572 mt 
(0.1) s
 899 2261 mt  922 2261 L
3214 2261 mt 3190 2261 L
 631 2305 mt 
(0.15) s
 899 1994 mt  922 1994 L
3214 1994 mt 3190 1994 L
 698 2038 mt 
(0.2) s
 899 3063 mt 3214 3063 L
 899 1994 mt 3214 1994 L
 899 3063 mt  899 1994 L
3214 3063 mt 3214 1994 L
gs 899 1994 2316 1070 rc
12 w
60 9 59 8 60 8 59 8 59 8 60 7 59 6 59 6 
60 6 59 5 59 4 60 4 59 2 60 2 59 0 59 -1 
60 -2 59 -4 59 -5 60 -6 59 -8 59 -9 60 -12 59 -13 
59 -16 60 -19 59 -21 60 -24 59 -26 59 -30 60 -34 59 -37 
59 -41 60 -45 59 -50 59 -54 60 -59 59 -65 59 -71 899 2985 40 MP stroke
6 w
c8
2315 0 899 3063 2 MP stroke
gr

c8
0 sg
2026 1899 mt 
(k) s
1 sg
0 1069 2315 0 0 -1069 3945 3063 4 MP
PP
-2315 0 0 1069 2315 0 0 -1069 3945 3063 5 MP stroke
4 w
DO
SO
6 w
0 sg
3945 3063 mt 6260 3063 L
3945 1994 mt 6260 1994 L
3945 3063 mt 3945 1994 L
6260 3063 mt 6260 1994 L
3945 3063 mt 6260 3063 L
3945 3063 mt 3945 1994 L
4479 3063 mt 4479 3039 L
4479 1994 mt 4479 2017 L
4413 3208 mt 
(10) s
5072 3063 mt 5072 3039 L
5072 1994 mt 5072 2017 L
5006 3208 mt 
(20) s
5666 3063 mt 5666 3039 L
5666 1994 mt 5666 2017 L
5600 3208 mt 
(30) s
6260 3063 mt 6260 3039 L
6260 1994 mt 6260 2017 L
6194 3208 mt 
(40) s
3945 3063 mt 3968 3063 L
6260 3063 mt 6236 3063 L
3844 3107 mt 
(0) s
3945 2528 mt 3968 2528 L
6260 2528 mt 6236 2528 L
3610 2572 mt 
(0.005) s
3945 1994 mt 3968 1994 L
6260 1994 mt 6236 1994 L
3677 2038 mt 
(0.01) s
3945 3063 mt 6260 3063 L
3945 1994 mt 6260 1994 L
3945 3063 mt 3945 1994 L
6260 3063 mt 6260 1994 L
gs 3945 1994 2316 1070 rc
12 w
60 7 59 7 60 7 59 8 59 8 60 8 59 9 59 9 
60 9 59 10 59 10 60 10 59 12 60 11 59 12 59 13 
60 14 59 14 59 14 60 16 59 16 59 18 60 18 59 19 
59 20 60 21 59 23 60 24 59 25 59 26 60 29 59 30 
59 31 60 34 59 36 59 38 60 40 59 43 59 46 3945 2100 40 MP stroke
6 w
c8
2315 0 3945 3063 2 MP stroke
gr

c8
0 sg
5069 1899 mt 
(a) s
1 sg
0 1068 2315 0 0 -1068 899 4617 4 MP
PP
-2315 0 0 1068 2315 0 0 -1068 899 4617 5 MP stroke
4 w
DO
SO
6 w
0 sg
 899 4617 mt 3214 4617 L
 899 3549 mt 3214 3549 L
 899 4617 mt  899 3549 L
3214 4617 mt 3214 3549 L
 899 4617 mt 3214 4617 L
 899 4617 mt  899 3549 L
1433 4617 mt 1433 4593 L
1433 3549 mt 1433 3572 L
1367 4762 mt 
(10) s
2026 4617 mt 2026 4593 L
2026 3549 mt 2026 3572 L
1960 4762 mt 
(20) s
2620 4617 mt 2620 4593 L
2620 3549 mt 2620 3572 L
2554 4762 mt 
(30) s
3214 4617 mt 3214 4593 L
3214 3549 mt 3214 3572 L
3148 4762 mt 
(40) s
 899 4617 mt  922 4617 L
3214 4617 mt 3190 4617 L
 728 4661 mt 
(-2) s
 899 4261 mt  922 4261 L
3214 4261 mt 3190 4261 L
 798 4305 mt 
(0) s
 899 3905 mt  922 3905 L
3214 3905 mt 3190 3905 L
 798 3949 mt 
(2) s
 899 3549 mt  922 3549 L
3214 3549 mt 3190 3549 L
 798 3593 mt 
(4) s
 899 3495 mt 
(x 10) s
%%IncludeResource: font Helvetica
/Helvetica /ISOLatin1Encoding 80 FMSR

1125 3421 mt 
(-3) s
 899 4617 mt 3214 4617 L
 899 3549 mt 3214 3549 L
 899 4617 mt  899 3549 L
3214 4617 mt 3214 3549 L
gs 899 3549 2316 1069 rc
12 w
60 3 59 3 60 3 59 3 59 4 60 4 59 4 59 5 
60 5 59 6 59 6 60 7 59 8 60 8 59 8 59 10 
60 10 59 11 59 11 60 13 59 13 59 15 60 15 59 18 
59 18 60 19 59 21 60 22 59 24 59 26 60 28 59 29 
59 32 60 33 59 37 59 38 60 42 59 44 59 48 899 3641 40 MP stroke
6 w
c8
2315 0 899 4261 2 MP stroke
gr

c8
0 sg
%%IncludeResource: font Helvetica
/Helvetica /ISOLatin1Encoding 120 FMSR

2023 3454 mt 
(h) s
1 sg
0 1068 2315 0 0 -1068 3945 4617 4 MP
PP
-2315 0 0 1068 2315 0 0 -1068 3945 4617 5 MP stroke
4 w
DO
SO
6 w
0 sg
3945 4617 mt 6260 4617 L
3945 3549 mt 6260 3549 L
3945 4617 mt 3945 3549 L
6260 4617 mt 6260 3549 L
3945 4617 mt 6260 4617 L
3945 4617 mt 3945 3549 L
4479 4617 mt 4479 4593 L
4479 3549 mt 4479 3572 L
4413 4762 mt 
(10) s
5072 4617 mt 5072 4593 L
5072 3549 mt 5072 3572 L
5006 4762 mt 
(20) s
5666 4617 mt 5666 4593 L
5666 3549 mt 5666 3572 L
5600 4762 mt 
(30) s
6260 4617 mt 6260 4593 L
6260 3549 mt 6260 3572 L
6194 4762 mt 
(40) s
3945 4617 mt 3968 4617 L
6260 4617 mt 6236 4617 L
3844 4661 mt 
(0) s
3945 4261 mt 3968 4261 L
6260 4261 mt 6236 4261 L
3844 4305 mt 
(1) s
3945 3905 mt 3968 3905 L
6260 3905 mt 6236 3905 L
3844 3949 mt 
(2) s
3945 3549 mt 3968 3549 L
6260 3549 mt 6236 3549 L
3844 3593 mt 
(3) s
3945 3495 mt 
(x 10) s
%%IncludeResource: font Helvetica
/Helvetica /ISOLatin1Encoding 80 FMSR

4171 3421 mt 
(-3) s
3945 4617 mt 6260 4617 L
3945 3549 mt 6260 3549 L
3945 4617 mt 3945 3549 L
6260 4617 mt 6260 3549 L
gs 3945 3549 2316 1069 rc
12 w
60 11 59 12 60 11 59 11 59 11 60 11 59 10 59 11 
60 10 59 10 59 9 60 9 59 9 60 8 59 7 59 7 
60 6 59 5 59 3 60 3 59 1 59 0 60 -1 59 -4 
59 -5 60 -8 59 -10 60 -12 59 -16 59 -18 60 -22 59 -26 
59 -30 60 -34 59 -40 59 -44 60 -51 59 -57 59 -64 3945 4296 40 MP stroke
6 w
c8
2315 0 3945 4617 2 MP stroke
gr

c8
0 sg
%%IncludeResource: font Helvetica
/Helvetica /ISOLatin1Encoding 120 FMSR

5069 3454 mt 
(b) s

end %%Color Dict

eplot
%%EndObject

epage
end

showpage

%%Trailer
%%EOF
