\relax 
\@writefile{lof}{\contentsline {figure}{\numberline {1}{\ignorespaces Total bank credit and interbank lending by US commerical banks}}{1}}
\newlabel{fig:interbankdata}{{1}{1}}
\@writefile{toc}{\contentsline {paragraph}{In the real world}{2}}
\@writefile{toc}{\contentsline {paragraph}{Dates and maturities}{2}}
